data/current_waveforms/drill_low.CSV

Model,DPO2024B
Firmware Version,1.52

Point Format,Y,,,
Horizontal Units,S,,,
Horizontal Scale,0.02,,,
Sample Interval,3.84025e-05,,,
Filter Frequency,2e+08,,,
Record Length,5208,,,
Gating,0.0% to 100.0%,,0.0% to 100.0%,
Probe Attenuation,10,,10,
Vertical Units,V,,V,
Vertical Offset,0,,0,
Vertical Scale,2,,2,
Label,,,,
TIME,CH1,CH1 Peak Detect,CH2,CH2 Peak Detect
-1.0280e-01,1.64,1.4,2.48,2.32
-1.0276e-01,1.64,1.8,2.48,2.64
-1.0272e-01,1.64,1.48,2.48,2.32
-1.0268e-01,1.64,1.88,2.48,2.64
-1.0265e-01,1.64,1.4,2.4,2.32
-1.0261e-01,1.64,1.88,2.48,2.64
-1.0257e-01,1.64,1.4,2.48,2.32
-1.0253e-01,1.72,1.88,2.48,2.64
-1.0249e-01,1.64,1.4,2.48,2.32
-1.0245e-01,1.64,1.8,2.4,2.64
-1.0242e-01,1.64,1.4,2.48,2.32
-1.0238e-01,1.64,1.8,2.48,2.64
-1.0234e-01,1.64,1.4,2.48,2.32
-1.0230e-01,1.64,1.88,2.48,2.64
-1.0226e-01,1.64,1.4,2.48,2.32
-1.0222e-01,1.64,1.88,2.48,2.64
-1.0219e-01,1.64,1.4,2.48,2.32
-1.0215e-01,1.72,1.88,2.48,2.64
-1.0211e-01,1.64,1.48,2.48,2.32
-1.0207e-01,1.64,1.8,2.48,2.64
-1.0203e-01,1.64,1.4,2.48,2.32
-1.0199e-01,1.64,1.8,2.48,2.64
-1.0196e-01,1.64,1.4,2.48,2.32
-1.0192e-01,1.64,1.8,2.48,2.64
-1.0188e-01,1.64,1.48,2.48,2.32
-1.0184e-01,1.64,1.8,2.48,2.64
-1.0180e-01,1.64,1.48,2.48,2.32
-1.0176e-01,1.64,1.88,2.48,2.64
-1.0172e-01,1.64,1.4,2.48,2.32
-1.0169e-01,1.56,1.8,2.48,2.64
-1.0165e-01,1.64,1.48,2.48,2.32
-1.0161e-01,1.64,1.88,2.48,2.64
-1.0157e-01,1.64,1.4,2.48,2.32
-1.0153e-01,1.64,1.8,2.48,2.64
-1.0149e-01,1.64,1.48,2.48,2.32
-1.0146e-01,1.64,1.8,2.4,2.64
-1.0142e-01,1.72,1.48,2.48,2.32
-1.0138e-01,1.64,1.8,2.48,2.64
-1.0134e-01,1.64,1.48,2.4,2.32
-1.0130e-01,1.64,1.8,2.48,2.56
-1.0126e-01,1.64,1.48,2.48,2.4
-1.0123e-01,1.64,1.8,2.48,2.64
-1.0119e-01,1.64,1.48,2.48,2.32
-1.0115e-01,1.64,1.8,2.48,2.64
-1.0111e-01,1.64,1.48,2.48,2.32
-1.0107e-01,1.64,1.8,2.48,2.64
-1.0103e-01,1.64,1.48,2.48,2.32
-1.0100e-01,1.64,1.8,2.4,2.64
-1.0096e-01,1.64,1.4,2.48,2.32
-1.0092e-01,1.64,1.8,2.48,2.64
-1.0088e-01,1.64,1.4,2.48,2.32
-1.0084e-01,1.64,1.88,2.48,2.64
-1.0080e-01,1.64,1.48,2.48,2.24
-1.0076e-01,1.64,1.8,2.48,2.64
-1.0073e-01,1.64,1.4,2.4,2.32
-1.0069e-01,1.64,1.8,2.48,2.56
-1.0065e-01,1.64,1.48,2.48,2.32
-1.0061e-01,1.64,1.8,2.4,2.56
-1.0057e-01,1.64,1.4,2.48,2.32
-1.0053e-01,1.64,1.8,2.48,2.64
-1.0050e-01,1.64,1.4,2.4,2.32
-1.0046e-01,1.64,1.8,2.48,2.56
-1.0042e-01,1.64,1.48,2.48,2.24
-1.0038e-01,1.64,1.8,2.48,2.56
-1.0034e-01,1.64,1.32,2.4,2.24
-1.0030e-01,1.64,1.88,2.4,2.64
-1.0027e-01,1.64,1,2.4,1.92
-1.0023e-01,1.64,2.04,2.48,2.8
-1.0019e-01,1.56,1.24,2.4,2.24
-1.0015e-01,1.48,1.8,2.32,2.56
-1.0011e-01,1.4,0.92,2.4,2.16
-1.0007e-01,1.32,1.64,2.32,2.56
-1.0004e-01,1.24,0.84,2.32,2.16
-9.9997e-02,1.16,1.4,2.32,2.56
-9.9958e-02,1.16,0.68,2.4,2.16
-9.9920e-02,0.92,1.32,2.32,2.56
-9.9881e-02,0.92,0.6,2.32,2.16
-9.9843e-02,0.84,1.16,2.32,2.56
-9.9805e-02,0.84,0.52,2.32,2.16
-9.9766e-02,0.76,1.08,2.24,2.48
-9.9728e-02,0.84,0.36,2.32,2.08
-9.9689e-02,0.76,1,2.24,2.56
-9.9651e-02,0.76,0.36,2.24,2.08
-9.9613e-02,0.76,0.92,2.24,2.48
-9.9574e-02,0.68,0.36,2.32,2.08
-9.9536e-02,0.68,0.92,2.24,2.48
-9.9497e-02,0.68,0.36,2.24,2.08
-9.9459e-02,0.68,0.92,2.24,2.48
-9.9421e-02,0.6,0.36,2.24,2.08
-9.9382e-02,0.52,0.84,2.08,2.48
-9.9344e-02,0.6,0.28,2.16,2
-9.9305e-02,0.6,0.84,2.16,2.4
-9.9267e-02,0.6,0.36,2.16,2
-9.9229e-02,0.6,0.84,2.16,2.4
-9.9190e-02,0.84,0.36,2.32,2
-9.9152e-02,0.6,0.92,2.16,2.4
-9.9113e-02,0.68,0.36,2.08,1.92
-9.9075e-02,0.68,0.92,2.16,2.32
-9.9037e-02,0.68,0.36,2.16,1.92
-9.8998e-02,0.68,0.92,2.24,2.32
-9.8960e-02,0.6,0.36,2.08,1.92
-9.8921e-02,0.6,0.84,2.08,2.32
-9.8883e-02,0.6,0.28,2.08,1.84
-9.8845e-02,0.6,0.84,2.08,2.32
-9.8806e-02,0.36,0.28,1.92,1.84
-9.8768e-02,0.6,0.84,2,2.32
-9.8729e-02,0.6,0.36,2.08,1.84
-9.8691e-02,0.68,0.92,2.08,2.32
-9.8653e-02,0.68,0.44,2,1.84
-9.8614e-02,0.68,0.92,1.92,2.24
-9.8576e-02,0.76,0.52,2,1.76
-9.8537e-02,0.84,1.08,2,2.24
-9.8499e-02,0.92,0.68,2,1.76
-9.8461e-02,0.92,1.16,2,2.24
-9.8422e-02,1.08,0.76,1.92,1.68
-9.8384e-02,1.08,1.32,2,2.16
-9.8345e-02,1.08,0.92,1.92,1.76
-9.8307e-02,1.16,1.4,1.92,2.16
-9.8269e-02,1.16,1,1.92,1.68
-9.8230e-02,1.24,1.4,1.92,2.16
-9.8192e-02,1.24,1,1.92,1.68
-9.8153e-02,1.32,1.48,1.92,2.16
-9.8115e-02,1.32,1.08,1.84,1.68
-9.8076e-02,1.4,1.56,1.92,2.08
-9.8038e-02,1.48,1.16,1.92,1.6
-9.8000e-02,1.48,1.72,1.84,2.08
-9.7961e-02,1.56,1.32,1.84,1.6
-9.7923e-02,1.56,1.88,1.84,2.08
-9.7884e-02,1.64,1.48,1.84,1.6
-9.7846e-02,1.8,1.96,1.84,2.08
-9.7808e-02,1.8,1.56,1.84,1.6
-9.7769e-02,1.88,2.12,1.84,2.08
-9.7731e-02,1.88,1.64,1.84,1.6
-9.7692e-02,1.96,2.12,1.84,2
-9.7654e-02,1.96,1.64,1.68,1.52
-9.7616e-02,1.96,2.2,1.76,2.08
-9.7577e-02,1.96,1.72,1.76,1.52
-9.7539e-02,2.04,2.2,1.76,2
-9.7500e-02,2.04,1.8,1.76,1.52
-9.7462e-02,2.12,2.28,1.76,1.92
-9.7424e-02,2.12,1.8,1.68,1.52
-9.7385e-02,2.12,2.36,1.68,2
-9.7347e-02,2.12,1.8,1.68,1.44
-9.7308e-02,2.2,2.44,1.76,2
-9.7270e-02,2.2,1.8,1.76,1.44
-9.7232e-02,2.2,2.44,1.68,1.92
-9.7193e-02,2.2,1.88,1.68,1.44
-9.7155e-02,2.2,2.52,1.68,2
-9.7116e-02,2.28,1.96,1.6,1.44
-9.7078e-02,2.36,2.52,1.68,1.92
-9.7040e-02,2.28,1.96,1.68,1.36
-9.7001e-02,2.36,2.6,1.6,1.92
-9.6963e-02,2.36,1.96,1.6,1.36
-9.6924e-02,2.36,2.6,1.6,1.92
-9.6886e-02,2.52,1.96,1.6,1.36
-9.6848e-02,2.36,2.68,1.6,1.92
-9.6809e-02,2.36,2.04,1.6,1.36
-9.6771e-02,2.36,2.68,1.52,1.84
-9.6732e-02,2.36,2.04,1.52,1.28
-9.6694e-02,2.36,2.68,1.52,1.84
-9.6656e-02,2.36,2.04,1.52,1.36
-9.6617e-02,2.36,2.68,1.52,1.84
-9.6579e-02,2.36,1.96,1.52,1.28
-9.6540e-02,2.36,2.6,1.52,1.76
-9.6502e-02,2.36,1.96,1.44,1.28
-9.6464e-02,2.28,2.6,1.52,1.76
-9.6425e-02,2.28,1.96,1.52,1.28
-9.6387e-02,2.28,2.6,1.44,1.76
-9.6348e-02,2.28,1.88,1.44,1.2
-9.6310e-02,2.2,2.52,1.44,1.76
-9.6272e-02,2.2,1.88,1.44,1.2
-9.6233e-02,2.28,2.52,1.44,1.68
-9.6195e-02,2.2,1.8,1.44,1.2
-9.6156e-02,2.2,2.44,1.44,1.68
-9.6118e-02,2.2,1.8,1.36,1.2
-9.6080e-02,2.2,2.44,1.36,1.68
-9.6041e-02,2.2,1.72,1.36,1.2
-9.6003e-02,2.2,2.44,1.36,1.6
-9.5964e-02,2.12,1.8,1.36,1.12
-9.5926e-02,2.04,2.44,1.36,1.6
-9.5888e-02,2.12,1.72,1.36,1.12
-9.5849e-02,2.12,2.36,1.36,1.6
-9.5811e-02,2.12,1.72,1.28,1.12
-9.5772e-02,2.12,2.36,1.28,1.6
-9.5734e-02,2.12,1.72,1.28,1.12
-9.5696e-02,2.12,2.36,1.28,1.6
-9.5657e-02,2.04,1.72,1.28,1.12
-9.5619e-02,2.04,2.36,1.28,1.52
-9.5580e-02,2.04,1.72,1.2,1.12
-9.5542e-02,1.96,2.28,1.2,1.52
-9.5504e-02,2.04,1.72,1.2,1.12
-9.5465e-02,1.96,2.28,1.2,1.44
-9.5427e-02,2.04,1.72,1.28,1.12
-9.5388e-02,2.04,2.2,1.28,1.44
-9.5350e-02,1.96,1.8,1.2,1.04
-9.5312e-02,2.04,2.12,1.2,1.36
-9.5273e-02,1.96,1.8,1.2,1.04
-9.5235e-02,1.96,2.12,1.2,1.36
-9.5196e-02,1.96,1.8,1.2,1.04
-9.5158e-02,1.96,2.04,1.2,1.28
-9.5120e-02,1.96,1.8,1.2,1.04
-9.5081e-02,1.96,2.04,1.2,1.28
-9.5043e-02,1.88,1.8,1.12,1.04
-9.5004e-02,1.88,2.04,1.12,1.28
-9.4966e-02,1.96,1.8,1.12,1.04
-9.4927e-02,1.88,2.04,1.12,1.2
-9.4889e-02,1.88,1.72,1.12,1.04
-9.4851e-02,1.88,1.96,1.12,1.28
-9.4812e-02,1.88,1.8,1.04,1.04
-9.4774e-02,1.88,1.96,1.12,1.2
-9.4735e-02,1.88,1.72,1.12,1.04
-9.4697e-02,1.8,1.96,1.12,1.2
-9.4659e-02,1.88,1.72,1.12,1.04
-9.4620e-02,1.88,1.96,1.12,1.2
-9.4582e-02,1.8,1.72,1.12,0.96
-9.4543e-02,1.88,1.96,1.12,1.2
-9.4505e-02,1.88,1.72,1.12,1.04
-9.4467e-02,1.88,1.96,1.12,1.2
-9.4428e-02,1.8,1.72,1.04,1.04
-9.4390e-02,1.8,1.96,1.12,1.2
-9.4351e-02,1.8,1.72,1.12,0.96
-9.4313e-02,1.8,1.88,1.12,1.2
-9.4275e-02,1.8,1.72,1.12,0.96
-9.4236e-02,1.8,1.88,1.12,1.2
-9.4198e-02,1.88,1.72,1.04,0.96
-9.4159e-02,1.8,1.88,1.04,1.2
-9.4121e-02,1.88,1.72,1.12,0.96
-9.4083e-02,1.8,1.88,1.12,1.2
-9.4044e-02,1.8,1.72,1.12,0.96
-9.4006e-02,1.8,1.88,1.12,1.2
-9.3967e-02,1.8,1.72,1.12,0.96
-9.3929e-02,1.8,1.88,1.12,1.28
-9.3891e-02,1.72,1.72,1.04,0.96
-9.3852e-02,1.8,1.88,1.04,1.2
-9.3814e-02,1.8,1.64,1.12,0.96
-9.3775e-02,1.8,1.88,1.04,1.2
-9.3737e-02,1.8,1.64,1.12,0.96
-9.3699e-02,1.8,1.88,1.04,1.12
-9.3660e-02,1.8,1.64,1.12,0.96
-9.3622e-02,1.8,1.88,1.12,1.2
-9.3583e-02,1.72,1.64,1.04,0.96
-9.3545e-02,1.8,1.88,1.04,1.2
-9.3507e-02,1.72,1.64,1.04,0.96
-9.3468e-02,1.72,1.88,1.12,1.2
-9.3430e-02,1.72,1.64,1.04,0.96
-9.3391e-02,1.72,1.8,1.04,1.12
-9.3353e-02,1.72,1.64,1.04,0.96
-9.3315e-02,1.8,1.8,1.12,1.12
-9.3276e-02,1.72,1.64,1.04,0.96
-9.3238e-02,1.72,1.8,1.04,1.12
-9.3199e-02,1.72,1.64,1.04,0.96
-9.3161e-02,1.72,1.8,1.12,1.12
-9.3123e-02,1.72,1.64,1.12,0.96
-9.3084e-02,1.72,1.8,1.04,1.2
-9.3046e-02,1.72,1.64,1.04,0.96
-9.3007e-02,1.72,1.8,1.04,1.12
-9.2969e-02,1.72,1.64,1.04,0.96
-9.2931e-02,1.72,1.8,1.04,1.12
-9.2892e-02,1.72,1.64,1.04,0.96
-9.2854e-02,1.72,1.8,1.04,1.2
-9.2815e-02,1.72,1.56,1.04,0.96
-9.2777e-02,1.72,1.8,1.04,1.2
-9.2739e-02,1.72,1.56,1.04,0.96
-9.2700e-02,1.72,1.8,1.12,1.12
-9.2662e-02,1.72,1.56,1.12,0.96
-9.2623e-02,1.64,1.8,1.12,1.2
-9.2585e-02,1.72,1.56,1.12,0.96
-9.2547e-02,1.72,1.8,1.12,1.2
-9.2508e-02,1.64,1.56,1.04,0.96
-9.2470e-02,1.72,1.8,1.12,1.2
-9.2431e-02,1.64,1.56,1.12,1.04
-9.2393e-02,1.64,1.8,1.12,1.2
-9.2355e-02,1.72,1.56,1.04,1.04
-9.2316e-02,1.64,1.8,1.12,1.2
-9.2278e-02,1.64,1.56,1.12,1.04
-9.2239e-02,1.64,1.8,1.12,1.2
-9.2201e-02,1.64,1.56,1.12,1.04
-9.2163e-02,1.72,1.8,1.12,1.28
-9.2124e-02,1.72,1.56,1.12,1.04
-9.2086e-02,1.72,1.8,1.12,1.2
-9.2047e-02,1.64,1.48,1.12,0.96
-9.2009e-02,1.72,1.88,1.2,1.28
-9.1971e-02,1.72,1.48,1.12,0.96
-9.1932e-02,1.72,1.96,1.12,1.36
-9.1894e-02,1.64,1.4,1.12,0.96
-9.1855e-02,1.72,2.04,1.12,1.44
-9.1817e-02,1.64,1.48,1.12,0.96
-9.1778e-02,1.72,2.04,1.2,1.44
-9.1740e-02,1.64,1.4,1.12,0.96
-9.1702e-02,1.72,2.04,1.2,1.44
-9.1663e-02,1.72,1.4,1.2,0.96
-9.1625e-02,1.72,2.04,1.2,1.52
-9.1586e-02,1.72,1.4,1.2,1.04
-9.1548e-02,1.64,1.96,1.2,1.52
-9.1510e-02,1.64,1.4,1.2,0.96
-9.1471e-02,1.72,2.04,1.28,1.52
-9.1433e-02,1.64,1.48,1.2,1.04
-9.1394e-02,1.64,1.96,1.28,1.52
-9.1356e-02,1.64,1.48,1.28,1.04
-9.1318e-02,1.72,2.04,1.28,1.6
-9.1279e-02,1.72,1.48,1.28,1.04
-9.1241e-02,1.64,2.04,1.28,1.6
-9.1202e-02,1.64,1.4,1.36,1.12
-9.1164e-02,1.72,2.04,1.28,1.6
-9.1126e-02,1.64,1.48,1.36,1.12
-9.1087e-02,1.72,1.96,1.28,1.6
-9.1049e-02,1.72,1.4,1.36,1.12
-9.1010e-02,1.64,1.96,1.36,1.68
-9.0972e-02,1.64,1.48,1.36,1.12
-9.0934e-02,1.72,1.96,1.36,1.6
-9.0895e-02,1.64,1.4,1.36,1.2
-9.0857e-02,1.64,1.96,1.44,1.68
-9.0818e-02,1.64,1.4,1.36,1.2
-9.0780e-02,1.64,1.96,1.36,1.68
-9.0742e-02,1.64,1.4,1.44,1.2
-9.0703e-02,1.64,1.96,1.44,1.68
-9.0665e-02,1.64,1.4,1.44,1.2
-9.0626e-02,1.64,1.96,1.44,1.76
-9.0588e-02,1.64,1.4,1.52,1.2
-9.0550e-02,1.64,1.96,1.44,1.76
-9.0511e-02,1.64,1.4,1.52,1.28
-9.0473e-02,1.64,1.96,1.44,1.76
-9.0434e-02,1.64,1.4,1.44,1.28
-9.0396e-02,1.64,1.96,1.52,1.76
-9.0358e-02,1.64,1.4,1.52,1.28
-9.0319e-02,1.64,1.96,1.52,1.76
-9.0281e-02,1.64,1.4,1.52,1.36
-9.0242e-02,1.64,1.96,1.52,1.84
-9.0204e-02,1.64,1.4,1.52,1.36
-9.0166e-02,1.64,1.96,1.52,1.92
-9.0127e-02,1.64,1.4,1.6,1.36
-9.0089e-02,1.64,1.96,1.52,1.92
-9.0050e-02,1.64,1.4,1.6,1.44
-9.0012e-02,1.64,1.88,1.6,1.84
-8.9974e-02,1.72,1.4,1.6,1.44
-8.9935e-02,1.64,1.88,1.6,1.84
-8.9897e-02,1.64,1.4,1.68,1.44
-8.9858e-02,1.64,1.88,1.6,1.84
-8.9820e-02,1.64,1.4,1.6,1.44
-8.9782e-02,1.64,1.96,1.68,1.92
-8.9743e-02,1.64,1.4,1.68,1.52
-8.9705e-02,1.64,1.96,1.68,2
-8.9666e-02,1.64,1.4,1.68,1.52
-8.9628e-02,1.64,1.88,1.76,1.92
-8.9590e-02,1.64,1.4,1.76,1.52
-8.9551e-02,1.64,1.96,1.68,2
-8.9513e-02,1.64,1.4,1.68,1.6
-8.9474e-02,1.64,1.88,1.76,2
-8.9436e-02,1.64,1.4,1.76,1.6
-8.9398e-02,1.56,1.88,1.68,1.92
-8.9359e-02,1.64,1.4,1.76,1.6
-8.9321e-02,1.64,1.96,1.76,2.08
-8.9282e-02,1.64,1.48,1.76,1.52
-8.9244e-02,1.72,1.96,1.84,1.92
-8.9206e-02,1.64,1.4,1.84,1.6
-8.9167e-02,1.64,1.96,1.84,2.08
-8.9129e-02,1.64,1.4,1.76,1.6
-8.9090e-02,1.64,1.88,1.84,2.08
-8.9052e-02,1.64,1.32,1.84,1.6
-8.9014e-02,1.64,1.88,1.84,2.08
-8.8975e-02,1.64,1.32,1.84,1.6
-8.8937e-02,1.64,1.88,1.84,2.08
-8.8898e-02,1.64,1.32,1.92,1.6
-8.8860e-02,1.64,1.88,1.84,2.16
-8.8822e-02,1.64,1.24,1.92,1.6
-8.8783e-02,1.64,1.88,1.84,2.16
-8.8745e-02,1.64,1.32,1.92,1.76
-8.8706e-02,1.64,1.88,2,2.24
-8.8668e-02,1.64,1.24,2,1.76
-8.8629e-02,1.64,1.88,2,2.24
-8.8591e-02,1.64,1.24,2,1.76
-8.8553e-02,1.64,1.96,2,2.24
-8.8514e-02,1.64,1.32,1.92,1.76
-8.8476e-02,1.64,1.96,1.92,2.24
-8.8437e-02,1.64,1.32,2,1.76
-8.8399e-02,1.64,1.96,2,2.24
-8.8361e-02,1.64,1.24,2,1.84
-8.8322e-02,1.64,1.88,2,2.32
-8.8284e-02,1.64,1.32,2.08,1.84
-8.8245e-02,1.56,1.96,2.08,2.32
-8.8207e-02,1.64,1.32,2.08,1.84
-8.8169e-02,1.64,1.96,2.08,2.32
-8.8130e-02,1.64,1.32,2.08,1.92
-8.8092e-02,1.72,1.96,2.08,2.32
-8.8053e-02,1.64,1.24,2.08,1.92
-8.8015e-02,1.64,1.96,2.08,2.4
-8.7977e-02,1.64,1.32,2.16,1.92
-8.7938e-02,1.64,1.88,2.16,2.4
-8.7900e-02,1.56,1.24,2.16,1.92
-8.7861e-02,1.56,1.96,2.16,2.4
-8.7823e-02,1.56,1.24,2.16,2
-8.7785e-02,1.64,1.96,2.16,2.4
-8.7746e-02,1.64,1.24,2.24,2
-8.7708e-02,1.64,1.88,2.24,2.48
-8.7669e-02,1.64,1.24,2.24,2
-8.7631e-02,1.64,1.96,2.24,2.48
-8.7593e-02,1.64,1.24,2.16,2.08
-8.7554e-02,1.64,1.88,2.16,2.48
-8.7516e-02,1.64,1.24,2.24,2.08
-8.7477e-02,1.64,1.96,2.24,2.48
-8.7439e-02,1.64,1.24,2.24,2.08
-8.7401e-02,1.64,1.88,2.32,2.48
-8.7362e-02,1.64,1.32,2.32,2.16
-8.7324e-02,1.64,1.88,2.32,2.56
-8.7285e-02,1.64,1.32,2.32,2.16
-8.7247e-02,1.64,1.88,2.32,2.56
-8.7209e-02,1.64,1.32,2.32,2.16
-8.7170e-02,1.56,1.88,2.32,2.56
-8.7132e-02,1.64,1.32,2.32,2.16
-8.7093e-02,1.64,1.88,2.32,2.56
-8.7055e-02,1.64,1.32,2.32,2.16
-8.7017e-02,1.64,1.88,2.32,2.56
-8.6978e-02,1.64,1.4,2.32,2.24
-8.6940e-02,1.64,1.88,2.4,2.56
-8.6901e-02,1.64,1.4,2.32,2.24
-8.6863e-02,1.64,1.88,2.4,2.56
-8.6825e-02,1.64,1.4,2.4,2.16
-8.6786e-02,1.64,1.8,2.32,2.56
-8.6748e-02,1.64,1.4,2.4,2.24
-8.6709e-02,1.64,1.88,2.4,2.56
-8.6671e-02,1.64,1.48,2.4,2.24
-8.6633e-02,1.64,1.88,2.4,2.56
-8.6594e-02,1.64,1.4,2.4,2.24
-8.6556e-02,1.64,1.88,2.4,2.56
-8.6517e-02,1.64,1.4,2.4,2.24
-8.6479e-02,1.64,1.88,2.4,2.56
-8.6441e-02,1.64,1.48,2.48,2.24
-8.6402e-02,1.64,1.8,2.4,2.56
-8.6364e-02,1.64,1.4,2.4,2.32
-8.6325e-02,1.64,1.88,2.4,2.64
-8.6287e-02,1.64,1.4,2.48,2.32
-8.6249e-02,1.64,1.88,2.48,2.64
-8.6210e-02,1.72,1.4,2.48,2.32
-8.6172e-02,1.64,1.88,2.48,2.64
-8.6133e-02,1.64,1.4,2.48,2.32
-8.6095e-02,1.64,1.88,2.48,2.64
-8.6057e-02,1.64,1.4,2.48,2.32
-8.6018e-02,1.72,1.88,2.56,2.64
-8.5980e-02,1.64,1.48,2.48,2.32
-8.5941e-02,1.64,1.88,2.48,2.64
-8.5903e-02,1.64,1.4,2.4,2.32
-8.5865e-02,1.64,1.88,2.48,2.64
-8.5826e-02,1.72,1.4,2.4,2.32
-8.5788e-02,1.56,1.88,2.48,2.64
-8.5749e-02,1.64,1.4,2.48,2.32
-8.5711e-02,1.64,1.8,2.48,2.64
-8.5673e-02,1.64,1.48,2.48,2.32
-8.5634e-02,1.64,1.8,2.48,2.64
-8.5596e-02,1.64,1.4,2.48,2.32
-8.5557e-02,1.64,1.8,2.48,2.64
-8.5519e-02,1.64,1.4,2.48,2.32
-8.5480e-02,1.64,1.8,2.48,2.64
-8.5442e-02,1.64,1.4,2.48,2.32
-8.5404e-02,1.56,1.88,2.48,2.64
-8.5365e-02,1.64,1.4,2.48,2.32
-8.5327e-02,1.64,1.8,2.48,2.64
-8.5288e-02,1.64,1.4,2.48,2.32
-8.5250e-02,1.64,1.8,2.56,2.64
-8.5212e-02,1.64,1.4,2.48,2.32
-8.5173e-02,1.64,1.88,2.48,2.64
-8.5135e-02,1.64,1.48,2.48,2.32
-8.5096e-02,1.64,1.8,2.48,2.64
-8.5058e-02,1.64,1.4,2.48,2.32
-8.5020e-02,1.64,1.8,2.48,2.64
-8.4981e-02,1.64,1.4,2.48,2.32
-8.4943e-02,1.56,1.8,2.48,2.64
-8.4904e-02,1.64,1.48,2.48,2.32
-8.4866e-02,1.64,1.88,2.56,2.64
-8.4828e-02,1.64,1.4,2.48,2.32
-8.4789e-02,1.56,1.8,2.48,2.64
-8.4751e-02,1.64,1.4,2.48,2.32
-8.4712e-02,1.64,1.8,2.48,2.64
-8.4674e-02,1.64,1.48,2.48,2.32
-8.4636e-02,1.64,1.8,2.48,2.64
-8.4597e-02,1.64,1.48,2.56,2.32
-8.4559e-02,1.64,1.8,2.48,2.64
-8.4520e-02,1.64,1.48,2.48,2.32
-8.4482e-02,1.64,1.8,2.48,2.64
-8.4444e-02,1.64,1.4,2.48,2.32
-8.4405e-02,1.64,1.8,2.48,2.64
-8.4367e-02,1.64,1.4,2.48,2.32
-8.4328e-02,1.64,1.8,2.48,2.64
-8.4290e-02,1.56,1.4,2.48,2.32
-8.4252e-02,1.64,1.8,2.48,2.64
-8.4213e-02,1.56,1.4,2.48,2.32
-8.4175e-02,1.64,1.8,2.48,2.64
-8.4136e-02,1.64,1.48,2.48,2.32
-8.4098e-02,1.56,1.8,2.48,2.64
-8.4060e-02,1.64,1.4,2.48,2.32
-8.4021e-02,1.64,1.8,2.48,2.64
-8.3983e-02,1.64,1.4,2.48,2.32
-8.3944e-02,1.64,1.8,2.48,2.64
-8.3906e-02,1.64,1.4,2.48,2.24
-8.3868e-02,1.64,1.88,2.48,2.56
-8.3829e-02,1.64,1.4,2.4,2.32
-8.3791e-02,1.64,1.8,2.4,2.56
-8.3752e-02,1.64,1.4,2.4,2.32
-8.3714e-02,1.64,1.88,2.4,2.56
-8.3676e-02,1.64,1.32,2.4,2.24
-8.3637e-02,1.64,1.88,2.4,2.64
-8.3599e-02,1.64,1,2.4,2
-8.3560e-02,1.64,2.04,2.4,2.8
-8.3522e-02,1.64,1.16,2.48,2.24
-8.3484e-02,1.48,1.8,2.4,2.64
-8.3445e-02,1.4,0.92,2.4,2.16
-8.3407e-02,1.24,1.56,2.4,2.64
-8.3368e-02,1.16,0.76,2.32,2.24
-8.3330e-02,1.08,1.32,2.32,2.56
-8.3292e-02,1,0.6,2.32,2.16
-8.3253e-02,1,1.24,2.32,2.56
-8.3215e-02,0.92,0.6,2.32,2.16
-8.3176e-02,0.92,1.16,2.32,2.56
-8.3138e-02,0.84,0.52,2.32,2.16
-8.3100e-02,0.76,1.08,2.32,2.56
-8.3061e-02,0.76,0.44,2.32,2.16
-8.3023e-02,0.68,0.92,2.32,2.48
-8.2984e-02,0.6,0.36,2.24,2.08
-8.2946e-02,0.68,0.92,2.24,2.48
-8.2908e-02,0.68,0.36,2.32,2.08
-8.2869e-02,0.68,0.92,2.24,2.48
-8.2831e-02,0.68,0.44,2.24,2.08
-8.2792e-02,0.76,0.92,2.24,2.48
-8.2754e-02,0.68,0.36,2.24,2.08
-8.2716e-02,0.68,0.92,2.24,2.48
-8.2677e-02,0.68,0.36,2.16,2
-8.2639e-02,0.68,0.92,2.24,2.4
-8.2600e-02,0.68,0.36,2.16,2
-8.2562e-02,0.6,0.84,2.16,2.4
-8.2524e-02,0.68,0.28,2.16,2
-8.2485e-02,0.6,0.84,2.16,2.4
-8.2447e-02,0.6,0.28,2.16,1.92
-8.2408e-02,0.52,0.76,2.08,2.32
-8.2370e-02,0.6,0.28,2.16,1.92
-8.2331e-02,0.6,0.84,2.08,2.4
-8.2293e-02,0.6,0.36,2.16,1.92
-8.2255e-02,0.6,0.92,2.16,2.32
-8.2216e-02,0.6,0.44,2.08,1.92
-8.2178e-02,0.68,0.92,2.08,2.32
-8.2139e-02,0.68,0.44,2,1.84
-8.2101e-02,0.76,1,2,2.32
-8.2063e-02,0.76,0.44,2.08,1.84
-8.2024e-02,0.76,1,2.08,2.32
-8.1986e-02,0.76,0.44,2.08,1.84
-8.1947e-02,0.76,1,2,2.32
-8.1909e-02,0.76,0.44,2,1.76
-8.1871e-02,0.68,1,2,2.24
-8.1832e-02,0.76,0.52,1.92,1.76
-8.1794e-02,0.76,1,2,2.24
-8.1755e-02,0.84,0.6,1.92,1.76
-8.1717e-02,0.92,1.16,1.92,2.16
-8.1679e-02,1,0.76,1.92,1.76
-8.1640e-02,1,1.24,1.92,2.16
-8.1602e-02,1.16,0.92,1.92,1.68
-8.1563e-02,1.16,1.48,1.92,2.16
-8.1525e-02,1.24,1,1.92,1.68
-8.1487e-02,1.32,1.64,1.92,2.16
-8.1448e-02,1.4,1.16,1.92,1.68
-8.1410e-02,1.4,1.64,1.84,2.16
-8.1371e-02,1.48,1.24,1.92,1.6
-8.1333e-02,1.56,1.8,1.84,2.08
-8.1295e-02,1.56,1.32,1.84,1.6
-8.1256e-02,1.64,1.8,1.84,2.08
-8.1218e-02,1.64,1.4,1.84,1.6
-8.1179e-02,1.64,1.88,1.92,2.08
-8.1141e-02,1.72,1.48,1.84,1.6
-8.1103e-02,1.72,1.96,1.84,2
-8.1064e-02,1.8,1.56,1.84,1.6
-8.1026e-02,1.8,2.04,1.84,2
-8.0987e-02,1.88,1.64,1.76,1.52
-8.0949e-02,1.88,2.2,1.92,2.08
-8.0911e-02,1.96,1.72,1.84,1.52
-8.0872e-02,2.04,2.2,1.76,1.92
-8.0834e-02,2.04,1.8,1.76,1.52
-8.0795e-02,2.12,2.44,1.76,2
-8.0757e-02,2.2,1.88,1.68,1.44
-8.0719e-02,2.2,2.44,1.68,2
-8.0680e-02,2.12,1.88,1.68,1.44
-8.0642e-02,2.12,2.44,1.76,2
-8.0603e-02,2.12,1.8,1.68,1.44
-8.0565e-02,2.2,2.44,1.68,2
-8.0527e-02,2.2,1.88,1.68,1.44
-8.0488e-02,2.2,2.52,1.68,1.92
-8.0450e-02,2.2,1.88,1.68,1.44
-8.0411e-02,2.28,2.52,1.68,1.92
-8.0373e-02,2.28,1.96,1.6,1.36
-8.0335e-02,2.28,2.6,1.6,1.92
-8.0296e-02,2.28,2.04,1.6,1.36
-8.0258e-02,2.36,2.68,1.6,1.92
-8.0219e-02,2.36,2.04,1.6,1.36
-8.0181e-02,2.36,2.68,1.6,1.84
-8.0143e-02,2.44,2.04,1.6,1.36
-8.0104e-02,2.36,2.68,1.52,1.84
-8.0066e-02,2.44,2.04,1.52,1.36
-8.0027e-02,2.36,2.68,1.52,1.84
-7.9989e-02,2.36,2.04,1.52,1.28
-7.9951e-02,2.36,2.68,1.52,1.84
-7.9912e-02,2.36,1.96,1.52,1.28
-7.9874e-02,2.36,2.68,1.52,1.76
-7.9835e-02,2.36,1.88,1.52,1.28
-7.9797e-02,2.28,2.6,1.52,1.76
-7.9759e-02,2.28,1.88,1.44,1.28
-7.9720e-02,2.28,2.52,1.44,1.76
-7.9682e-02,2.28,1.88,1.44,1.28
-7.9643e-02,2.2,2.52,1.44,1.68
-7.9605e-02,2.2,1.8,1.44,1.2
-7.9567e-02,2.2,2.52,1.44,1.68
-7.9528e-02,2.2,1.8,1.44,1.2
-7.9490e-02,2.2,2.44,1.44,1.68
-7.9451e-02,2.12,1.8,1.44,1.2
-7.9413e-02,2.12,2.44,1.36,1.68
-7.9375e-02,2.12,1.8,1.36,1.2
-7.9336e-02,2.04,2.44,1.36,1.6
-7.9298e-02,2.2,1.72,1.36,1.2
-7.9259e-02,2.12,2.44,1.36,1.6
-7.9221e-02,2.12,1.72,1.36,1.12
-7.9182e-02,2.12,2.36,1.36,1.6
-7.9144e-02,2.04,1.72,1.36,1.12
-7.9106e-02,2.04,2.36,1.36,1.6
-7.9067e-02,2.12,1.72,1.28,1.12
-7.9029e-02,2.04,2.36,1.28,1.52
-7.8990e-02,2.04,1.72,1.28,1.12
-7.8952e-02,2.04,2.28,1.28,1.52
-7.8914e-02,2.04,1.72,1.28,1.04
-7.8875e-02,2.04,2.28,1.2,1.52
-7.8837e-02,2.04,1.72,1.28,1.04
-7.8798e-02,2.04,2.28,1.2,1.44
-7.8760e-02,2.04,1.8,1.28,1.12
-7.8722e-02,2.04,2.2,1.2,1.44
-7.8683e-02,2.04,1.8,1.2,1.12
-7.8645e-02,1.96,2.2,1.2,1.36
-7.8606e-02,1.96,1.8,1.2,1.12
-7.8568e-02,1.96,2.12,1.2,1.36
-7.8530e-02,1.96,1.8,1.2,1.12
