data/vcc_cdchg_w_icore/vcc_cdchg_mid.CSV

Model,DPO2024B
Firmware Version,1.52

Point Format,Y,,,
Horizontal Units,S,,,
Horizontal Scale,0.1,,,
Sample Interval,0.000192012,,,
Filter Frequency,2e+08,,,
Record Length,5192,,,
Gating,0.0% to 100.0%,,0.0% to 100.0%,
Probe Attenuation,10,,10,
Vertical Units,V,,V,
Vertical Offset,0,,0,
Vertical Scale,0.5,,5,
Label,,,,
TIME,CH1,CH1 Peak Detect,CH2,CH2 Peak Detect
-5.000e-01,0.07,-0.29,9.8,9.2
-4.998e-01,0.07,0.57,9.8,10
-4.996e-01,0.09,-0.29,9.8,9.2
-4.994e-01,0.09,0.55,9.8,10.2
-4.992e-01,0.07,-0.27,9.4,9.4
-4.990e-01,0.09,0.41,9.8,10.2
-4.988e-01,0.07,-0.23,9.8,9.4
-4.987e-01,0.09,0.37,10,10.2
-4.985e-01,0.09,-0.23,9.8,9.4
-4.983e-01,0.11,0.37,9.8,10.2
-4.981e-01,0.09,-0.23,9.8,9.4
-4.979e-01,0.09,0.37,9.8,10.2
-4.977e-01,0.09,-0.21,9.8,9.4
-4.975e-01,0.11,0.35,9.8,10.2
-4.973e-01,0.09,-0.19,10,9.4
-4.971e-01,0.11,0.35,9.8,10.2
-4.969e-01,0.11,-0.17,10,9.6
-4.967e-01,0.09,0.33,10.2,10.2
-4.965e-01,0.09,-0.19,10,9.4
-4.964e-01,0.11,0.33,9.8,10.2
-4.962e-01,0.11,-0.19,9.6,9.4
-4.960e-01,0.09,0.35,9.8,10.2
-4.958e-01,0.11,-0.25,9.8,9.6
-4.956e-01,0.09,0.45,9.6,10.2
-4.954e-01,0.11,-0.27,10,9.4
-4.952e-01,0.11,0.45,10,10.4
-4.950e-01,0.09,-0.25,10,9.6
-4.948e-01,0.09,0.45,9.8,10.4
-4.946e-01,0.11,-0.25,10,9.6
-4.944e-01,0.11,0.43,10,10.4
-4.942e-01,0.11,-0.23,10,9.6
-4.940e-01,0.07,0.43,9.8,10.4
-4.939e-01,0.11,-0.21,9.8,9.6
-4.937e-01,0.11,0.41,10,10.4
-4.935e-01,0.17,-0.15,10,9.6
-4.933e-01,0.11,0.47,10,10.4
-4.931e-01,0.09,-0.15,9.8,9.6
-4.929e-01,0.11,0.45,10,10.4
-4.927e-01,0.09,-0.13,10,9.6
-4.925e-01,0.07,0.49,10,10.4
-4.923e-01,0.07,-0.13,10,9.6
-4.921e-01,0.07,0.43,10,10.2
-4.919e-01,0.09,-0.11,10,9.6
-4.917e-01,0.09,0.41,10,10.2
-4.916e-01,0.07,-0.11,10,9.4
-4.914e-01,0.09,0.41,9.8,10.4
-4.912e-01,0.11,-0.11,10,9.6
-4.910e-01,0.09,0.37,10,10.2
-4.908e-01,0.09,-0.05,10,9.4
-4.906e-01,0.07,0.31,9.8,10.2
-4.904e-01,0.11,-0.03,10,9.4
-4.902e-01,0.09,0.19,9.8,10.2
-4.900e-01,0.07,-0.00999999,9.8,9.4
-4.898e-01,0.11,0.15,10,10.2
-4.896e-01,0.09,-0.03,9.8,9.4
-4.894e-01,0.11,0.15,9.8,10.2
-4.892e-01,0.07,-0.00999999,9.8,9.4
-4.891e-01,0.07,0.17,10,10.2
-4.889e-01,0.05,-0.00999999,9.8,9.4
-4.887e-01,0.09,0.17,9.8,10.2
-4.885e-01,0.07,-0.00999999,10,9.4
-4.883e-01,0.09,0.15,9.6,10.2
-4.881e-01,0.09,0.01,9.8,9.4
-4.879e-01,0.07,0.13,10,10.2
-4.877e-01,0.07,-0.11,9.8,9.4
-4.875e-01,0.09,0.49,9.8,10.2
-4.873e-01,0.09,-0.11,9.8,9.4
-4.871e-01,0.07,0.55,9.8,10.2
-4.869e-01,0.07,-0.11,9.8,9.4
-4.868e-01,0.09,0.55,9.6,10.2
-4.866e-01,0.09,-0.13,9.8,9.4
-4.864e-01,0.09,0.57,9.8,10.2
-4.862e-01,0.07,-0.13,9.8,9.4
-4.860e-01,0.07,0.57,9.6,10
-4.858e-01,0.07,-0.15,9.8,9.2
-4.856e-01,0.05,0.59,9.6,10.2
-4.854e-01,0.07,-0.17,9.8,9.2
-4.852e-01,0.07,0.61,9.6,10
-4.850e-01,0.09,-0.17,9.6,9.2
-4.848e-01,0.07,0.59,9.6,10
-4.846e-01,0.07,-0.21,9.6,9.2
-4.844e-01,0.07,0.57,9.8,10
-4.843e-01,0.07,-0.25,9.6,9.2
-4.841e-01,0.07,0.55,9.6,10
-4.839e-01,0.07,-0.27,9.8,9.2
-4.837e-01,0.09,0.57,9.6,10.2
-4.835e-01,0.07,-0.29,9.6,9.4
-4.833e-01,0.09,0.57,9.6,10
-4.831e-01,0.09,-0.31,9.8,9.4
-4.829e-01,0.09,0.57,9.6,10.2
-4.827e-01,0.09,-0.27,9.6,9.4
-4.825e-01,0.09,0.43,9.8,10.2
-4.823e-01,0.09,-0.23,9.8,9.4
-4.821e-01,0.09,0.37,9.8,10.2
-4.820e-01,0.11,-0.23,9.6,9.4
-4.818e-01,0.07,0.37,9.8,10.2
-4.816e-01,0.09,-0.23,9.6,9.4
-4.814e-01,0.07,0.39,9.8,10.2
-4.812e-01,0.09,-0.21,10,9.4
-4.810e-01,0.09,0.37,10,10.2
-4.808e-01,0.09,-0.21,9.8,9.4
-4.806e-01,0.07,0.39,10,10.2
-4.804e-01,0.09,-0.19,9.8,9.4
-4.802e-01,0.09,0.35,9.8,10.2
-4.800e-01,0.09,-0.21,9.8,9.4
-4.798e-01,0.09,0.33,9.8,10.2
-4.796e-01,0.09,-0.21,10,9.4
-4.795e-01,0.09,0.33,10,10.2
-4.793e-01,0.09,-0.25,10,9.4
-4.791e-01,0.09,0.47,10,10.2
-4.789e-01,0.09,-0.25,9.8,9.6
-4.787e-01,0.11,0.45,10,10.4
-4.785e-01,0.09,-0.25,9.8,9.6
-4.783e-01,0.11,0.43,10,10.4
-4.781e-01,0.09,-0.25,10,9.6
-4.779e-01,0.09,0.43,10,10.4
-4.777e-01,0.09,-0.23,10,9.6
-4.775e-01,0.09,0.41,10,10.4
-4.773e-01,0.09,-0.23,10,9.6
-4.772e-01,0.09,0.45,9.8,10.4
-4.770e-01,0.11,-0.21,10,9.6
-4.768e-01,0.17,0.45,10,10.4
-4.766e-01,0.09,-0.15,10,9.6
-4.764e-01,0.09,0.43,10,10.4
-4.762e-01,0.09,-0.15,9.8,9.6
-4.760e-01,0.09,0.49,10,10.2
-4.758e-01,0.09,-0.13,10,9.6
-4.756e-01,0.09,0.45,9.8,10.4
-4.754e-01,0.11,-0.11,10,9.6
-4.752e-01,0.11,0.43,10,10.4
-4.750e-01,0.11,-0.11,10,9.4
-4.748e-01,0.09,0.41,10,10.2
-4.747e-01,0.09,-0.11,10,9.4
-4.745e-01,0.07,0.39,9.8,10.2
-4.743e-01,0.09,-0.07,10,9.4
-4.741e-01,0.07,0.31,9.8,10.4
-4.739e-01,0.07,-0.05,9.8,9.4
-4.737e-01,0.09,0.23,9.8,10.2
-4.735e-01,0.07,-0.00999999,9.8,9.4
-4.733e-01,0.09,0.17,9.8,10.2
-4.731e-01,0.09,-0.00999999,10,9.4
-4.729e-01,0.09,0.15,9.8,10.2
-4.727e-01,0.09,-0.00999999,9.8,9.4
-4.725e-01,0.09,0.17,10,10.2
-4.724e-01,0.09,-0.00999999,9.8,9.4
-4.722e-01,0.09,0.15,9.8,10.2
-4.720e-01,0.09,-0.00999999,9.8,9.4
-4.718e-01,0.09,0.15,9.8,10.2
-4.716e-01,0.11,0.01,9.6,9.4
-4.714e-01,0.07,0.15,9.8,10.2
-4.712e-01,0.11,0.01,9.8,9.4
-4.710e-01,0.09,0.15,9.8,10.2
-4.708e-01,0.09,-0.13,9.8,9.4
-4.706e-01,0.07,0.53,9.8,10.2
-4.704e-01,0.05,-0.13,9.8,9.4
-4.702e-01,0.07,0.53,9.8,10.2
-4.700e-01,0.09,-0.13,9.6,9.4
-4.699e-01,0.09,0.55,9.8,10
-4.697e-01,0.05,-0.15,9.8,9.4
-4.695e-01,0.07,0.57,9.6,10.2
-4.693e-01,0.07,-0.15,9.6,9.4
-4.691e-01,0.07,0.59,9.6,10
-4.689e-01,0.07,-0.15,9.8,9.4
-4.687e-01,0.07,0.59,9.6,10.2
-4.685e-01,0.09,-0.17,9.6,9.2
-4.683e-01,0.09,0.59,9.4,10
-4.681e-01,0.07,-0.19,9.8,9.2
-4.679e-01,0.07,0.59,9.6,10
-4.677e-01,0.09,-0.27,9.6,9.2
-4.675e-01,-0.05,0.53,9.8,10
-4.674e-01,0.05,-0.27,9.6,9.2
-4.672e-01,0.09,0.55,9.6,10
-4.670e-01,0.07,-0.29,9.8,9.2
-4.668e-01,0.07,0.55,9.8,10
-4.666e-01,0.11,-0.29,9.6,9.4
-4.664e-01,0.09,0.57,9.8,10
-4.662e-01,0.07,-0.27,9.6,9.4
-4.660e-01,0.09,0.53,9.6,10.2
-4.658e-01,0.07,-0.25,9.8,9.4
-4.656e-01,0.09,0.41,9.8,10.2
-4.654e-01,0.09,-0.25,9.6,9.4
-4.652e-01,0.09,0.37,9.8,10.2
-4.651e-01,0.11,-0.25,9.6,9.4
-4.649e-01,0.07,0.39,9.8,10.2
-4.647e-01,0.09,-0.21,9.8,9.4
-4.645e-01,0.07,0.37,9.6,10.2
-4.643e-01,0.11,-0.21,9.8,9.4
-4.641e-01,0.09,0.35,9.8,10.2
-4.639e-01,0.11,-0.19,10.2,9.4
-4.637e-01,0.11,0.33,9.8,10.2
-4.635e-01,0.13,-0.17,10,9.4
-4.633e-01,0.11,0.33,10,10.2
-4.631e-01,0.09,-0.19,9.8,9.4
-4.629e-01,0.11,0.33,9.8,10.2
-4.627e-01,0.11,-0.25,10,9.6
-4.626e-01,0.11,0.45,10,10.2
-4.624e-01,0.13,-0.25,10,9.6
-4.622e-01,0.09,0.45,9.8,10.2
-4.620e-01,0.09,-0.27,10,9.4
-4.618e-01,0.09,0.45,10,10.4
-4.616e-01,0.09,-0.25,10,9.6
-4.614e-01,0.09,0.45,10,10.4
-4.612e-01,0.09,-0.25,10,9.6
-4.610e-01,0.09,0.43,10,10.4
-4.608e-01,0.11,-0.25,10,9.6
-4.606e-01,0.09,0.43,9.8,10.4
-4.604e-01,0.07,-0.21,9.8,9.6
-4.603e-01,0.09,0.47,10,10.4
-4.601e-01,0.13,-0.15,9.8,9.6
-4.599e-01,0.07,0.45,9.8,10.4
-4.597e-01,0.07,-0.15,10,9.6
-4.595e-01,0.07,0.47,10,10.4
-4.593e-01,0.07,-0.13,9.8,9.6
-4.591e-01,0.09,0.45,10,10.4
-4.589e-01,0.09,-0.13,10,9.6
-4.587e-01,0.07,0.43,10,10.4
-4.585e-01,0.09,-0.11,9.8,9.4
-4.583e-01,0.07,0.41,10,10.4
-4.581e-01,0.07,-0.11,10,9.6
-4.579e-01,0.07,0.39,10,10.2
-4.578e-01,0.09,-0.11,9.8,9.4
-4.576e-01,0.09,0.33,10,10.2
-4.574e-01,0.09,-0.05,10,9.4
-4.572e-01,0.09,0.27,9.8,10.2
-4.570e-01,0.09,-0.00999999,9.8,9.4
-4.568e-01,0.09,0.19,9.8,10.2
-4.566e-01,0.07,-0.00999999,9.8,9.4
-4.564e-01,0.07,0.17,9.8,10.2
-4.562e-01,0.09,-0.00999999,9.8,9.4
-4.560e-01,0.07,0.17,9.8,10.2
-4.558e-01,0.09,-0.00999999,10,9.4
-4.556e-01,0.07,0.17,9.8,10.2
-4.555e-01,0.05,-0.00999999,9.6,9.4
-4.553e-01,0.09,0.15,9.8,10.2
-4.551e-01,0.09,-0.00999999,9.6,9.4
-4.549e-01,0.09,0.15,9.8,10.2
-4.547e-01,0.09,0.01,9.8,9.4
-4.545e-01,0.07,0.13,9.8,10.2
-4.543e-01,0.07,-0.09,9.8,9.4
-4.541e-01,0.11,0.51,9.8,10.2
-4.539e-01,0.07,-0.11,9.8,9.2
-4.537e-01,0.09,0.53,9.8,10.2
-4.535e-01,0.09,-0.13,9.8,9.4
-4.533e-01,0.09,0.55,9.6,10.2
-4.531e-01,0.07,-0.15,9.6,9.4
-4.530e-01,0.07,0.55,9.6,10.2
-4.528e-01,0.07,-0.15,9.8,9.4
-4.526e-01,0.09,0.57,9.6,10
-4.524e-01,0.07,-0.15,9.8,9.4
-4.522e-01,0.07,0.59,9.6,10.2
-4.520e-01,0.07,-0.15,9.8,9.2
-4.518e-01,0.09,0.59,9.6,10
-4.516e-01,0.07,-0.19,9.6,9.2
-4.514e-01,0.09,0.59,9.6,10.2
-4.512e-01,0.09,-0.25,9.6,9.4
-4.510e-01,0.07,0.55,9.6,10
-4.508e-01,-0.00999999,-0.27,9.8,9.2
-4.507e-01,0.07,0.57,9.6,10
-4.505e-01,0.07,-0.27,9.6,9.2
-4.503e-01,0.07,0.55,9.8,10
-4.501e-01,0.07,-0.29,9.6,9.2
-4.499e-01,0.05,0.55,9.8,10.2
-4.497e-01,0.09,-0.29,9.8,9.4
-4.495e-01,0.09,0.55,9.6,10.2
-4.493e-01,0.09,-0.27,9.8,9.4
-4.491e-01,0.07,0.41,9.8,10.2
-4.489e-01,0.11,-0.23,9.8,9.4
-4.487e-01,0.09,0.37,9.8,10.2
-4.485e-01,0.09,-0.23,9.8,9.4
-4.483e-01,0.09,0.37,9.8,10.2
-4.482e-01,0.09,-0.23,9.8,9.4
-4.480e-01,0.09,0.37,9.8,10.2
-4.478e-01,0.09,-0.21,9.8,9.4
-4.476e-01,0.09,0.35,9.8,10.2
-4.474e-01,0.09,-0.19,9.8,9.4
-4.472e-01,0.11,0.33,9.8,10.4
-4.470e-01,0.09,-0.19,10,9.4
-4.468e-01,0.11,0.35,9.6,10.2
-4.466e-01,0.09,-0.19,9.8,9.4
-4.464e-01,0.11,0.33,10,10.2
-4.462e-01,0.09,-0.19,9.8,9.4
-4.460e-01,0.07,0.35,10,10.4
-4.459e-01,0.11,-0.25,10,9.6
-4.457e-01,0.13,0.47,10,10.4
-4.455e-01,0.39,-0.25,10,9.4
-4.453e-01,0.07,0.47,10,10.4
-4.451e-01,0.01,-0.25,10,9.4
-4.449e-01,0.09,0.43,10,10.4
-4.447e-01,0.11,-0.25,9.8,9.6
-4.445e-01,0.09,0.43,10,10.4
-4.443e-01,0.09,-0.23,9.8,9.6
-4.441e-01,0.07,0.43,10,10.4
-4.439e-01,0.11,-0.21,9.8,9.6
-4.437e-01,0.11,0.43,10,10.4
-4.435e-01,0.09,-0.23,10,9.6
-4.434e-01,0.07,0.45,9.8,10.4
-4.432e-01,0.05,-0.15,10,9.6
-4.430e-01,0.13,0.45,10,10.4
-4.428e-01,0.07,-0.15,10,9.6
-4.426e-01,0.09,0.47,9.8,10.4
-4.424e-01,0.11,-0.13,10,9.6
-4.422e-01,0.07,0.45,10,10.4
-4.420e-01,0.07,-0.11,10,9.4
-4.418e-01,0.07,0.43,9.8,10.2
-4.416e-01,0.09,-0.11,9.8,9.6
-4.414e-01,0.07,0.41,10,10.4
-4.412e-01,0.09,-0.09,9.8,9.4
-4.411e-01,0.09,0.37,9.8,10.2
-4.409e-01,0.07,-0.07,9.8,9.4
-4.407e-01,0.09,0.31,10,10.2
-4.405e-01,0.11,-0.03,10,9.4
-4.403e-01,0.07,0.21,10,10.2
-4.401e-01,0.07,-0.00999999,9.8,9.4
-4.399e-01,0.07,0.17,9.8,10.2
-4.397e-01,0.09,-0.00999999,9.8,9.4
-4.395e-01,0.09,0.17,9.8,10.2
-4.393e-01,0.07,-0.00999999,9.8,9.4
-4.391e-01,0.09,0.15,9.8,10.2
-4.389e-01,0.09,-0.00999999,9.8,9.4
-4.387e-01,0.05,0.15,9.6,10.2
-4.386e-01,0.09,-0.00999999,9.8,9.4
-4.384e-01,0.09,0.17,9.8,10.2
-4.382e-01,0.07,0.01,9.8,9.4
-4.380e-01,0.09,0.13,9.8,10.2
-4.378e-01,0.09,-0.05,9.8,9.4
-4.376e-01,0.07,0.23,9.8,10.2
-4.374e-01,0.09,-0.13,9.8,9.4
-4.372e-01,0.09,0.53,9.6,10.2
-4.370e-01,0.07,-0.13,9.8,9.4
-4.368e-01,0.11,0.55,9.8,10.2
-4.366e-01,0.09,-0.15,9.8,9.4
-4.364e-01,0.07,0.55,9.8,10.2
-4.363e-01,0.09,-0.15,9.8,9.4
-4.361e-01,0.09,0.57,9.6,10.2
-4.359e-01,0.07,-0.15,9.6,9.4
-4.357e-01,0.09,0.59,9.6,10
-4.355e-01,0.09,-0.17,9.6,9.2
-4.353e-01,0.07,0.59,9.6,10
-4.351e-01,0.05,-0.17,9.6,9.2
-4.349e-01,0.05,0.59,9.8,10
-4.347e-01,0.05,-0.19,9.6,9.2
-4.345e-01,0.07,0.59,9.6,10
-4.343e-01,0.05,-0.27,9.6,9.2
-4.341e-01,0.03,0.55,9.6,10
-4.339e-01,0.09,-0.27,9.8,9.2
-4.338e-01,0.09,0.55,9.6,10
-4.336e-01,0.09,-0.29,9.6,9.2
-4.334e-01,0.07,0.55,9.6,10
-4.332e-01,0.09,-0.31,9.6,9.2
-4.330e-01,0.05,0.55,9.6,10
-4.328e-01,0.11,-0.29,9.6,9.4
-4.326e-01,0.07,0.41,9.6,10.2
-4.324e-01,0.09,-0.25,9.8,9.4
-4.322e-01,0.09,0.39,9.6,10.2
-4.320e-01,0.09,-0.23,10,9.4
-4.318e-01,0.09,0.37,9.6,10.2
-4.316e-01,0.07,-0.23,9.8,9.4
-4.315e-01,0.09,0.37,9.8,10.2
-4.313e-01,0.09,-0.23,9.6,9.4
-4.311e-01,0.07,0.39,9.8,10.2
-4.309e-01,0.11,-0.19,9.6,9.4
-4.307e-01,0.09,0.35,10,10.2
-4.305e-01,0.09,-0.19,9.6,9.4
-4.303e-01,0.09,0.35,9.8,10.2
-4.301e-01,0.11,-0.17,9.8,9.4
-4.299e-01,0.11,0.33,10,10.2
-4.297e-01,0.11,-0.19,9.8,9.4
-4.295e-01,0.09,0.33,9.8,10.4
-4.293e-01,0.11,-0.27,10,9.4
-4.291e-01,0.11,0.45,10,10.2
-4.290e-01,0.09,-0.27,9.8,9.4
-4.288e-01,0.11,0.45,10,10.2
-4.286e-01,0.11,-0.27,9.8,9.6
-4.284e-01,0.11,0.43,9.8,10.2
-4.282e-01,0.09,-0.25,9.8,9.4
-4.280e-01,0.13,0.43,10,10.2
-4.278e-01,0.11,-0.25,10,9.4
-4.276e-01,0.07,0.43,10,10.4
-4.274e-01,0.07,-0.23,10,9.6
-4.272e-01,0.09,0.43,10,10.4
-4.270e-01,0.11,-0.21,10,9.6
-4.268e-01,0.11,0.47,10,10.4
-4.267e-01,0.09,-0.15,10,9.6
-4.265e-01,0.09,0.45,10,10.4
-4.263e-01,0.11,-0.15,9.8,9.4
-4.261e-01,0.05,0.47,9.8,10.4
-4.259e-01,0.05,-0.13,9.8,9.6
-4.257e-01,0.11,0.45,10,10.4
-4.255e-01,-0.00999999,-0.13,10,9.6
-4.253e-01,-0.05,0.43,9.8,10.4
-4.251e-01,0.07,-0.11,10,9.4
-4.249e-01,0.05,0.41,10,10.4
-4.247e-01,0.07,-0.11,9.8,9.4
-4.245e-01,0.07,0.39,9.8,10.2
-4.243e-01,0.09,-0.11,9.8,9.4
-4.242e-01,0.07,0.33,10,10.2
-4.240e-01,0.07,-0.05,9.8,9.4
-4.238e-01,0.09,0.27,9.8,10.2
-4.236e-01,0.09,-0.00999999,10,9.4
-4.234e-01,0.09,0.19,10,10.2
-4.232e-01,0.11,-0.00999999,9.8,9.4
-4.230e-01,0.07,0.15,10,10.2
-4.228e-01,0.09,-0.00999999,10,9.4
-4.226e-01,0.07,0.15,9.8,10.2
-4.224e-01,0.09,-0.00999999,9.8,9.4
-4.222e-01,0.07,0.17,9.8,10.2
-4.220e-01,0.09,-0.00999999,9.8,9.4
-4.219e-01,0.07,0.15,9.8,10.2
-4.217e-01,0.09,0.01,9.8,9.4
-4.215e-01,0.07,0.15,9.8,10.2
-4.213e-01,0.09,0.01,9.8,9.4
-4.211e-01,0.09,0.15,9.8,10.2
-4.209e-01,0.07,-0.11,9.8,9.4
-4.207e-01,0.07,0.53,9.8,10.2
-4.205e-01,0.07,-0.11,9.6,9.4
-4.203e-01,0.09,0.53,9.8,10.2
-4.201e-01,0.09,-0.13,9.6,9.4
-4.199e-01,0.07,0.55,9.6,10.2
-4.197e-01,0.07,-0.13,9.8,9.4
-4.195e-01,0.07,0.57,9.8,10
-4.194e-01,0.07,-0.15,9.8,9.4
-4.192e-01,0.09,0.59,9.8,10.2
-4.190e-01,0.09,-0.15,9.8,9.2
-4.188e-01,0.05,0.57,9.6,10
-4.186e-01,0.07,-0.17,9.8,9.2
-4.184e-01,0.07,0.59,9.8,10
-4.182e-01,0.07,-0.19,9.6,9.2
-4.180e-01,0.11,0.59,9.8,10
-4.178e-01,0.09,-0.31,9.6,9.2
-4.176e-01,0.07,0.55,9.8,10
-4.174e-01,0.07,-0.27,9.6,9.2
-4.172e-01,0.05,0.55,9.6,10
-4.171e-01,0.07,-0.29,9.8,9.2
-4.169e-01,0.09,0.55,9.6,10
-4.167e-01,0.09,-0.31,9.6,9.2
-4.165e-01,0.11,0.57,9.8,10
-4.163e-01,0.07,-0.29,9.8,9.2
-4.161e-01,0.09,0.53,9.8,10
-4.159e-01,0.07,-0.27,9.8,9.4
-4.157e-01,0.11,0.41,9.6,10.2
-4.155e-01,0.07,-0.25,9.8,9.4
-4.153e-01,0.09,0.37,9.8,10.2
-4.151e-01,0.09,-0.23,9.8,9.4
-4.149e-01,0.09,0.37,9.8,10.2
-4.147e-01,0.09,-0.23,9.8,9.4
-4.146e-01,0.09,0.41,9.8,10.2
-4.144e-01,0.11,-0.21,9.8,9.4
-4.142e-01,0.11,0.37,9.8,10.2
-4.140e-01,0.09,-0.17,10,9.4
-4.138e-01,0.11,0.33,9.8,10.2
-4.136e-01,0.09,-0.17,9.8,9.4
-4.134e-01,0.11,0.33,10,10.2
-4.132e-01,0.11,-0.17,9.8,9.4
-4.130e-01,0.09,0.33,10,10.2
-4.128e-01,0.09,-0.23,9.8,9.4
-4.126e-01,0.07,0.43,9.8,10.4
-4.124e-01,0.11,-0.25,10,9.4
-4.123e-01,0.09,0.47,9.8,10.2
-4.121e-01,0.09,-0.27,9.8,9.4
-4.119e-01,0.07,0.45,10,10.4
-4.117e-01,0.07,-0.27,9.8,9.4
-4.115e-01,0.09,0.43,9.8,10.2
-4.113e-01,0.09,-0.25,9.8,9.4
-4.111e-01,0.09,0.43,10,10.4
-4.109e-01,0.09,-0.23,9.8,9.6
-4.107e-01,0.09,0.45,10,10.4
-4.105e-01,0.07,-0.23,10,9.6
-4.103e-01,0.09,0.45,9.8,10.4
-4.101e-01,0.15,-0.17,9.8,9.6
-4.099e-01,0.09,0.45,9.8,10.4
-4.098e-01,0.07,-0.15,10,9.6
-4.096e-01,0.09,0.47,9.8,10.4
-4.094e-01,0.09,-0.15,10,9.4
-4.092e-01,0.07,0.47,9.8,10.4
-4.090e-01,0.07,-0.13,9.8,9.6
-4.088e-01,0.09,0.43,9.8,10.4
-4.086e-01,0.07,-0.11,10,9.6
-4.084e-01,0.09,0.41,10,10.4
-4.082e-01,0.07,-0.11,10,9.4
-4.080e-01,0.09,0.39,9.8,10.2
-4.078e-01,0.09,-0.11,10,9.4
-4.076e-01,0.07,0.37,9.8,10.2
-4.075e-01,0.07,-0.07,9.8,9.4
-4.073e-01,0.09,0.31,10,10.2
-4.071e-01,0.07,-0.00999999,9.8,9.4
-4.069e-01,0.09,0.23,9.8,10.2
-4.067e-01,0.09,-0.00999999,9.8,9.4
-4.065e-01,0.09,0.17,9.8,10.2
-4.063e-01,0.09,-0.00999999,9.8,9.4
-4.061e-01,0.09,0.15,9.8,10.2
-4.059e-01,0.09,-0.00999999,10,9.4
-4.057e-01,0.07,0.17,9.8,10.2
-4.055e-01,0.07,-0.00999999,9.8,9.4
-4.053e-01,0.07,0.15,9.8,10.2
-4.051e-01,0.09,-0.00999999,9.8,9.4
-4.050e-01,0.07,0.15,9.8,10.2
-4.048e-01,0.07,0.01,9.8,9.4
-4.046e-01,0.07,0.13,10,10.2
-4.044e-01,0.07,-0.11,9.8,9.4
-4.042e-01,0.09,0.51,9.6,10.2
-4.040e-01,0.07,-0.13,10,9.4
-4.038e-01,0.07,0.53,9.6,10.2
-4.036e-01,0.07,-0.13,9.8,9.4
-4.034e-01,0.09,0.55,9.8,10.2
-4.032e-01,0.07,-0.13,9.8,9.2
-4.030e-01,0.07,0.55,9.8,10
-4.028e-01,0.09,-0.13,9.6,9.2
-4.026e-01,0.07,0.57,9.6,10.2
-4.025e-01,0.05,-0.15,9.6,9.2
-4.023e-01,0.07,0.57,9.8,10.2
-4.021e-01,0.07,-0.17,9.6,9.2
-4.019e-01,0.07,0.59,9.6,10
-4.017e-01,0.09,-0.17,9.8,9.4
-4.015e-01,0.07,0.57,9.6,10
-4.013e-01,0.09,-0.23,9.8,9.2
-4.011e-01,0.07,0.57,9.8,10
-4.009e-01,0.05,-0.29,9.8,9.2
-4.007e-01,0.07,0.55,9.6,10
-4.005e-01,0.07,-0.29,9.8,9.2
-4.003e-01,0.07,0.55,9.6,10
-4.002e-01,0.09,-0.29,9.8,9.4
-4.000e-01,0.09,0.55,9.8,10
-3.998e-01,0.07,-0.29,9.6,9.2
-3.996e-01,0.07,0.55,9.6,10.2
-3.994e-01,0.07,-0.27,9.6,9.4
-3.992e-01,0.09,0.43,9.6,10.2
-3.990e-01,0.09,-0.23,9.6,9.4
-3.988e-01,0.13,0.37,9.6,10.2
-3.986e-01,0.09,-0.23,9.6,9.4
-3.984e-01,0.11,0.37,9.8,10.2
-3.982e-01,0.09,-0.23,9.8,9.4
-3.980e-01,0.09,0.37,9.8,10.2
-3.978e-01,0.09,-0.21,9.8,9.4
-3.977e-01,0.11,0.35,10,10.2
-3.975e-01,0.11,-0.19,10,9.4
-3.973e-01,0.09,0.35,9.8,10.2
-3.971e-01,0.09,-0.19,9.8,9.4
-3.969e-01,0.11,0.33,9.8,10.2
-3.967e-01,0.11,-0.19,9.8,9.4
-3.965e-01,0.09,0.33,9.8,10.4
-3.963e-01,0.11,-0.19,9.8,9.6
-3.961e-01,0.09,0.35,10,10.2
-3.959e-01,0.11,-0.25,9.8,9.6
-3.957e-01,0.11,0.45,9.8,10.2
-3.955e-01,0.09,-0.27,10,9.6
-3.954e-01,0.11,0.47,9.8,10.2
-3.952e-01,0.09,-0.25,9.8,9.4
-3.950e-01,0.11,0.43,10.2,10.2
-3.948e-01,0.11,-0.25,10,9.4
-3.946e-01,0.11,0.43,10,10.4
-3.944e-01,0.09,-0.23,9.8,9.6
-3.942e-01,0.11,0.43,10,10.4
-3.940e-01,0.09,-0.21,10,9.4
-3.938e-01,0.07,0.43,10,10.4
-3.936e-01,0.11,-0.19,10,9.6
-3.934e-01,0.15,0.45,10,10.4
-3.932e-01,0.09,-0.15,10,9.6
-3.930e-01,0.09,0.43,10,10.4
-3.929e-01,0.07,-0.15,9.8,9.6
-3.927e-01,0.07,0.47,10,10.4
-3.925e-01,0.07,-0.13,10,9.4
-3.923e-01,0.11,0.45,10,10.4
-3.921e-01,0.09,-0.13,10,9.4
-3.919e-01,0.09,0.43,9.8,10.4
-3.917e-01,0.09,-0.11,9.8,9.4
-3.915e-01,0.09,0.41,10,10.4
-3.913e-01,0.09,-0.09,10,9.4
-3.911e-01,0.09,0.39,9.8,10.4
-3.909e-01,0.05,-0.11,10,9.4
-3.907e-01,0.07,0.31,9.8,10.4
-3.906e-01,0.09,-0.03,9.8,9.4
-3.904e-01,0.07,0.23,10,10.2
-3.902e-01,0.07,-0.00999999,9.8,9.4
-3.900e-01,0.07,0.17,10,10.2
-3.898e-01,0.07,-0.00999999,10,9.4
-3.896e-01,0.07,0.15,9.8,10.2
-3.894e-01,0.07,-0.00999999,9.8,9.4
-3.892e-01,0.09,0.17,10,10.2
-3.890e-01,0.07,-0.00999999,9.8,9.4
-3.888e-01,0.09,0.15,9.8,10.2
-3.886e-01,0.07,-0.00999999,9.8,9.4
-3.884e-01,0.07,0.15,9.8,10.2
-3.882e-01,0.11,0.01,9.8,9.4
-3.881e-01,0.09,0.15,9.8,10.2
-3.879e-01,0.07,0.01,9.8,9.4
-3.877e-01,0.07,0.13,9.6,10.2
-3.875e-01,0.07,-0.11,9.8,9.4
-3.873e-01,0.07,0.55,9.8,10.2
-3.871e-01,0.09,-0.13,9.8,9.4
-3.869e-01,0.07,0.53,9.8,10.2
-3.867e-01,0.07,-0.13,9.6,9.4
-3.865e-01,0.11,0.55,9.8,10.2
-3.863e-01,0.09,-0.15,9.8,9.4
-3.861e-01,0.03,0.57,9.6,10.2
-3.859e-01,0.07,-0.15,9.6,9.2
-3.858e-01,0.09,0.59,9.8,10
-3.856e-01,0.07,-0.15,9.6,9.4
-3.854e-01,0.05,0.57,10,10
-3.852e-01,0.07,-0.17,9.6,9.2
-3.850e-01,0.07,0.59,9.6,10
-3.848e-01,0.07,-0.19,9.4,9.2
-3.846e-01,0.05,0.59,9.6,10
-3.844e-01,0.05,-0.29,9.8,9.2
-3.842e-01,-0.03,0.55,9.8,10
-3.840e-01,0.07,-0.27,9.6,9.4
-3.838e-01,0.07,0.55,9.8,10
-3.836e-01,0.09,-0.29,9.8,9.2
-3.834e-01,0.11,0.55,9.6,10
-3.833e-01,0.03,-0.29,9.6,9.2
-3.831e-01,0.09,0.57,9.8,10
-3.829e-01,0.07,-0.27,9.8,9.4
-3.827e-01,0.03,0.53,9.6,10.2
-3.825e-01,0.07,-0.27,9.8,9.4
-3.823e-01,0.15,0.41,9.6,10.2
-3.821e-01,0.33,-0.23,9.8,9.4
-3.819e-01,0.17,0.37,10,10.2
-3.817e-01,0.13,-0.23,9.8,9.4
-3.815e-01,0.03,0.37,9.8,10.2
-3.813e-01,0.09,-0.21,9.6,9.4
-3.811e-01,0.09,0.37,10,10.2
-3.810e-01,0.09,-0.21,9.8,9.4
-3.808e-01,0.09,0.35,10,10.2
-3.806e-01,0.09,-0.19,10,9.4
-3.804e-01,0.15,0.37,10,10.2
-3.802e-01,0.09,-0.19,9.8,9.4
-3.800e-01,0.09,0.33,10,10.2
-3.798e-01,0.07,-0.19,10,9.4
-3.796e-01,0.09,0.33,10,10.2
-3.794e-01,0.11,-0.23,10,9.4
-3.792e-01,0.09,0.43,10,10.4
-3.790e-01,0.09,-0.25,9.8,9.4
-3.788e-01,0.09,0.47,10,10.4
-3.786e-01,0.09,-0.25,10,9.4
-3.785e-01,0.09,0.45,10,10.4
-3.783e-01,0.11,-0.25,10,9.6
-3.781e-01,0.11,0.45,9.8,10.4
-3.779e-01,0.11,-0.25,9.8,9.6
-3.777e-01,0.09,0.43,9.8,10.4
-3.775e-01,0.11,-0.23,10,9.6
-3.773e-01,0.11,0.43,10,10.4
-3.771e-01,0.07,-0.21,9.8,9.6
-3.769e-01,0.09,0.45,9.8,10.4
-3.767e-01,0.01,-0.17,9.8,9.6
-3.765e-01,0.07,0.45,10,10.4
-3.763e-01,0.29,-0.15,10,9.6
-3.762e-01,0.05,0.47,10,10.4
-3.760e-01,0.25,-0.15,9.8,9.6
-3.758e-01,-0.05,0.47,10,10.4
-3.756e-01,0.07,-0.13,10,9.4
-3.754e-01,0.23,0.43,10,10.4
-3.752e-01,0.11,-0.13,9.8,9.4
-3.750e-01,0.37,0.41,10,10.4
-3.748e-01,0.07,-0.09,10,9.4
-3.746e-01,0.09,0.39,9.8,10.4
-3.744e-01,0.07,-0.11,10,9.4
-3.742e-01,0.07,0.31,10,10.4
