data/vcc_cdchg_w_icore/vcc__cdchg_far.CSV

Model,DPO2024B
Firmware Version,1.52

Point Format,Y,,,
Horizontal Units,S,,,
Horizontal Scale,0.2,,,
Sample Interval,0.000384025,,,
Filter Frequency,2e+08,,,
Record Length,5192,,,
Gating,0.0% to 100.0%,,0.0% to 100.0%,
Probe Attenuation,10,,10,
Vertical Units,V,,V,
Vertical Offset,0,,0,
Vertical Scale,0.5,,5,
Label,,,,
TIME,CH1,CH1 Peak Detect,CH2,CH2 Peak Detect
-1.000e+00,0.09,-0.13,10,9.4
-9.996e-01,0.09,0.55,9.8,10.2
-9.992e-01,0.09,-0.13,9.6,9.4
-9.988e-01,0.07,0.57,9.8,10.2
-9.985e-01,0.09,-0.17,9.8,9.2
-9.981e-01,0.07,0.59,9.6,10
-9.977e-01,0.07,-0.29,9.8,9.2
-9.973e-01,0.07,0.59,9.6,10.2
-9.969e-01,-0.00999999,-0.29,9.6,9.2
-9.965e-01,0.09,0.55,9.6,10
-9.962e-01,0.07,-0.29,9.6,9.4
-9.958e-01,0.09,0.57,9.6,10.2
-9.954e-01,0.09,-0.29,9.8,9.4
-9.950e-01,0.09,0.43,10,10.2
-9.946e-01,0.11,-0.23,9.8,9.4
-9.942e-01,0.07,0.39,9.8,10.2
-9.939e-01,0.09,-0.21,9.8,9.4
-9.935e-01,0.11,0.35,10,10.2
-9.931e-01,0.09,-0.19,9.8,9.4
-9.927e-01,0.09,0.35,10,10.4
-9.923e-01,0.09,-0.27,9.8,9.4
-9.919e-01,0.11,0.45,10.2,10.4
-9.916e-01,0.09,-0.27,10,9.4
-9.912e-01,0.11,0.47,9.8,10.4
-9.908e-01,0.09,-0.25,10,9.6
-9.904e-01,0.09,0.45,10,10.4
-9.900e-01,0.13,-0.21,9.8,9.6
-9.896e-01,0.13,0.45,10,10.4
-9.892e-01,0.09,-0.15,10,9.6
-9.889e-01,0.09,0.47,10,10.4
-9.885e-01,0.09,-0.13,10,9.6
-9.881e-01,0.05,0.47,10,10.4
-9.877e-01,0.07,-0.11,9.8,9.4
-9.873e-01,0.11,0.43,10,10.4
-9.869e-01,0.09,-0.07,10,9.4
-9.866e-01,0.07,0.31,9.8,10.4
-9.862e-01,0.09,-0.00999999,9.6,9.4
-9.858e-01,0.09,0.17,9.8,10.4
-9.854e-01,0.07,-0.00999999,9.8,9.4
-9.850e-01,0.07,0.17,9.8,10.2
-9.846e-01,0.07,-0.00999999,9.8,9.4
-9.843e-01,0.07,0.17,10,10.2
-9.839e-01,0.07,-0.11,9.8,9.4
-9.835e-01,0.09,0.53,9.8,10.2
-9.831e-01,0.07,-0.13,9.8,9.4
-9.827e-01,0.09,0.55,9.8,10.2
-9.823e-01,0.07,-0.15,9.8,9.4
-9.820e-01,0.07,0.59,9.8,10.2
-9.816e-01,0.11,-0.19,9.8,9.2
-9.812e-01,0.11,0.61,9.6,10.2
-9.808e-01,0.07,-0.29,9.8,9.2
-9.804e-01,0.07,0.59,9.6,10
-9.800e-01,0.07,-0.29,9.8,9.2
-9.796e-01,0.09,0.57,9.8,10
-9.793e-01,0.13,-0.29,9.6,9.2
-9.789e-01,0.09,0.57,9.8,10.2
-9.785e-01,0.07,-0.23,9.8,9.4
-9.781e-01,0.11,0.39,9.8,10.2
-9.777e-01,0.09,-0.23,9.8,9.4
-9.773e-01,0.07,0.39,9.6,10.2
-9.770e-01,0.11,-0.21,10,9.4
-9.766e-01,0.11,0.35,9.8,10.4
-9.762e-01,0.11,-0.19,9.8,9.6
-9.758e-01,0.11,0.35,9.8,10.4
-9.754e-01,0.09,-0.25,10,9.6
-9.750e-01,0.11,0.47,10,10.4
-9.747e-01,0.11,-0.27,10,9.6
-9.743e-01,0.13,0.45,10,10.4
-9.739e-01,0.09,-0.23,10,9.4
-9.735e-01,0.09,0.45,10,10.4
-9.731e-01,0.09,-0.21,9.8,9.6
-9.727e-01,0.11,0.45,10,10.4
-9.724e-01,0.09,-0.15,9.8,9.6
-9.720e-01,0.07,0.47,10,10.4
-9.716e-01,0.07,-0.13,10,9.6
-9.712e-01,0.07,0.43,9.8,10.4
-9.708e-01,0.09,-0.11,10,9.4
-9.704e-01,0.13,0.41,9.8,10.4
-9.700e-01,0.11,-0.03,9.8,9.4
-9.697e-01,0.11,0.27,9.8,10.2
-9.693e-01,0.11,0.03,9.8,9.4
-9.689e-01,0.17,0.31,10,10.2
-9.685e-01,0.23,0.17,9.8,9.2
-9.681e-01,0.31,0.39,9.6,10.2
-9.677e-01,0.29,0.21,9.6,9.2
-9.674e-01,0.35,0.45,9.6,10
-9.670e-01,0.41,-0.05,9.6,9
-9.666e-01,0.45,0.91,9.4,10
-9.662e-01,0.45,-0.05,9.4,9
-9.658e-01,0.47,0.95,9.4,9.8
-9.654e-01,0.47,-0.05,9.4,8.8
-9.651e-01,0.45,0.95,9.2,9.6
-9.647e-01,0.41,-0.11,9.4,8.8
-9.643e-01,0.37,0.85,9.2,9.6
-9.639e-01,0.33,-0.13,9.2,8.8
-9.635e-01,0.31,0.77,9.2,9.6
-9.631e-01,0.29,-0.15,9.2,8.8
-9.627e-01,0.27,0.77,9.4,9.6
-9.624e-01,0.25,-0.15,9.2,8.8
-9.620e-01,0.27,0.73,9.2,9.6
-9.616e-01,0.25,-0.07,9.2,8.8
-9.612e-01,0.23,0.55,9.2,9.8
-9.608e-01,0.23,-0.09,9.4,8.8
-9.604e-01,0.29,0.55,9.4,9.8
-9.601e-01,0.25,-0.03,9.4,9
-9.597e-01,0.25,0.51,9.4,9.8
-9.593e-01,0.27,-0.07,9.4,9
-9.589e-01,0.27,0.55,9.2,9.8
-9.585e-01,0.27,-0.13,9.4,9
-9.581e-01,0.29,0.65,9.4,10
-9.578e-01,0.25,-0.09,9.6,9
-9.574e-01,0.25,0.63,9.6,10
-9.570e-01,0.29,-0.05,9.4,9
-9.566e-01,0.27,0.63,9.4,9.8
-9.562e-01,0.31,-0.05,9.6,9
-9.558e-01,0.31,0.67,9.4,9.8
-9.555e-01,0.35,-0.13,9.4,9
-9.551e-01,0.31,0.71,9.4,9.8
-9.547e-01,0.31,-0.11,9.4,9
-9.543e-01,0.27,0.67,9.4,9.8
-9.539e-01,0.29,-0.07,9.4,8.8
-9.535e-01,0.25,0.67,9.4,9.6
-9.531e-01,0.27,0.13,9.2,8.6
-9.528e-01,0.43,0.69,9,9.6
-9.524e-01,0.65,0.53,9.2,8.4
-9.520e-01,0.61,0.91,9,9.4
-9.516e-01,0.87,0.77,8.8,8.2
-9.512e-01,0.99,1.13,8.8,9.2
-9.508e-01,1.01,0.67,8.4,8
-9.505e-01,0.95,1.57,8.4,8.8
-9.501e-01,1.09,0.51,8.2,7.8
-9.497e-01,1.13,1.63,8.2,8.6
-9.493e-01,0.99,0.25,8.4,7.6
-9.489e-01,0.81,1.47,8,8.6
-9.485e-01,0.69,0.07,8,7.6
-9.482e-01,0.57,1.15,8.2,8.4
-9.478e-01,0.51,-0.00999999,8,7.6
-9.474e-01,0.45,0.97,8,8.4
-9.470e-01,0.35,-0.07,7.8,7.6
-9.466e-01,0.41,0.85,8,8.4
-9.462e-01,0.37,-0.11,8,7.6
-9.459e-01,0.31,0.81,8,8.4
-9.455e-01,0.31,-0.09,8,7.6
-9.451e-01,0.27,0.65,7.8,8.4
-9.447e-01,0.29,-0.07,8,7.6
-9.443e-01,0.27,0.57,8.2,8.4
-9.439e-01,0.27,-0.05,8,7.6
-9.435e-01,0.25,0.53,8,8.6
-9.432e-01,0.27,-0.03,8.2,7.8
-9.428e-01,0.27,0.49,8.2,8.6
-9.424e-01,0.23,-0.11,8.2,7.8
-9.420e-01,0.23,0.61,8.2,8.6
-9.416e-01,0.23,-0.17,8.2,7.8
-9.412e-01,0.19,0.59,8.2,8.6
-9.409e-01,0.19,-0.17,8.4,7.8
-9.405e-01,0.17,0.53,8.4,8.6
-9.401e-01,0.15,-0.17,8.4,7.8
-9.397e-01,0.15,0.51,8.2,8.8
-9.393e-01,0.13,-0.15,8.2,7.8
-9.389e-01,0.11,0.51,8.2,8.8
-9.386e-01,0.11,-0.13,8.4,8
-9.382e-01,0.09,0.49,8.2,8.6
-9.378e-01,0.11,-0.11,8.4,7.8
-9.374e-01,0.11,0.47,8.4,8.6
-9.370e-01,0.11,-0.09,8.4,7.8
-9.366e-01,0.09,0.33,8.4,8.6
-9.363e-01,0.11,0.01,8.2,7.8
-9.359e-01,0.09,0.21,8.4,8.6
-9.355e-01,0.07,-0.00999999,8.2,7.8
-9.351e-01,0.07,0.19,8.4,8.6
-9.347e-01,0.09,0.01,8.2,7.8
-9.343e-01,0.09,0.17,8,8.6
-9.339e-01,0.09,-0.11,8.2,7.8
-9.336e-01,0.07,0.55,8.2,8.6
-9.332e-01,0.39,-0.13,8,7.6
-9.328e-01,0.09,0.57,8,8.6
-9.324e-01,0.07,-0.15,8.2,7.6
-9.320e-01,0.09,0.61,8.2,8.4
-9.316e-01,0.11,-0.19,8,7.6
-9.313e-01,0.13,0.61,8,8.4
-9.309e-01,0.03,-0.29,8,7.6
-9.305e-01,0.09,0.59,8,8.4
-9.301e-01,0.09,-0.29,8,7.6
-9.297e-01,0.07,0.57,8,8.4
-9.293e-01,0.07,-0.29,8,7.6
-9.290e-01,0.11,0.55,8,8.4
-9.286e-01,0.09,-0.23,8,7.8
-9.282e-01,0.07,0.43,8.2,8.6
-9.278e-01,0.13,-0.19,8.2,7.8
-9.274e-01,0.19,0.45,8.4,8.6
-9.270e-01,0.13,-0.15,8,7.8
-9.267e-01,0.19,0.69,8.2,8.6
-9.263e-01,0.49,0.25,8.2,7.6
-9.259e-01,0.67,1.03,8,8.4
-9.255e-01,0.77,0.35,7.8,7.4
-9.251e-01,0.75,1.31,7.8,8.4
-9.247e-01,0.95,0.47,8,7.4
-9.243e-01,0.89,1.33,7.8,8.2
-9.240e-01,0.97,0.61,7.6,7
-9.236e-01,1.09,1.41,7.4,8
-9.232e-01,0.95,0.31,7.6,7
-9.228e-01,0.79,1.23,7.6,8
-9.224e-01,0.65,-0.00999999,7.6,7
-9.220e-01,0.53,0.93,7.6,8
-9.217e-01,0.45,-0.09,7.6,7
-9.213e-01,0.37,0.83,7.6,8
-9.209e-01,0.33,-0.09,7.6,7
-9.205e-01,0.29,0.69,7.6,7.8
-9.201e-01,0.23,0.03,7.6,7
-9.197e-01,0.23,0.45,7.6,7.8
-9.194e-01,0.19,0.07,7.2,7
-9.190e-01,0.15,0.25,7.4,7.8
-9.186e-01,0.15,0.03,7.4,7
-9.182e-01,0.13,0.23,7.4,7.8
-9.178e-01,0.09,0.03,7.2,7
-9.174e-01,0.11,0.19,7.2,7.8
-9.171e-01,0.13,-0.13,7.4,7
-9.167e-01,0.11,0.57,7.4,7.8
-9.163e-01,0.09,-0.17,7.6,6.8
-9.159e-01,0.11,0.59,7.4,7.8
-9.155e-01,0.09,-0.17,7.4,6.8
-9.151e-01,0.05,0.61,7.4,7.8
-9.147e-01,0.07,-0.19,7.2,6.8
-9.144e-01,0.09,0.61,7.2,7.6
-9.140e-01,0.09,-0.27,7.4,6.8
-9.136e-01,-0.00999999,0.57,7.2,7.8
-9.132e-01,0.07,-0.31,7.2,6.8
-9.128e-01,0.07,0.57,7,7.6
-9.124e-01,0.09,-0.29,7.4,6.8
-9.121e-01,0.09,0.57,7.2,7.8
-9.117e-01,0.09,-0.23,7.4,6.8
-9.113e-01,0.09,0.37,7.4,7.8
-9.109e-01,0.11,-0.23,7.4,7
-9.105e-01,0.09,0.39,7.4,7.8
-9.101e-01,0.09,-0.19,7.4,7
-9.098e-01,0.09,0.35,7.4,8
-9.094e-01,0.13,-0.19,7.6,7
-9.090e-01,0.11,0.35,7.6,8
-9.086e-01,0.11,-0.27,7.8,7.2
-9.082e-01,0.11,0.47,7.6,8
-9.078e-01,0.09,-0.25,7.8,7.2
-9.075e-01,0.09,0.47,7.8,8
-9.071e-01,0.11,-0.23,7.8,7.2
-9.067e-01,0.11,0.45,7.8,8.2
-9.063e-01,0.11,-0.19,7.8,7.2
-9.059e-01,0.11,0.47,7.8,8.2
-9.055e-01,0.15,-0.15,7.8,7.2
-9.051e-01,0.17,0.55,7.6,8
-9.048e-01,0.13,-0.11,7.8,7
-9.044e-01,0.13,0.79,7.8,8
-9.040e-01,0.43,0.03,7.4,6.8
-9.036e-01,0.59,0.91,7.6,7.8
-9.032e-01,0.59,0.49,7.2,6.6
-9.028e-01,0.81,0.99,7,7.6
-9.025e-01,0.89,0.71,6.8,6.2
-9.021e-01,0.83,1.09,6.6,7.4
-9.017e-01,1.01,0.77,6.8,6.2
-9.013e-01,0.97,1.11,6.4,7.2
-9.009e-01,0.81,0.49,6.6,6.2
-9.005e-01,0.67,0.89,6.6,7
-9.002e-01,0.57,-0.07,6.6,6.2
-8.998e-01,0.47,0.99,6.6,7
-8.994e-01,0.39,-0.15,6.4,6
-8.990e-01,0.33,0.83,6.4,7
-8.986e-01,0.29,-0.17,6.6,6
-8.982e-01,0.23,0.73,6.4,7
-8.978e-01,0.23,-0.21,6.6,6
-8.975e-01,0.17,0.65,6.6,6.8
-8.971e-01,0.15,-0.25,6.6,6
-8.967e-01,0.15,0.61,6.4,6.8
-8.963e-01,0.13,-0.29,6.4,6
-8.959e-01,0.13,0.61,6.4,6.8
-8.955e-01,0.11,-0.25,6.6,6
-8.952e-01,0.11,0.51,6.4,7
-8.948e-01,0.11,-0.23,6.4,6.2
-8.944e-01,0.13,0.41,6.6,7
-8.940e-01,0.11,-0.23,6.6,6.2
-8.936e-01,0.13,0.41,6.6,7
-8.932e-01,0.11,-0.17,6.8,6.2
-8.929e-01,0.11,0.37,6.8,7.2
-8.925e-01,0.09,-0.25,6.6,6.4
-8.921e-01,0.11,0.47,6.6,7.2
-8.917e-01,0.11,-0.27,6.8,6.4
-8.913e-01,0.13,0.49,6.8,7.2
-8.909e-01,0.11,-0.25,7,6.4
-8.906e-01,0.13,0.45,7,7.2
-8.902e-01,0.13,-0.21,6.8,6.4
-8.898e-01,0.11,0.45,6.8,7.4
-8.894e-01,0.13,-0.17,7,6.4
-8.890e-01,0.09,0.49,6.8,7.4
-8.886e-01,0.11,-0.13,7,6.4
-8.882e-01,0.09,0.47,6.8,7.4
-8.879e-01,0.09,-0.11,6.8,6.4
-8.875e-01,0.09,0.43,6.6,7.2
-8.871e-01,0.07,-0.11,7,6.4
-8.867e-01,0.09,0.33,6.8,7.2
-8.863e-01,0.09,-0.00999999,6.8,6.4
-8.859e-01,0.07,0.19,6.8,7.2
-8.856e-01,0.09,-0.03,6.8,6.4
-8.852e-01,0.09,0.17,6.8,7.2
-8.848e-01,0.11,-0.00999999,6.8,6.2
-8.844e-01,0.09,0.17,6.6,7.2
-8.840e-01,0.09,-0.11,6.8,6.4
-8.836e-01,0.09,0.53,6.8,7.2
-8.833e-01,0.09,-0.13,7,6.2
-8.829e-01,0.07,0.57,6.8,7
-8.825e-01,0.09,-0.15,6.6,6.2
-8.821e-01,0.09,0.59,6.8,7
-8.817e-01,0.11,-0.17,6.6,6.2
-8.813e-01,0.09,0.59,6.6,7
-8.810e-01,0.11,-0.25,6.4,6.2
-8.806e-01,0.13,0.61,6.6,7
-8.802e-01,0.15,-0.25,6.6,6.2
-8.798e-01,0.13,0.63,6.6,7
-8.794e-01,0.19,-0.23,6.4,5.8
-8.790e-01,0.53,1.01,6.4,6.8
-8.786e-01,0.65,0.29,6.2,5.8
-8.783e-01,0.71,1.11,6.2,6.6
-8.779e-01,0.79,0.47,6,5.4
-8.775e-01,0.91,1.27,6,6.4
-8.771e-01,1.05,0.65,5.6,5.4
-8.767e-01,0.93,1.31,5.8,6.2
-8.763e-01,1.03,0.79,5.6,5
-8.760e-01,1.21,1.47,5.6,6.2
-8.756e-01,1.25,0.53,5.4,5
-8.752e-01,1.07,1.47,5.4,5.8
-8.748e-01,0.85,0.25,5.4,5.2
-8.744e-01,0.69,1.23,5.4,5.8
-8.740e-01,0.59,0.09,5.6,5
-8.737e-01,0.49,0.93,5.6,6
-8.733e-01,0.41,-0.00999999,5.6,5.2
-8.729e-01,0.35,0.75,5.6,6
-8.725e-01,0.29,-0.15,5.6,5.2
-8.721e-01,0.25,0.63,5.6,6
-8.717e-01,0.23,-0.13,5.6,5
-8.714e-01,0.19,0.59,5.4,5.8
-8.710e-01,0.15,-0.13,5.6,5
-8.706e-01,0.13,0.55,5.4,6
-8.702e-01,0.15,-0.05,5.4,5
-8.698e-01,0.11,0.35,5.4,5.8
-8.694e-01,0.13,0.01,5.4,5
-8.690e-01,0.11,0.21,5.4,5.8
-8.687e-01,0.13,0.01,5.4,5
-8.683e-01,0.07,0.19,5.4,5.8
-8.679e-01,0.09,0.01,5.4,5
-8.675e-01,0.09,0.17,5.4,5.8
-8.671e-01,0.09,-0.13,5.4,4.8
-8.667e-01,0.09,0.55,5.4,5.8
-8.664e-01,0.09,-0.13,5.2,4.8
-8.660e-01,0.07,0.57,5.4,5.8
-8.656e-01,0.09,-0.15,5.6,4.8
-8.652e-01,0.07,0.61,5.4,5.6
-8.648e-01,0.07,-0.19,5.4,5
-8.644e-01,0.09,0.61,5.2,5.6
-8.641e-01,0.07,-0.27,5.4,4.8
-8.637e-01,0.03,0.59,5.2,5.6
-8.633e-01,0.09,-0.29,5.2,4.8
-8.629e-01,0.11,0.57,5.2,5.6
-8.625e-01,0.09,-0.29,5.4,4.8
-8.621e-01,0.09,0.57,5.2,5.8
-8.618e-01,0.09,-0.25,5.4,5
-8.614e-01,0.09,0.43,5.2,5.8
-8.610e-01,0.09,-0.23,5.4,5
-8.606e-01,0.11,0.41,5.4,5.8
-8.602e-01,0.09,-0.19,5.4,5
-8.598e-01,0.11,0.35,5.4,5.8
-8.594e-01,0.09,-0.19,5.6,5.2
-8.591e-01,0.09,0.35,5.6,6
-8.587e-01,0.09,-0.25,5.6,5.2
-8.583e-01,0.09,0.47,5.6,6
-8.579e-01,0.07,-0.25,5.6,5.2
-8.575e-01,0.01,0.45,5.6,6
-8.571e-01,0.25,-0.25,5.6,5.2
-8.568e-01,0.11,0.45,5.6,6
-8.564e-01,0.27,-0.21,5.6,5.2
-8.560e-01,0.11,0.45,5.6,6
-8.556e-01,0.07,-0.15,5.4,5.2
-8.552e-01,0.09,0.49,5.8,6
-8.548e-01,0.13,-0.13,5.6,5.2
-8.545e-01,0.19,0.43,5.6,6
-8.541e-01,0.09,-0.11,5.6,5.2
-8.537e-01,0.13,0.41,5.6,6
-8.533e-01,0.09,-0.05,5.6,5.2
-8.529e-01,0.13,0.27,5.4,6
-8.525e-01,0.13,0.05,5.4,5
-8.522e-01,0.17,0.25,5.6,5.8
-8.518e-01,0.17,0.05,5.6,4.8
-8.514e-01,0.33,0.63,5.2,5.8
-8.510e-01,0.57,0.51,5.2,4.4
-8.506e-01,0.75,0.83,5.2,5.4
-8.502e-01,0.65,0.25,5,4.2
-8.498e-01,0.89,1.43,4.8,5.2
-8.495e-01,0.93,0.13,4.6,4.2
-8.491e-01,0.75,1.39,4.4,5
-8.487e-01,0.59,-0.05,4.6,4
-8.483e-01,0.49,1.05,4.4,5
-8.479e-01,0.41,-0.13,4.6,4
-8.475e-01,0.35,0.85,4.6,4.8
-8.472e-01,0.27,-0.19,4.4,4
-8.468e-01,0.25,0.73,4.4,4.8
-8.464e-01,0.23,-0.23,4.6,4
-8.460e-01,0.21,0.71,4.6,5
-8.456e-01,0.17,-0.23,4.4,4.2
-8.452e-01,0.17,0.63,4.4,5
-8.449e-01,0.15,-0.19,4.6,4.2
-8.445e-01,0.15,0.43,4.8,5
-8.441e-01,0.13,-0.21,4.6,4.2
-8.437e-01,0.13,0.41,4.6,5
-8.433e-01,0.13,-0.17,4.8,4.2
-8.429e-01,0.11,0.37,4.8,5.2
-8.425e-01,0.11,-0.17,4.6,4.4
-8.422e-01,0.13,0.37,4.8,5.2
-8.418e-01,0.13,-0.27,4.8,4.4
-8.414e-01,0.11,0.47,4.8,5.2
-8.410e-01,0.11,-0.25,4.8,4.4
-8.406e-01,0.11,0.45,4.8,5.2
-8.402e-01,0.03,-0.23,4.8,4.4
-8.399e-01,0.09,0.43,4.8,5.4
-8.395e-01,0.11,-0.19,4.8,4.4
-8.391e-01,0.09,0.47,4.8,5.2
-8.387e-01,0.09,-0.15,4.8,4.4
-8.383e-01,0.09,0.49,4.8,5.2
-8.379e-01,0.11,-0.11,4.8,4.4
-8.376e-01,0.09,0.45,4.8,5.2
-8.372e-01,0.07,-0.11,4.8,4.4
-8.368e-01,0.09,0.37,4.8,5.2
-8.364e-01,0.07,-0.03,4.8,4.4
-8.360e-01,0.07,0.19,4.8,5.2
-8.356e-01,0.05,-0.03,4.8,4.4
-8.353e-01,0.07,0.17,4.8,5.2
-8.349e-01,0.07,-0.00999999,4.8,4.2
-8.345e-01,0.09,0.17,4.6,5.2
-8.341e-01,0.09,-0.09,4.6,4.2
-8.337e-01,0.09,0.53,4.8,5.2
-8.333e-01,0.07,-0.13,4.8,4.2
-8.329e-01,0.07,0.55,4.6,5
-8.326e-01,0.09,-0.15,4.6,4.2
-8.322e-01,0.07,0.57,4.6,5
-8.318e-01,0.09,-0.17,4.4,4.2
-8.314e-01,0.11,0.61,4.6,5
-8.310e-01,0.03,-0.27,4.6,4.2
-8.306e-01,0.07,0.61,4.6,5
-8.303e-01,0.05,-0.29,4.8,4.2
-8.299e-01,0.07,0.55,4.6,5
-8.295e-01,0.09,-0.29,4.6,4.2
-8.291e-01,0.09,0.57,4.6,5
-8.287e-01,0.11,-0.27,4.6,4.2
-8.283e-01,0.07,0.43,4.6,5.2
-8.280e-01,0.09,-0.23,4.8,4.2
-8.276e-01,0.11,0.41,4.8,5.2
-8.272e-01,0.09,-0.21,4.8,4.2
-8.268e-01,0.09,0.37,4.8,5.2
-8.264e-01,0.11,-0.19,4.8,4.4
-8.260e-01,0.11,0.35,4.8,5.2
-8.257e-01,0.11,-0.25,4.8,4.4
-8.253e-01,0.11,0.45,5,5.4
-8.249e-01,0.11,-0.27,5,4.4
-8.245e-01,0.09,0.45,5,5.4
-8.241e-01,0.09,-0.25,4.8,4.4
-8.237e-01,0.11,0.43,5,5.4
-8.233e-01,0.11,-0.23,5.2,4.6
-8.230e-01,0.11,0.45,5,5.4
-8.226e-01,0.11,-0.17,5,4.6
-8.222e-01,0.07,0.49,5,5.4
-8.218e-01,0.09,-0.13,4.8,4.6
-8.214e-01,0.11,0.45,5,5.4
-8.210e-01,0.07,-0.11,5,4.6
-8.207e-01,0.07,0.41,4.8,5.4
-8.203e-01,0.07,-0.11,4.8,4.6
-8.199e-01,0.07,0.33,4.8,5.4
-8.195e-01,0.09,-0.00999999,5,4.4
-8.191e-01,0.07,0.19,4.8,5.2
-8.187e-01,0.07,-0.00999999,4.8,4.4
-8.184e-01,0.09,0.17,4.8,5.2
-8.180e-01,0.07,-0.00999999,4.8,4.4
-8.176e-01,0.07,0.15,4.8,5.2
-8.172e-01,0.09,-0.11,4.8,4.4
-8.168e-01,0.09,0.55,4.8,5.2
-8.164e-01,0.09,-0.13,4.8,4.4
-8.161e-01,0.07,0.57,4.6,5.2
-8.157e-01,0.09,-0.15,4.6,4.4
-8.153e-01,0.09,0.59,4.8,5.2
-8.149e-01,0.09,-0.19,4.8,4.2
-8.145e-01,0.05,0.59,4.8,5.2
-8.141e-01,0.09,-0.29,4.6,4.2
-8.137e-01,0.05,0.57,4.6,5.2
-8.134e-01,0.07,-0.29,4.8,4.2
-8.130e-01,0.09,0.57,4.8,5.2
-8.126e-01,0.11,-0.29,4.8,4.2
-8.122e-01,0.07,0.55,4.8,5.2
-8.118e-01,0.07,-0.25,4.8,4.4
-8.114e-01,0.07,0.39,4.8,5.2
-8.111e-01,0.09,-0.25,4.8,4.4
-8.107e-01,0.11,0.39,4.8,5.2
-8.103e-01,0.09,-0.21,5,4.4
-8.099e-01,0.13,0.37,5,5.4
-8.095e-01,0.09,-0.19,5,4.6
-8.091e-01,0.11,0.35,5,5.4
-8.088e-01,0.11,-0.25,5.2,4.6
-8.084e-01,0.09,0.47,5,5.4
-8.080e-01,0.11,-0.27,5,4.6
-8.076e-01,0.11,0.47,5,5.4
-8.072e-01,0.11,-0.25,5,4.6
-8.068e-01,0.09,0.45,5,5.6
-8.065e-01,0.11,-0.21,5,4.6
-8.061e-01,0.15,0.45,5.2,5.4
-8.057e-01,0.09,-0.17,5.2,4.6
-8.053e-01,0.09,0.49,5,5.4
-8.049e-01,0.07,-0.13,5,4.6
-8.045e-01,0.09,0.43,5,5.4
-8.041e-01,0.09,-0.11,5.2,4.6
-8.038e-01,0.07,0.41,5,5.4
-8.034e-01,0.09,-0.05,5,4.6
-8.030e-01,0.09,0.29,5,5.4
-8.026e-01,0.09,-0.00999999,4.8,4.6
-8.022e-01,0.07,0.17,5.2,5.4
-8.018e-01,0.07,-0.00999999,5,4.4
-8.015e-01,0.07,0.17,4.8,5.4
-8.011e-01,0.05,-0.00999999,4.8,4.4
-8.007e-01,0.11,0.15,4.8,5.4
-8.003e-01,0.09,-0.11,4.8,4.4
-7.999e-01,0.07,0.55,4.8,5.2
-7.995e-01,0.07,-0.13,4.8,4.4
-7.992e-01,0.09,0.55,4.8,5.2
-7.988e-01,0.09,-0.15,4.8,4.4
-7.984e-01,0.05,0.61,4.8,5.2
-7.980e-01,0.05,-0.19,4.8,4.4
-7.976e-01,0.05,0.59,4.8,5.2
-7.972e-01,0.07,-0.27,4.6,4.4
-7.969e-01,0.05,0.55,4.8,5.2
-7.965e-01,0.11,-0.29,4.8,4.4
-7.961e-01,0.03,0.57,4.6,5.2
-7.957e-01,0.51,-0.29,4.8,4.4
-7.953e-01,0.07,0.55,4.8,5.2
-7.949e-01,0.07,-0.23,5,4.4
-7.945e-01,0.09,0.39,5,5.2
-7.942e-01,0.11,-0.25,5,4.4
-7.938e-01,0.09,0.39,5,5.4
-7.934e-01,0.11,-0.19,4.8,4.6
-7.930e-01,0.11,0.35,5,5.4
-7.926e-01,0.11,-0.19,5,4.6
-7.922e-01,0.09,0.37,5,5.4
-7.919e-01,0.09,-0.27,5,4.6
-7.915e-01,0.09,0.47,5.2,5.6
-7.911e-01,0.09,-0.27,5,4.8
-7.907e-01,0.11,0.45,5.2,5.6
-7.903e-01,0.11,-0.23,5,4.8
-7.899e-01,0.09,0.45,5.2,5.6
-7.896e-01,0.13,-0.21,5,4.8
-7.892e-01,0.09,0.45,5.2,5.6
-7.888e-01,0.07,-0.15,5.2,4.8
-7.884e-01,0.07,0.49,5,5.6
-7.880e-01,0.09,-0.13,5.2,4.6
-7.876e-01,0.09,0.43,5.4,5.6
-7.873e-01,0.09,-0.11,5.4,4.8
-7.869e-01,0.07,0.39,5.2,5.6
-7.865e-01,0.09,-0.03,5,4.6
-7.861e-01,0.07,0.21,4.8,5.6
-7.857e-01,0.09,-0.00999999,5.2,4.6
-7.853e-01,0.11,0.17,5.2,5.4
-7.849e-01,0.09,-0.00999999,5,4.6
-7.846e-01,0.09,0.17,5,5.4
-7.842e-01,0.11,-0.07,5.2,4.6
-7.838e-01,0.09,0.35,4.8,5.4
-7.834e-01,0.07,-0.13,5,4.6
-7.830e-01,0.09,0.55,5,5.4
-7.826e-01,0.07,-0.15,4.8,4.6
-7.823e-01,0.11,0.59,4.8,5.4
-7.819e-01,0.11,-0.17,4.8,4.4
-7.815e-01,0.09,0.61,4.8,5.4
-7.811e-01,0.07,-0.23,5,4.4
-7.807e-01,0.11,0.61,5,5.4
-7.803e-01,0.03,-0.29,4.8,4.4
-7.800e-01,0.09,0.55,4.8,5.4
-7.796e-01,0.07,-0.31,4.8,4.4
-7.792e-01,0.07,0.59,4.8,5.4
-7.788e-01,0.11,-0.29,5,4.6
-7.784e-01,0.07,0.43,5,5.4
-7.780e-01,0.11,-0.23,4.8,4.6
-7.776e-01,0.11,0.39,5,5.4
-7.773e-01,0.11,-0.21,4.8,4.6
-7.769e-01,0.09,0.37,5,5.4
-7.765e-01,0.13,-0.19,4.8,4.6
-7.761e-01,0.13,0.33,5,5.6
-7.757e-01,0.11,-0.25,5.2,4.8
-7.753e-01,0.11,0.45,5.2,5.6
-7.750e-01,0.17,-0.27,5.2,4.8
-7.746e-01,-0.07,0.47,5.2,5.6
-7.742e-01,0.11,-0.25,5.4,4.8
-7.738e-01,0.11,0.45,5.2,5.8
-7.734e-01,0.09,-0.23,5.2,4.8
-7.730e-01,0.11,0.43,5.2,5.6
-7.727e-01,0.15,-0.17,5.2,4.8
-7.723e-01,0.09,0.49,5.2,5.6
-7.719e-01,0.07,-0.13,5.2,4.8
-7.715e-01,0.13,0.47,5.2,5.6
-7.711e-01,0.09,-0.11,5.2,4.8
-7.707e-01,0.09,0.43,5.2,5.6
-7.704e-01,0.09,-0.09,5.2,4.8
-7.700e-01,0.09,0.33,5.2,5.6
-7.696e-01,0.09,-0.03,5.2,4.8
-7.692e-01,0.09,0.17,5.2,5.6
-7.688e-01,0.09,-0.00999999,5.2,4.8
-7.684e-01,0.07,0.17,5,5.6
-7.680e-01,0.09,-0.00999999,5,4.8
-7.677e-01,0.07,0.17,5.2,5.4
-7.673e-01,0.07,-0.11,5.2,4.6
-7.669e-01,0.09,0.53,5,5.4
-7.665e-01,0.11,-0.13,5.2,4.6
-7.661e-01,0.09,0.55,5,5.4
-7.657e-01,0.07,-0.15,5,4.6
-7.654e-01,0.09,0.59,5.2,5.6
-7.650e-01,0.05,-0.17,5.2,4.6
-7.646e-01,0.11,0.61,5,5.4
-7.642e-01,0.09,-0.27,4.8,4.6
-7.638e-01,0.07,0.59,5,5.4
-7.634e-01,0.07,-0.29,5,4.6
-7.631e-01,0.07,0.55,5,5.4
-7.627e-01,0.07,-0.29,5,4.6
-7.623e-01,0.07,0.57,4.8,5.4
-7.619e-01,0.09,-0.25,5,4.6
-7.615e-01,0.11,0.39,5.2,5.4
-7.611e-01,0.09,-0.23,5.2,4.6
-7.608e-01,0.09,0.39,5,5.6
-7.604e-01,0.09,-0.21,5,4.8
-7.600e-01,0.11,0.35,5.2,5.6
-7.596e-01,0.09,-0.17,5.2,4.8
-7.592e-01,0.11,0.33,5.2,5.6
-7.588e-01,0.09,-0.25,5.2,4.8
-7.584e-01,0.07,0.47,5.2,5.8
-7.581e-01,0.13,-0.25,5.4,5
-7.577e-01,0.09,0.45,5.2,5.8
-7.573e-01,0.09,-0.25,5.4,5
-7.569e-01,0.11,0.43,5.4,5.8
-7.565e-01,0.11,-0.23,5.4,5
-7.561e-01,0.09,0.45,5.4,5.8
-7.558e-01,0.09,-0.15,5.4,5
-7.554e-01,0.07,0.47,5.4,5.8
-7.550e-01,0.07,-0.13,5.4,5
-7.546e-01,0.09,0.45,5.4,5.8
-7.542e-01,0.09,-0.11,5.2,5
-7.538e-01,0.09,0.41,5.4,5.8
-7.535e-01,0.09,-0.07,5.4,4.8
-7.531e-01,0.09,0.31,5.4,5.8
-7.527e-01,0.09,-0.03,5.4,4.8
-7.523e-01,0.05,0.17,5.2,5.8
-7.519e-01,0.09,-0.00999999,5.2,4.8
-7.515e-01,0.09,0.15,5.4,5.6
-7.512e-01,0.07,-0.00999999,5,4.8
-7.508e-01,0.07,0.15,5.2,5.6
-7.504e-01,0.07,-0.13,5.4,4.8
-7.500e-01,0.09,0.53,5.2,5.6
-7.496e-01,0.25,-0.15,5.2,4.8
-7.492e-01,0.11,0.57,5.4,5.6
-7.488e-01,0.01,-0.15,5,4.8
-7.485e-01,0.11,0.59,5.2,5.6
-7.481e-01,0.09,-0.19,5.2,4.8
-7.477e-01,0.03,0.61,5.2,5.6
-7.473e-01,0.07,-0.27,5.2,4.8
-7.469e-01,0.03,0.59,5.2,5.6
-7.465e-01,0.01,-0.29,5.2,4.8
-7.462e-01,0.17,0.57,5.2,5.6
-7.458e-01,0.11,-0.29,5.2,4.8
-7.454e-01,0.09,0.55,5.4,5.6
-7.450e-01,0.11,-0.25,5.2,4.8
-7.446e-01,0.09,0.41,5.2,5.6
-7.442e-01,0.11,-0.23,5.2,4.8
-7.439e-01,0.09,0.39,5.2,5.6
-7.435e-01,0.07,-0.19,5.2,5
-7.431e-01,0.09,0.37,5,5.8
-7.427e-01,0.13,-0.17,5.2,5
-7.423e-01,0.09,0.35,5.4,5.8
-7.419e-01,0.09,-0.25,5.4,5
-7.416e-01,0.11,0.47,5.4,5.8
-7.412e-01,0.09,-0.25,5.6,5
-7.408e-01,0.09,0.45,5.6,5.8
