data/vcc_cdchg_w_icore/vcc_cdchg_close.CSV

Model,DPO2024B
Firmware Version,1.52

Point Format,Y,,,
Horizontal Units,S,,,
Horizontal Scale,0.04,,,
Sample Interval,6.4e-05,,,
Filter Frequency,2e+08,,,
Record Length,6250,,,
Gating,0.0% to 100.0%,,0.0% to 100.0%,
Probe Attenuation,10,,10,
Vertical Units,V,,V,
Vertical Offset,0,,0,
Vertical Scale,0.5,,5,
Label,,,,
TIME,CH1,CH1 Peak Detect,CH2,CH2 Peak Detect
-2.0000e-01,0.09,-0.17,10,9.6
-1.9994e-01,0.11,0.35,10,10.2
-1.9987e-01,0.11,-0.19,10,9.6
-1.9981e-01,0.09,0.35,10,10.4
-1.9974e-01,0.11,-0.19,9.8,9.6
-1.9968e-01,0.11,0.33,9.8,10.2
-1.9962e-01,0.11,-0.19,10,9.6
-1.9955e-01,0.11,0.35,10,10.2
-1.9949e-01,0.11,-0.25,10,9.6
-1.9942e-01,0.11,0.41,9.8,10.2
-1.9936e-01,0.09,-0.27,10,9.6
-1.9930e-01,0.07,0.47,10,10.4
-1.9923e-01,0.07,-0.25,10,9.6
-1.9917e-01,0.11,0.45,9.8,10.4
-1.9910e-01,0.09,-0.25,10,9.6
-1.9904e-01,0.09,0.45,10,10.2
-1.9898e-01,0.11,-0.25,10,9.4
-1.9891e-01,0.07,0.45,9.8,10.2
-1.9885e-01,0.09,-0.25,10,9.6
-1.9878e-01,0.11,0.45,9.8,10.2
-1.9872e-01,0.09,-0.25,10,9.6
-1.9866e-01,0.09,0.43,10,10.4
-1.9859e-01,0.11,-0.25,10,9.4
-1.9853e-01,0.09,0.43,10,10.2
-1.9846e-01,0.09,-0.25,10,9.6
-1.9840e-01,0.09,0.43,10,10.2
-1.9834e-01,0.11,-0.23,10,9.6
-1.9827e-01,0.09,0.43,9.8,10.4
-1.9821e-01,0.11,-0.23,9.8,9.6
-1.9814e-01,0.09,0.45,10,10.4
-1.9808e-01,0.07,-0.23,10,9.6
-1.9802e-01,0.11,0.43,10,10.4
-1.9795e-01,0.07,-0.23,10,9.6
-1.9789e-01,0.09,0.41,10,10.4
-1.9782e-01,0.07,-0.23,10,9.6
-1.9776e-01,0.07,0.41,9.8,10.2
-1.9770e-01,0.09,-0.23,10,9.6
-1.9763e-01,0.09,0.43,10,10.4
-1.9757e-01,0.09,-0.23,10,9.6
-1.9750e-01,0.07,0.43,10,10.4
-1.9744e-01,0.09,-0.21,9.8,9.6
-1.9738e-01,0.11,0.39,10,10.4
-1.9731e-01,0.09,-0.19,10,9.6
-1.9725e-01,0.09,0.37,10,10.4
-1.9718e-01,0.11,-0.21,10,9.6
-1.9712e-01,0.11,0.47,9.8,10.4
-1.9706e-01,0.19,-0.17,9.8,9.6
-1.9699e-01,0.13,0.43,10,10.4
-1.9693e-01,0.07,-0.15,10,9.6
-1.9686e-01,0.11,0.43,10,10.4
-1.9680e-01,0.07,-0.15,10,9.6
-1.9674e-01,0.09,0.43,9.8,10.4
-1.9667e-01,0.09,-0.15,10,9.6
-1.9661e-01,0.07,0.45,10,10.4
-1.9654e-01,0.09,-0.13,9.8,9.6
-1.9648e-01,0.11,0.41,10,10.2
-1.9642e-01,0.09,-0.13,10,9.6
-1.9635e-01,0.09,0.49,10,10.2
-1.9629e-01,0.07,-0.15,10,9.6
-1.9622e-01,0.13,0.45,10,10.4
-1.9616e-01,0.09,-0.13,10,9.4
-1.9610e-01,0.11,0.45,10,10.4
-1.9603e-01,0.09,-0.13,10,9.6
-1.9597e-01,0.07,0.45,10,10.2
-1.9590e-01,0.07,-0.13,10.2,9.6
-1.9584e-01,0.07,0.43,10,10.4
-1.9578e-01,0.09,-0.11,10,9.6
-1.9571e-01,0.07,0.43,10,10.4
-1.9565e-01,0.07,-0.13,9.8,9.6
-1.9558e-01,0.07,0.41,10,10.4
-1.9552e-01,0.09,-0.13,9.8,9.6
-1.9546e-01,0.11,0.43,9.8,10.4
-1.9539e-01,0.09,-0.11,9.8,9.4
-1.9533e-01,0.07,0.41,9.8,10.4
-1.9526e-01,0.07,-0.13,9.8,9.6
-1.9520e-01,0.09,0.41,10,10.2
-1.9514e-01,0.07,-0.11,9.8,9.6
-1.9507e-01,0.07,0.39,10,10.2
-1.9501e-01,0.07,-0.09,9.8,9.6
-1.9494e-01,0.07,0.39,10,10.4
-1.9488e-01,0.11,-0.11,10,9.6
-1.9482e-01,0.09,0.39,9.8,10.2
-1.9475e-01,0.09,-0.09,10,9.6
-1.9469e-01,0.05,0.33,10,10.2
-1.9462e-01,0.11,-0.09,10,9.6
-1.9456e-01,0.07,0.29,10,10.2
-1.9450e-01,0.07,-0.09,9.8,9.6
-1.9443e-01,0.07,0.31,10,10.4
-1.9437e-01,0.07,-0.07,9.8,9.4
-1.9430e-01,0.09,0.31,10,10.2
-1.9424e-01,0.07,-0.03,9.8,9.6
-1.9418e-01,0.09,0.23,9.8,10.2
-1.9411e-01,0.07,-0.03,10,9.6
-1.9405e-01,0.07,0.21,10,10.2
-1.9398e-01,0.07,-0.00999999,9.8,9.4
-1.9392e-01,0.09,0.19,10,10.2
-1.9386e-01,0.07,-0.00999999,9.8,9.4
-1.9379e-01,0.09,0.17,10,10.2
-1.9373e-01,0.09,-0.00999999,9.8,9.4
-1.9366e-01,0.11,0.17,9.8,10.2
-1.9360e-01,0.11,-0.00999999,9.8,9.6
-1.9354e-01,0.09,0.17,10,10.2
-1.9347e-01,0.09,-0.00999999,10,9.4
-1.9341e-01,0.07,0.15,9.8,10.2
-1.9334e-01,0.09,-0.00999999,10,9.4
-1.9328e-01,0.11,0.15,9.8,10.2
-1.9322e-01,0.09,-0.00999999,9.8,9.4
-1.9315e-01,0.09,0.17,9.8,10.2
-1.9309e-01,0.07,0.01,9.8,9.4
-1.9302e-01,0.07,0.15,9.8,10.2
-1.9296e-01,0.07,0.01,10,9.4
-1.9290e-01,0.09,0.15,10,10.2
-1.9283e-01,0.07,0.01,9.8,9.4
-1.9277e-01,0.09,0.15,9.8,10.4
-1.9270e-01,0.07,-0.00999999,9.8,9.4
-1.9264e-01,0.07,0.17,9.8,10.2
-1.9258e-01,0.09,-0.00999999,10,9.4
-1.9251e-01,0.09,0.17,9.8,10.2
-1.9245e-01,0.09,-0.00999999,9.8,9.4
-1.9238e-01,0.09,0.15,9.8,10.2
-1.9232e-01,0.09,-0.00999999,9.8,9.4
-1.9226e-01,0.07,0.15,10,10.2
-1.9219e-01,0.09,0.01,9.8,9.4
-1.9213e-01,0.09,0.17,9.8,10.2
-1.9206e-01,0.09,-0.00999999,9.8,9.4
-1.9200e-01,0.07,0.15,9.8,10.2
-1.9194e-01,0.07,-0.00999999,9.6,9.4
-1.9187e-01,0.09,0.15,10,10.2
-1.9181e-01,0.07,0.01,9.8,9.4
-1.9174e-01,0.09,0.13,9.8,10.2
-1.9168e-01,0.09,0.01,9.8,9.4
-1.9162e-01,0.07,0.13,9.8,10.2
-1.9155e-01,0.07,0.03,9.8,9.4
-1.9149e-01,0.07,0.13,9.8,10.2
-1.9142e-01,0.09,0.01,9.8,9.4
-1.9136e-01,0.09,0.13,9.8,10.2
-1.9130e-01,0.09,0.03,9.8,9.4
-1.9123e-01,0.07,0.13,9.8,10.2
-1.9117e-01,0.07,0.01,9.8,9.4
-1.9110e-01,0.07,0.13,9.6,10.2
-1.9104e-01,0.09,-0.11,9.6,9.4
-1.9098e-01,0.07,0.51,9.8,10.2
-1.9091e-01,0.09,-0.11,9.8,9.4
-1.9085e-01,-0.05,0.51,9.8,10.2
-1.9078e-01,0.07,-0.11,9.6,9.4
-1.9072e-01,0.09,0.53,9.6,10.2
-1.9066e-01,0.17,-0.13,9.8,9.4
-1.9059e-01,0.09,0.53,9.8,10.2
-1.9053e-01,0.09,-0.13,9.6,9.4
-1.9046e-01,0.15,0.55,9.8,10
-1.9040e-01,0.07,-0.11,9.8,9.4
-1.9034e-01,0.05,0.53,10,10
-1.9027e-01,0.03,-0.11,9.6,9.4
-1.9021e-01,0.07,0.53,9.8,10.2
-1.9014e-01,0.07,-0.13,9.6,9.2
-1.9008e-01,0.05,0.55,9.8,10.2
-1.9002e-01,0.09,-0.13,9.8,9.4
-1.8995e-01,0.09,0.55,9.8,10.2
-1.8989e-01,0.11,-0.13,9.8,9.4
-1.8982e-01,0.07,0.57,9.8,10.2
-1.8976e-01,0.07,-0.15,9.6,9.4
-1.8970e-01,0.05,0.59,9.8,10
-1.8963e-01,0.07,-0.15,9.6,9.4
-1.8957e-01,0.09,0.55,9.6,10.2
-1.8950e-01,0.07,-0.15,9.8,9.4
-1.8944e-01,0.07,0.55,9.6,10
-1.8938e-01,0.07,-0.15,9.6,9.4
-1.8931e-01,0.11,0.59,9.8,10
-1.8925e-01,0.09,-0.15,9.4,9.4
-1.8918e-01,0.07,0.59,9.6,10.2
-1.8912e-01,0.07,-0.15,10,9.2
-1.8906e-01,0.09,0.57,9.6,10
-1.8899e-01,0.09,-0.15,9.8,9.4
-1.8893e-01,0.07,0.57,9.6,10
-1.8886e-01,0.07,-0.15,9.8,9.4
-1.8880e-01,0.07,0.59,9.6,10
-1.8874e-01,0.07,-0.15,9.8,9.4
-1.8867e-01,0.07,0.57,9.6,10
-1.8861e-01,0.09,-0.17,9.8,9.2
-1.8854e-01,0.09,0.57,9.8,10
-1.8848e-01,0.05,-0.15,9.6,9.2
-1.8842e-01,0.05,0.55,9.8,10
-1.8835e-01,0.05,-0.17,9.6,9.4
-1.8829e-01,0.07,0.57,9.6,10
-1.8822e-01,0.07,-0.19,9.8,9.4
-1.8816e-01,0.07,0.53,9.6,10
-1.8810e-01,0.07,-0.19,9.6,9.4
-1.8803e-01,0.09,0.51,9.8,10
-1.8797e-01,0.03,-0.23,9.6,9.2
-1.8790e-01,0.05,0.55,9.8,10
-1.8784e-01,-0.00999999,-0.27,9.8,9.2
-1.8778e-01,0.05,0.51,9.6,10
-1.8771e-01,0.07,-0.25,9.6,9.2
-1.8765e-01,0.07,0.53,9.6,10
-1.8758e-01,0.09,-0.25,9.6,9.2
-1.8752e-01,0.09,0.55,9.8,10
-1.8746e-01,0.07,-0.27,9.6,9.2
-1.8739e-01,0.11,0.55,9.8,10
-1.8733e-01,0.07,-0.29,9.6,9.2
-1.8726e-01,0.07,0.53,9.6,10
-1.8720e-01,0.09,-0.27,9.6,9.4
-1.8714e-01,0.09,0.55,9.6,10
-1.8707e-01,0.07,-0.29,9.8,9.4
-1.8701e-01,0.05,0.55,9.4,10
-1.8694e-01,0.11,-0.29,9.4,9.2
-1.8688e-01,0.07,0.55,9.8,10
-1.8682e-01,0.05,-0.29,9.8,9.4
-1.8675e-01,0.09,0.55,9.6,10
-1.8669e-01,0.05,-0.29,9.8,9.4
-1.8662e-01,0.11,0.55,10,10
-1.8656e-01,0.09,-0.27,9.6,9.4
-1.8650e-01,0.09,0.53,9.6,10
-1.8643e-01,0.09,-0.27,9.6,9.4
-1.8637e-01,0.07,0.43,9.6,10
-1.8630e-01,0.09,-0.27,9.6,9.4
-1.8624e-01,0.09,0.41,9.8,10
-1.8618e-01,0.09,-0.25,9.8,9.4
-1.8611e-01,0.09,0.41,9.8,10.2
-1.8605e-01,0.09,-0.25,9.8,9.4
-1.8598e-01,0.09,0.41,9.8,10
-1.8592e-01,0.09,-0.21,9.6,9.4
-1.8586e-01,0.11,0.33,9.6,10.2
-1.8579e-01,0.09,-0.21,9.8,9.4
-1.8573e-01,0.09,0.35,9.6,10.2
-1.8566e-01,0.09,-0.23,9.8,9.4
-1.8560e-01,0.09,0.37,9.8,10.2
-1.8554e-01,0.09,-0.23,9.8,9.4
-1.8547e-01,0.05,0.35,9.8,10.2
-1.8541e-01,0.09,-0.23,10,9.4
-1.8534e-01,0.11,0.37,9.6,10.2
-1.8528e-01,0.01,-0.21,10,9.4
-1.8522e-01,0.09,0.37,9.8,10.2
-1.8515e-01,0.07,-0.21,9.6,9.4
-1.8509e-01,0.15,0.37,9.8,10.2
-1.8502e-01,0.09,-0.23,9.8,9.4
-1.8496e-01,0.11,0.37,9.8,10.2
-1.8490e-01,0.01,-0.23,10,9.4
-1.8483e-01,0.07,0.37,9.8,10.2
-1.8477e-01,0.09,-0.23,9.8,9.4
-1.8470e-01,0.09,0.35,9.8,10.2
-1.8464e-01,0.09,-0.21,10,9.4
-1.8458e-01,0.09,0.35,9.8,10.2
-1.8451e-01,0.19,-0.21,9.8,9.4
-1.8445e-01,0.09,0.35,9.8,10.2
-1.8438e-01,0.11,-0.19,9.8,9.4
-1.8432e-01,0.13,0.33,10,10.2
-1.8426e-01,0.09,-0.19,10,9.4
-1.8419e-01,0.09,0.33,9.8,10.2
-1.8413e-01,-0.15,-0.19,10,9.4
-1.8406e-01,0.11,0.33,9.8,10.2
-1.8400e-01,0.09,-0.19,9.8,9.4
-1.8394e-01,-0.17,0.31,10,10.2
-1.8387e-01,0.09,-0.15,10,9.6
-1.8381e-01,0.11,0.31,9.8,10.2
-1.8374e-01,0.15,-0.15,10,9.6
-1.8368e-01,0.09,0.35,9.8,10.2
-1.8362e-01,0.09,-0.17,10,9.4
-1.8355e-01,-0.00999999,0.33,10,10.2
-1.8349e-01,0.11,-0.19,9.8,9.6
-1.8342e-01,0.11,0.35,10,10.2
-1.8336e-01,0.17,-0.17,10,9.4
-1.8330e-01,0.09,0.33,10,10.2
-1.8323e-01,0.09,-0.17,9.8,9.4
-1.8317e-01,-0.13,0.33,9.8,10.2
-1.8310e-01,0.11,-0.19,9.8,9.6
-1.8304e-01,0.09,0.33,10,10.2
-1.8298e-01,-0.13,-0.19,9.8,9.4
-1.8291e-01,0.09,0.35,9.8,10.2
-1.8285e-01,0.11,-0.25,10,9.6
-1.8278e-01,0.13,0.43,10,10.2
-1.8272e-01,0.07,-0.25,9.8,9.4
-1.8266e-01,0.11,0.45,9.8,10.2
-1.8259e-01,-0.09,-0.25,10,9.4
-1.8253e-01,0.09,0.45,10,10.2
-1.8246e-01,0.09,-0.25,9.8,9.6
-1.8240e-01,0.35,0.43,10,10.2
-1.8234e-01,0.11,-0.25,10,9.4
-1.8227e-01,0.09,0.47,10,10.4
-1.8221e-01,0.41,-0.25,10,9.6
-1.8214e-01,0.11,0.43,10,10.2
-1.8208e-01,0.11,-0.25,9.8,9.6
-1.8202e-01,-0.05,0.43,10,10.2
-1.8195e-01,0.09,-0.25,9.8,9.6
-1.8189e-01,0.11,0.43,10,10.4
-1.8182e-01,0.03,-0.25,10,9.6
-1.8176e-01,0.11,0.43,10,10.4
-1.8170e-01,0.09,-0.25,9.8,9.6
-1.8163e-01,0.03,0.43,10,10.4
-1.8157e-01,0.11,-0.23,10,9.6
-1.8150e-01,0.11,0.43,10,10.4
-1.8144e-01,0.03,-0.23,10,9.6
-1.8138e-01,0.09,0.43,9.8,10.4
-1.8131e-01,0.11,-0.23,10,9.6
-1.8125e-01,0.21,0.43,10,10.4
-1.8118e-01,0.09,-0.23,10.2,9.6
-1.8112e-01,0.09,0.39,10,10.4
-1.8106e-01,0.11,-0.23,10,9.6
-1.8099e-01,0.11,0.43,9.8,10.4
-1.8093e-01,0.09,-0.23,10,9.6
-1.8086e-01,0.07,0.43,10,10.4
-1.8080e-01,0.09,-0.21,9.8,9.6
-1.8074e-01,0.09,0.39,10,10.4
-1.8067e-01,0.07,-0.19,10,9.6
-1.8061e-01,0.11,0.37,10,10.4
-1.8054e-01,0.11,-0.21,9.8,9.6
-1.8048e-01,0.17,0.47,10,10.4
-1.8042e-01,0.17,-0.17,10,9.6
-1.8035e-01,0.13,0.45,10,10.4
-1.8029e-01,0.09,-0.17,9.8,9.6
-1.8022e-01,0.11,0.45,10,10.4
-1.8016e-01,0.09,-0.15,10,9.6
-1.8010e-01,0.05,0.43,10,10.4
-1.8003e-01,0.07,-0.13,10,9.6
-1.7997e-01,0.09,0.43,9.8,10.4
-1.7990e-01,0.09,-0.15,10,9.6
-1.7984e-01,0.05,0.43,10,10.4
-1.7978e-01,0.09,-0.15,10,9.6
-1.7971e-01,0.11,0.47,10.2,10.4
-1.7965e-01,0.07,-0.15,10.2,9.6
-1.7958e-01,0.07,0.47,9.8,10.4
-1.7952e-01,0.07,-0.13,9.8,9.6
-1.7946e-01,0.09,0.45,9.8,10.4
-1.7939e-01,0.09,-0.13,10,9.6
-1.7933e-01,0.09,0.45,10,10.4
-1.7926e-01,0.09,-0.13,9.8,9.6
-1.7920e-01,0.07,0.43,10,10.4
-1.7914e-01,0.07,-0.11,10,9.6
-1.7907e-01,0.09,0.43,10,10.4
-1.7901e-01,0.07,-0.13,10,9.6
-1.7894e-01,0.07,0.45,9.8,10.4
-1.7888e-01,0.09,-0.11,9.8,9.6
-1.7882e-01,0.11,0.41,9.8,10.4
-1.7875e-01,0.09,-0.11,9.8,9.6
-1.7869e-01,0.07,0.41,9.8,10.4
-1.7862e-01,0.09,-0.11,10,9.6
-1.7856e-01,0.11,0.41,10,10.4
-1.7850e-01,0.09,-0.09,10,9.6
-1.7843e-01,0.09,0.41,10,10.4
-1.7837e-01,0.03,-0.11,9.8,9.6
-1.7830e-01,0.09,0.39,10,10.2
-1.7824e-01,0.09,-0.09,10,9.4
-1.7818e-01,0.17,0.39,10,10.2
-1.7811e-01,0.09,-0.11,9.8,9.6
-1.7805e-01,0.09,0.33,9.8,10.4
-1.7798e-01,0.05,-0.11,9.8,9.6
-1.7792e-01,0.07,0.33,10,10.4
-1.7786e-01,0.09,-0.07,10,9.6
-1.7779e-01,0.09,0.31,10,10.2
-1.7773e-01,0.09,-0.09,10,9.6
-1.7766e-01,0.07,0.31,10,10.2
-1.7760e-01,0.07,-0.05,10,9.4
-1.7754e-01,0.07,0.25,9.8,10.2
-1.7747e-01,0.07,-0.03,10,9.4
-1.7741e-01,0.09,0.23,10,10.2
-1.7734e-01,0.07,-0.00999999,10,9.4
-1.7728e-01,0.07,0.19,10,10.2
-1.7722e-01,0.07,-0.00999999,9.8,9.4
-1.7715e-01,0.09,0.17,9.8,10.2
-1.7709e-01,0.09,-0.00999999,9.6,9.4
-1.7702e-01,0.07,0.17,10,10.2
-1.7696e-01,0.09,-0.00999999,9.8,9.4
-1.7690e-01,0.09,0.15,9.8,10.2
-1.7683e-01,0.07,-0.00999999,9.8,9.6
-1.7677e-01,0.09,0.15,9.6,10.2
-1.7670e-01,0.07,0.01,9.8,9.4
-1.7664e-01,0.07,0.15,10,10.2
-1.7658e-01,0.07,0.01,9.8,9.4
-1.7651e-01,0.07,0.15,9.8,10.2
-1.7645e-01,0.07,-0.00999999,9.8,9.4
-1.7638e-01,0.07,0.15,9.8,10.2
-1.7632e-01,0.09,-0.00999999,10,9.4
-1.7626e-01,0.09,0.15,10,10.2
-1.7619e-01,0.07,-0.00999999,9.8,9.4
-1.7613e-01,0.09,0.15,9.8,10.2
-1.7606e-01,0.07,0.01,9.8,9.4
-1.7600e-01,0.05,0.15,9.8,10.2
-1.7594e-01,0.09,-0.00999999,9.8,9.4
-1.7587e-01,0.09,0.17,10,10.2
-1.7581e-01,0.09,-0.00999999,9.8,9.4
-1.7574e-01,0.07,0.17,9.6,10.2
-1.7568e-01,0.07,-0.00999999,9.8,9.4
-1.7562e-01,0.09,0.15,9.6,10.2
-1.7555e-01,0.07,-0.00999999,9.8,9.4
-1.7549e-01,0.09,0.15,9.8,10.2
-1.7542e-01,0.05,0.01,9.8,9.4
-1.7536e-01,0.09,0.15,10,10.2
-1.7530e-01,0.11,-0.00999999,9.6,9.4
-1.7523e-01,0.07,0.15,9.6,10.2
-1.7517e-01,0.07,0.03,9.8,9.4
-1.7510e-01,0.05,0.13,10,10.2
-1.7504e-01,0.07,0.01,9.8,9.4
-1.7498e-01,0.07,0.13,9.8,10.2
-1.7491e-01,0.09,0.01,10,9.4
-1.7485e-01,0.07,0.13,9.6,10.2
-1.7478e-01,0.09,0.03,9.8,9.4
-1.7472e-01,0.07,0.13,9.8,10.2
-1.7466e-01,0.07,0.03,9.8,9.4
-1.7459e-01,0.07,0.13,9.8,10.2
-1.7453e-01,0.07,0.01,9.8,9.4
-1.7446e-01,0.05,0.13,9.8,10.2
-1.7440e-01,0.09,-0.11,9.8,9.4
-1.7434e-01,0.09,0.51,9.8,10.2
-1.7427e-01,0.07,-0.11,9.8,9.4
-1.7421e-01,0.09,0.51,9.8,10.2
-1.7414e-01,0.09,-0.13,9.8,9.4
-1.7408e-01,0.09,0.53,9.6,10.2
-1.7402e-01,0.09,-0.11,9.8,9.4
-1.7395e-01,0.07,0.53,9.8,10.2
-1.7389e-01,0.07,-0.11,10,9.4
-1.7382e-01,0.07,0.51,9.8,10
-1.7376e-01,0.07,-0.11,9.6,9.4
-1.7370e-01,0.09,0.55,9.8,10
-1.7363e-01,0.09,-0.13,9.8,9.4
-1.7357e-01,0.09,0.55,10,10.2
-1.7350e-01,0.11,-0.13,9.8,9.4
-1.7344e-01,0.09,0.55,9.6,10.2
-1.7338e-01,0.09,-0.13,9.6,9.4
-1.7331e-01,0.09,0.57,9.6,10.2
-1.7325e-01,0.09,-0.13,9.8,9.4
-1.7318e-01,0.07,0.57,9.8,10.2
-1.7312e-01,0.09,-0.13,9.8,9.4
-1.7306e-01,0.09,0.55,9.6,10.2
-1.7299e-01,0.07,-0.13,9.8,9.4
-1.7293e-01,0.11,0.55,9.6,10.2
-1.7286e-01,0.09,-0.15,9.6,9.4
-1.7280e-01,0.07,0.57,9.6,10
-1.7274e-01,0.07,-0.15,9.8,9.4
-1.7267e-01,0.09,0.59,9.6,10
-1.7261e-01,0.55,-0.15,9.6,9.4
-1.7254e-01,0.09,0.57,9.6,10.2
-1.7248e-01,0.07,-0.15,9.6,9.4
-1.7242e-01,0.13,0.57,9.8,10
-1.7235e-01,0.09,-0.17,9.6,9.4
-1.7229e-01,0.07,0.55,9.8,10
-1.7222e-01,0.49,-0.15,9.8,9.4
-1.7216e-01,0.07,0.59,9.6,10
-1.7210e-01,0.07,-0.19,9.8,9.4
-1.7203e-01,-0.03,0.59,9.8,10
-1.7197e-01,0.07,-0.17,9.8,9.4
-1.7190e-01,0.09,0.55,9.6,10
-1.7184e-01,0.09,-0.17,9.8,9.2
-1.7178e-01,0.05,0.55,9.8,10
-1.7171e-01,0.07,-0.19,9.8,9.4
-1.7165e-01,0.19,0.59,9.8,10.2
-1.7158e-01,0.07,-0.17,9.6,9.2
-1.7152e-01,0.09,0.53,9.6,10
-1.7146e-01,0.09,-0.17,9.6,9.4
-1.7139e-01,0.05,0.51,9.8,10
-1.7133e-01,0.07,-0.23,9.6,9.2
-1.7126e-01,0.07,0.55,9.8,10
-1.7120e-01,0.07,-0.29,9.8,9.2
-1.7114e-01,0.01,0.49,9.8,10
-1.7107e-01,0.01,-0.27,9.6,9.2
-1.7101e-01,0.07,0.53,9.8,10
-1.7094e-01,0.07,-0.27,9.8,9.4
-1.7088e-01,0.03,0.53,9.8,10
-1.7082e-01,0.09,-0.27,9.6,9.4
-1.7075e-01,0.09,0.55,9.6,10
-1.7069e-01,0.01,-0.27,9.6,9.4
-1.7062e-01,0.07,0.55,9.6,10
-1.7056e-01,0.07,-0.27,9.6,9.4
-1.7050e-01,0.05,0.55,9.8,10
-1.7043e-01,0.09,-0.29,9.8,9.4
-1.7037e-01,0.07,0.55,9.6,10
-1.7030e-01,-0.05,-0.27,9.6,9.4
-1.7024e-01,0.07,0.55,9.8,10.2
-1.7018e-01,0.11,-0.29,9.6,9.4
-1.7011e-01,-0.00999999,0.55,9.8,10
-1.7005e-01,0.07,-0.29,9.6,9.4
-1.6998e-01,0.09,0.55,9.8,10
-1.6992e-01,-0.17,-0.29,9.8,9.4
-1.6986e-01,0.07,0.55,9.6,10.2
-1.6979e-01,0.07,-0.27,9.6,9.4
-1.6973e-01,-0.03,0.41,9.8,10
-1.6966e-01,0.09,-0.27,9.6,9.4
-1.6960e-01,0.11,0.41,9.8,10
-1.6954e-01,0.21,-0.25,9.8,9.4
-1.6947e-01,0.09,0.41,9.6,10
-1.6941e-01,0.09,-0.23,9.8,9.4
-1.6934e-01,0.09,0.37,9.8,10.2
-1.6928e-01,0.09,-0.21,9.8,9.4
-1.6922e-01,0.11,0.35,9.8,10.2
-1.6915e-01,0.09,-0.23,10,9.4
-1.6909e-01,0.09,0.37,9.8,10.2
-1.6902e-01,0.09,-0.23,9.8,9.4
-1.6896e-01,0.07,0.37,9.8,10.2
-1.6890e-01,0.09,-0.21,9.8,9.4
-1.6883e-01,0.09,0.33,9.8,10.2
-1.6877e-01,0.09,-0.25,9.8,9.4
-1.6870e-01,0.07,0.37,9.8,10.2
-1.6864e-01,0.07,-0.23,9.8,9.4
-1.6858e-01,0.09,0.35,9.8,10.2
-1.6851e-01,0.09,-0.21,9.8,9.4
-1.6845e-01,0.09,0.35,9.8,10.2
-1.6838e-01,0.09,-0.21,9.8,9.4
-1.6832e-01,0.11,0.37,9.8,10.2
-1.6826e-01,0.09,-0.23,9.8,9.4
-1.6819e-01,0.11,0.37,10,10.2
-1.6813e-01,0.09,-0.19,9.8,9.4
-1.6806e-01,0.09,0.33,10,10.2
-1.6800e-01,0.09,-0.21,9.8,9.4
-1.6794e-01,0.09,0.33,10,10.2
-1.6787e-01,0.11,-0.19,9.8,9.4
-1.6781e-01,0.11,0.35,10,10.2
-1.6774e-01,0.13,-0.19,10,9.4
-1.6768e-01,0.11,0.33,10,10.2
-1.6762e-01,0.11,-0.19,10,9.4
-1.6755e-01,0.09,0.33,10,10.2
-1.6749e-01,0.09,-0.17,9.8,9.4
-1.6742e-01,0.09,0.35,9.8,10.2
-1.6736e-01,0.09,-0.19,9.8,9.4
-1.6730e-01,0.09,0.33,9.8,10.2
-1.6723e-01,0.09,-0.17,10,9.4
-1.6717e-01,0.07,0.33,10,10.2
-1.6710e-01,0.09,-0.15,10,9.4
-1.6704e-01,0.09,0.31,9.8,10.2
-1.6698e-01,0.11,-0.17,9.8,9.4
-1.6691e-01,0.09,0.31,10,10.2
-1.6685e-01,0.09,-0.21,9.8,9.4
-1.6678e-01,0.09,0.33,9.8,10.2
-1.6672e-01,0.09,-0.15,10,9.6
-1.6666e-01,0.11,0.33,9.8,10.4
-1.6659e-01,0.09,-0.15,10,9.4
-1.6653e-01,0.09,0.31,10,10.2
-1.6646e-01,0.09,-0.15,10,9.6
-1.6640e-01,0.09,0.33,9.8,10.2
-1.6634e-01,0.09,-0.15,9.8,9.4
-1.6627e-01,0.07,0.33,10,10.4
-1.6621e-01,0.09,-0.17,10,9.6
-1.6614e-01,0.09,0.33,9.8,10.4
-1.6608e-01,0.11,-0.25,10,9.6
-1.6602e-01,0.11,0.45,10,10.2
-1.6595e-01,0.11,-0.25,10,9.6
-1.6589e-01,0.09,0.45,10,10.2
-1.6582e-01,0.19,-0.23,10,9.6
-1.6576e-01,0.09,0.45,10,10.4
-1.6570e-01,0.11,-0.25,9.8,9.4
-1.6563e-01,0.15,0.47,10,10.2
-1.6557e-01,0.11,-0.25,9.8,9.4
-1.6550e-01,0.09,0.45,9.8,10.2
-1.6544e-01,0.27,-0.23,10,9.6
-1.6538e-01,0.11,0.43,10,10.2
-1.6531e-01,0.09,-0.23,10,9.6
-1.6525e-01,0.09,0.45,9.8,10.4
-1.6518e-01,0.11,-0.25,10,9.6
-1.6512e-01,0.11,0.43,10.2,10.2
-1.6506e-01,0.11,-0.25,10,9.6
-1.6499e-01,0.09,0.43,9.8,10.4
-1.6493e-01,0.09,-0.23,10,9.6
-1.6486e-01,0.11,0.41,9.8,10.2
-1.6480e-01,0.11,-0.23,10,9.6
-1.6474e-01,0.09,0.43,10,10.4
-1.6467e-01,0.09,-0.23,10,9.6
-1.6461e-01,0.09,0.41,10,10.4
-1.6454e-01,0.07,-0.21,10,9.6
-1.6448e-01,0.11,0.39,9.8,10.4
-1.6442e-01,0.15,-0.23,10,9.6
-1.6435e-01,0.07,0.43,10,10.4
-1.6429e-01,0.11,-0.21,10,9.6
-1.6422e-01,0.11,0.43,10.2,10.4
-1.6416e-01,0.11,-0.21,10,9.6
-1.6410e-01,0.09,0.41,10,10.2
-1.6403e-01,0.17,-0.21,10,9.6
-1.6397e-01,0.11,0.37,10,10.4
-1.6390e-01,0.11,-0.19,9.8,9.6
-1.6384e-01,0.11,0.45,9.8,10.4
-1.6378e-01,0.15,-0.15,10,9.6
-1.6371e-01,0.11,0.43,9.8,10.4
-1.6365e-01,0.11,-0.17,10,9.6
-1.6358e-01,0.11,0.43,10,10.4
-1.6352e-01,0.09,-0.15,9.8,9.6
-1.6346e-01,0.09,0.41,9.8,10.4
-1.6339e-01,0.09,-0.13,10,9.6
-1.6333e-01,0.09,0.43,9.8,10.4
-1.6326e-01,0.09,-0.15,10,9.6
-1.6320e-01,0.07,0.41,10,10.4
-1.6314e-01,0.07,-0.13,9.8,9.6
-1.6307e-01,0.07,0.41,10,10.4
-1.6301e-01,0.01,-0.13,9.8,9.6
-1.6294e-01,0.09,0.47,9.8,10.4
-1.6288e-01,0.09,-0.13,9.8,9.6
-1.6282e-01,0.07,0.45,9.8,10.4
-1.6275e-01,0.07,-0.13,10,9.6
-1.6269e-01,0.09,0.45,9.8,10.4
-1.6262e-01,0.09,-0.13,10,9.6
-1.6256e-01,0.07,0.45,9.8,10.4
-1.6250e-01,0.07,-0.13,10,9.6
-1.6243e-01,0.07,0.43,10,10.2
-1.6237e-01,0.09,-0.11,9.8,9.4
-1.6230e-01,0.07,0.41,10,10.2
-1.6224e-01,0.07,-0.11,9.8,9.6
-1.6218e-01,0.11,0.41,10,10.2
-1.6211e-01,0.09,-0.11,9.8,9.6
-1.6205e-01,0.09,0.41,10,10.2
-1.6198e-01,0.07,-0.11,10,9.6
-1.6192e-01,0.07,0.41,10,10.4
-1.6186e-01,0.09,-0.11,9.8,9.6
-1.6179e-01,0.11,0.39,10,10.4
-1.6173e-01,0.07,-0.09,10,9.6
-1.6166e-01,0.09,0.39,9.8,10.2
-1.6160e-01,-0.03,-0.09,10,9.6
-1.6154e-01,0.09,0.39,9.8,10.2
-1.6147e-01,0.07,-0.09,9.8,9.6
-1.6141e-01,0.09,0.35,9.8,10.2
-1.6134e-01,0.09,-0.09,10,9.4
-1.6128e-01,0.09,0.29,9.8,10.2
-1.6122e-01,0.09,-0.07,10,9.4
-1.6115e-01,0.07,0.29,10,10.2
-1.6109e-01,0.07,-0.07,10,9.6
-1.6102e-01,0.09,0.29,10,10.2
-1.6096e-01,0.05,-0.05,10,9.6
-1.6090e-01,0.09,0.23,10,10.4
-1.6083e-01,0.09,-0.03,10,9.4
-1.6077e-01,0.09,0.23,10,10.2
-1.6070e-01,0.09,-0.03,10,9.4
-1.6064e-01,0.07,0.19,9.8,10.2
-1.6058e-01,0.07,-0.00999999,10,9.4
-1.6051e-01,0.09,0.19,10,10.2
-1.6045e-01,0.07,-0.00999999,9.8,9.4
-1.6038e-01,0.07,0.17,9.8,10.2
-1.6032e-01,0.09,-0.00999999,10,9.4
-1.6026e-01,0.09,0.15,10,10.2
-1.6019e-01,0.09,-0.00999999,9.8,9.4
-1.6013e-01,0.09,0.15,9.8,10.2
-1.6006e-01,0.07,0.01,10,9.4
-1.6000e-01,0.09,0.15,9.6,10.2
-1.5994e-01,0.09,-0.00999999,9.8,9.4
-1.5987e-01,0.07,0.17,9.8,10.2
-1.5981e-01,0.11,-0.00999999,10,9.4
-1.5974e-01,0.09,0.15,9.8,10.2
-1.5968e-01,0.09,-0.03,10,9.4
-1.5962e-01,0.09,0.17,9.8,10.2
-1.5955e-01,0.09,-0.00999999,9.8,9.4
-1.5949e-01,0.09,0.15,10,10.2
-1.5942e-01,0.07,-0.00999999,10,9.4
-1.5936e-01,0.07,0.15,10,10.2
-1.5930e-01,0.07,-0.00999999,9.8,9.4
