data/oscope_41W_091PF.CSV

Model,DPO2024B
Firmware Version,1.52

Point Format,Y,,,
Horizontal Units,S,,,
Horizontal Scale,0.01,,,
Sample Interval,1.92012e-05,,,
Filter Frequency,2e+08,,,
Record Length,5208,,,
Gating,0.0% to 100.0%,,0.0% to 100.0%,
Probe Attenuation,10,,10,
Vertical Units,V,,V,
Vertical Offset,0,,0,
Vertical Scale,0.5,,1,
Label,,,,
TIME,CH1,CH1 Peak Detect,CH2,CH2 Peak Detect
-4.983e-02,2.02,2.06,2.2,2.16
-4.981e-02,2.02,1.98,2.2,2.28
-4.979e-02,2.02,2.06,2.2,2.16
-4.977e-02,2.02,1.98,2.24,2.28
-4.975e-02,2.02,2.06,2.24,2.16
-4.973e-02,2.02,1.96,2.24,2.28
-4.972e-02,2,2.06,2.24,2.16
-4.970e-02,2,1.96,2.24,2.32
-4.968e-02,2,2.06,2.24,2.16
-4.966e-02,2,1.96,2.28,2.32
-4.964e-02,2,2.04,2.28,2.2
-4.962e-02,2,1.94,2.24,2.36
-4.960e-02,1.98,2.04,2.28,2.2
-4.958e-02,1.98,1.94,2.32,2.36
-4.956e-02,1.96,2.04,2.32,2.24
-4.954e-02,1.98,1.94,2.32,2.4
-4.952e-02,2,2.02,2.32,2.24
-4.950e-02,2,1.94,2.36,2.4
-4.948e-02,2,2.02,2.36,2.28
-4.947e-02,1.98,1.94,2.36,2.44
-4.945e-02,1.98,2.02,2.36,2.28
-4.943e-02,1.98,1.94,2.36,2.44
-4.941e-02,1.98,2.02,2.4,2.28
-4.939e-02,1.98,1.94,2.36,2.44
-4.937e-02,1.98,2.02,2.36,2.32
-4.935e-02,1.98,1.92,2.4,2.44
-4.933e-02,1.96,2.02,2.4,2.32
-4.931e-02,1.94,1.92,2.4,2.48
-4.929e-02,1.98,2,2.44,2.32
-4.927e-02,1.98,1.92,2.36,2.48
-4.925e-02,1.96,2,2.4,2.36
-4.924e-02,1.96,1.92,2.44,2.52
-4.922e-02,1.94,2,2.44,2.36
-4.920e-02,1.96,1.92,2.44,2.52
-4.918e-02,1.94,2,2.44,2.36
-4.916e-02,1.94,1.9,2.44,2.52
-4.914e-02,1.96,2,2.44,2.36
-4.912e-02,1.98,1.9,2.48,2.52
-4.910e-02,1.94,1.98,2.44,2.4
-4.908e-02,1.94,1.9,2.48,2.56
-4.906e-02,1.94,1.98,2.48,2.4
-4.904e-02,1.92,1.9,2.48,2.56
-4.902e-02,1.94,1.98,2.48,2.44
-4.900e-02,1.94,1.9,2.52,2.6
-4.899e-02,1.94,1.98,2.52,2.44
-4.897e-02,1.92,1.88,2.56,2.6
-4.895e-02,1.94,1.98,2.56,2.48
-4.893e-02,1.92,1.88,2.56,2.64
-4.891e-02,1.92,1.96,2.6,2.52
-4.889e-02,1.92,1.88,2.6,2.68
-4.887e-02,1.94,1.96,2.6,2.52
-4.885e-02,1.92,1.86,2.64,2.68
-4.883e-02,1.92,1.96,2.64,2.56
-4.881e-02,1.9,1.86,2.64,2.72
-4.879e-02,1.92,1.96,2.6,2.56
-4.877e-02,1.9,1.86,2.64,2.72
-4.876e-02,1.92,1.96,2.64,2.56
-4.874e-02,1.9,1.86,2.64,2.72
-4.872e-02,1.9,1.94,2.6,2.52
-4.870e-02,1.9,1.86,2.64,2.68
-4.868e-02,1.92,1.94,2.64,2.56
-4.866e-02,1.88,1.84,2.64,2.68
-4.864e-02,1.9,1.94,2.64,2.56
-4.862e-02,1.9,1.84,2.64,2.72
-4.860e-02,1.92,1.94,2.64,2.56
-4.858e-02,1.88,1.84,2.64,2.72
-4.856e-02,1.9,1.94,2.64,2.6
-4.854e-02,1.88,1.84,2.68,2.76
-4.852e-02,1.88,1.92,2.68,2.6
-4.851e-02,1.86,1.84,2.72,2.76
-4.849e-02,1.9,1.92,2.72,2.64
-4.847e-02,1.88,1.84,2.68,2.76
-4.845e-02,1.88,1.92,2.72,2.64
-4.843e-02,1.88,1.84,2.72,2.8
-4.841e-02,1.88,1.92,2.72,2.64
-4.839e-02,1.88,1.82,2.76,2.8
-4.837e-02,1.88,1.92,2.76,2.64
-4.835e-02,1.88,1.82,2.76,2.8
-4.833e-02,1.88,1.92,2.76,2.68
-4.831e-02,1.88,1.82,2.76,2.84
-4.829e-02,1.84,1.9,2.76,2.68
-4.828e-02,1.88,1.8,2.76,2.84
-4.826e-02,1.86,1.9,2.76,2.68
-4.824e-02,1.86,1.8,2.8,2.88
-4.822e-02,1.86,1.9,2.76,2.68
-4.820e-02,1.84,1.8,2.8,2.84
-4.818e-02,1.86,1.9,2.76,2.68
-4.816e-02,1.86,1.8,2.76,2.88
-4.814e-02,1.86,1.9,2.8,2.72
-4.812e-02,1.86,1.8,2.8,2.88
-4.810e-02,1.86,1.88,2.8,2.72
-4.808e-02,1.84,1.8,2.8,2.88
-4.806e-02,1.84,1.88,2.8,2.72
-4.804e-02,1.84,1.8,2.8,2.88
-4.803e-02,1.86,1.88,2.8,2.72
-4.801e-02,1.8,1.78,2.8,2.88
-4.799e-02,1.82,1.88,2.84,2.72
-4.797e-02,1.86,1.78,2.84,2.88
-4.795e-02,1.84,1.88,2.8,2.76
-4.793e-02,1.82,1.78,2.84,2.92
-4.791e-02,1.84,1.86,2.84,2.76
-4.789e-02,1.84,1.78,2.8,2.88
-4.787e-02,1.82,1.88,2.84,2.76
-4.785e-02,1.82,1.78,2.84,2.88
-4.783e-02,1.8,1.86,2.84,2.76
-4.781e-02,1.82,1.78,2.84,2.92
-4.780e-02,1.82,1.86,2.84,2.76
-4.778e-02,1.82,1.76,2.88,2.92
-4.776e-02,1.82,1.86,2.8,2.76
-4.774e-02,1.8,1.76,2.84,2.92
-4.772e-02,1.78,1.86,2.88,2.76
-4.770e-02,1.8,1.76,2.84,2.92
-4.768e-02,1.8,1.84,2.84,2.76
-4.766e-02,1.8,1.76,2.88,2.92
-4.764e-02,1.82,1.84,2.84,2.76
-4.762e-02,1.8,1.76,2.88,2.92
-4.760e-02,1.8,1.84,2.84,2.76
-4.758e-02,1.82,1.74,2.84,2.92
-4.756e-02,1.78,1.84,2.84,2.76
-4.755e-02,1.78,1.74,2.88,2.92
-4.753e-02,1.78,1.84,2.8,2.76
-4.751e-02,1.8,1.74,2.84,2.92
-4.749e-02,1.8,1.84,2.88,2.76
-4.747e-02,1.78,1.74,2.88,2.92
-4.745e-02,1.76,1.82,2.84,2.76
-4.743e-02,1.78,1.72,2.88,2.92
-4.741e-02,1.76,1.8,2.88,2.8
-4.739e-02,1.78,1.72,2.88,2.92
-4.737e-02,1.76,1.82,2.88,2.8
-4.735e-02,1.76,1.72,2.88,2.96
-4.733e-02,1.74,1.8,2.88,2.8
-4.732e-02,1.76,1.7,2.88,2.92
-4.730e-02,1.74,1.8,2.88,2.8
-4.728e-02,1.74,1.7,2.92,2.96
-4.726e-02,1.72,1.78,2.88,2.8
-4.724e-02,1.74,1.68,2.88,2.96
-4.722e-02,1.72,1.78,2.88,2.8
-4.720e-02,1.7,1.68,2.88,2.96
-4.718e-02,1.72,1.78,2.92,2.8
-4.716e-02,1.7,1.68,2.88,2.96
-4.714e-02,1.72,1.76,2.84,2.8
-4.712e-02,1.7,1.66,2.88,2.96
-4.710e-02,1.7,1.74,2.84,2.8
-4.708e-02,1.7,1.66,2.88,2.96
-4.707e-02,1.7,1.74,2.88,2.8
-4.705e-02,1.7,1.66,2.92,2.96
-4.703e-02,1.7,1.74,2.88,2.8
-4.701e-02,1.68,1.64,2.92,2.96
-4.699e-02,1.68,1.72,2.88,2.8
-4.697e-02,1.66,1.64,2.88,2.96
-4.695e-02,1.7,1.72,2.88,2.8
-4.693e-02,1.66,1.62,2.92,2.96
-4.691e-02,1.66,1.72,2.88,2.8
-4.689e-02,1.68,1.62,2.92,2.96
-4.687e-02,1.66,1.72,2.88,2.8
-4.685e-02,1.64,1.6,2.88,2.96
-4.684e-02,1.66,1.7,2.92,2.8
-4.682e-02,1.64,1.6,2.92,2.96
-4.680e-02,1.66,1.7,2.92,2.8
-4.678e-02,1.64,1.6,2.92,2.96
-4.676e-02,1.64,1.68,2.92,2.8
-4.674e-02,1.66,1.6,2.88,2.96
-4.672e-02,1.64,1.68,2.92,2.8
-4.670e-02,1.62,1.58,2.88,2.96
-4.668e-02,1.64,1.66,2.88,2.8
-4.666e-02,1.62,1.56,2.92,2.96
-4.664e-02,1.62,1.66,2.88,2.8
-4.662e-02,1.6,1.58,2.88,2.96
-4.660e-02,1.6,1.66,2.92,2.8
-4.659e-02,1.6,1.56,2.88,2.96
-4.657e-02,1.58,1.66,2.88,2.8
-4.655e-02,1.62,1.56,2.88,2.96
-4.653e-02,1.62,1.66,2.88,2.8
-4.651e-02,1.6,1.56,2.88,2.96
-4.649e-02,1.62,1.64,2.88,2.8
-4.647e-02,1.6,1.56,2.88,2.96
-4.645e-02,1.6,1.64,2.88,2.8
-4.643e-02,1.6,1.54,2.92,2.96
-4.641e-02,1.56,1.64,2.92,2.8
-4.639e-02,1.6,1.54,2.88,2.96
-4.637e-02,1.58,1.62,2.88,2.8
-4.635e-02,1.58,1.54,2.92,2.96
-4.634e-02,1.58,1.64,2.88,2.8
-4.632e-02,1.54,1.52,2.92,2.96
-4.630e-02,1.56,1.62,2.88,2.8
-4.628e-02,1.58,1.52,2.88,2.96
-4.626e-02,1.56,1.62,2.88,2.8
-4.624e-02,1.56,1.52,2.88,2.96
-4.622e-02,1.54,1.62,2.88,2.8
-4.620e-02,1.54,1.52,2.88,2.96
-4.618e-02,1.54,1.6,2.88,2.8
-4.616e-02,1.58,1.5,2.84,2.96
-4.614e-02,1.56,1.6,2.88,2.8
-4.612e-02,1.56,1.5,2.88,2.96
-4.611e-02,1.58,1.6,2.88,2.8
-4.609e-02,1.56,1.5,2.88,2.96
-4.607e-02,1.54,1.6,2.88,2.8
-4.605e-02,1.58,1.5,2.88,2.96
-4.603e-02,1.56,1.6,2.88,2.76
-4.601e-02,1.56,1.5,2.92,2.96
-4.599e-02,1.56,1.6,2.92,2.8
-4.597e-02,1.54,1.5,2.88,2.96
-4.595e-02,1.56,1.6,2.88,2.8
-4.593e-02,1.56,1.5,2.88,2.92
-4.591e-02,1.54,1.6,2.88,2.8
-4.589e-02,1.56,1.5,2.88,2.96
-4.587e-02,1.54,1.6,2.88,2.8
-4.586e-02,1.54,1.52,2.88,2.92
-4.584e-02,1.54,1.6,2.88,2.76
-4.582e-02,1.56,1.5,2.88,2.92
-4.580e-02,1.56,1.6,2.84,2.76
-4.578e-02,1.56,1.52,2.88,2.92
-4.576e-02,1.56,1.6,2.88,2.76
-4.574e-02,1.56,1.52,2.88,2.92
-4.572e-02,1.56,1.62,2.88,2.76
-4.570e-02,1.58,1.52,2.88,2.92
-4.568e-02,1.58,1.62,2.84,2.76
-4.566e-02,1.6,1.52,2.84,2.92
-4.564e-02,1.56,1.62,2.84,2.72
-4.563e-02,1.56,1.52,2.84,2.92
-4.561e-02,1.56,1.62,2.84,2.76
-4.559e-02,1.58,1.54,2.84,2.92
-4.557e-02,1.58,1.64,2.84,2.72
-4.555e-02,1.6,1.52,2.84,2.88
-4.553e-02,1.58,1.64,2.8,2.76
-4.551e-02,1.58,1.54,2.84,2.92
-4.549e-02,1.6,1.64,2.84,2.76
-4.547e-02,1.58,1.54,2.84,2.88
-4.545e-02,1.58,1.64,2.84,2.72
-4.543e-02,1.58,1.54,2.84,2.88
-4.541e-02,1.6,1.66,2.8,2.72
-4.539e-02,1.6,1.56,2.84,2.88
-4.538e-02,1.6,1.64,2.84,2.72
-4.536e-02,1.6,1.56,2.8,2.88
-4.534e-02,1.6,1.66,2.8,2.72
-4.532e-02,1.6,1.56,2.8,2.88
-4.530e-02,1.62,1.66,2.8,2.72
-4.528e-02,1.62,1.58,2.8,2.88
-4.526e-02,1.6,1.66,2.76,2.72
-4.524e-02,1.6,1.58,2.76,2.88
-4.522e-02,1.58,1.68,2.8,2.72
-4.520e-02,1.62,1.58,2.76,2.84
-4.518e-02,1.6,1.68,2.8,2.72
-4.516e-02,1.64,1.58,2.8,2.84
-4.515e-02,1.64,1.68,2.76,2.68
-4.513e-02,1.64,1.58,2.8,2.84
-4.511e-02,1.64,1.68,2.8,2.68
-4.509e-02,1.64,1.58,2.8,2.84
-4.507e-02,1.62,1.68,2.76,2.68
-4.505e-02,1.66,1.6,2.76,2.84
-4.503e-02,1.62,1.7,2.76,2.64
-4.501e-02,1.64,1.6,2.76,2.8
-4.499e-02,1.62,1.7,2.72,2.64
-4.497e-02,1.64,1.6,2.72,2.8
-4.495e-02,1.64,1.7,2.72,2.64
-4.493e-02,1.64,1.6,2.72,2.76
-4.491e-02,1.66,1.7,2.68,2.6
-4.490e-02,1.66,1.62,2.68,2.76
-4.488e-02,1.64,1.72,2.68,2.56
-4.486e-02,1.66,1.62,2.68,2.76
-4.484e-02,1.66,1.72,2.68,2.6
-4.482e-02,1.66,1.62,2.64,2.72
-4.480e-02,1.68,1.72,2.68,2.56
-4.478e-02,1.66,1.62,2.64,2.72
-4.476e-02,1.68,1.74,2.64,2.56
-4.474e-02,1.66,1.64,2.64,2.72
-4.472e-02,1.66,1.72,2.64,2.56
-4.470e-02,1.7,1.64,2.6,2.68
-4.468e-02,1.68,1.72,2.64,2.52
-4.467e-02,1.68,1.64,2.6,2.68
-4.465e-02,1.7,1.74,2.6,2.52
-4.463e-02,1.7,1.64,2.6,2.64
-4.461e-02,1.68,1.74,2.56,2.48
-4.459e-02,1.68,1.64,2.56,2.64
-4.457e-02,1.7,1.74,2.6,2.48
-4.455e-02,1.68,1.66,2.56,2.64
-4.453e-02,1.7,1.74,2.56,2.48
-4.451e-02,1.72,1.66,2.56,2.6
-4.449e-02,1.7,1.76,2.52,2.44
-4.447e-02,1.7,1.66,2.52,2.6
-4.445e-02,1.72,1.76,2.56,2.44
-4.443e-02,1.72,1.66,2.52,2.56
-4.442e-02,1.7,1.76,2.48,2.4
-4.440e-02,1.72,1.66,2.48,2.56
-4.438e-02,1.72,1.76,2.48,2.4
-4.436e-02,1.7,1.68,2.48,2.56
-4.434e-02,1.74,1.78,2.48,2.4
-4.432e-02,1.74,1.68,2.44,2.52
-4.430e-02,1.72,1.78,2.44,2.36
-4.428e-02,1.74,1.68,2.44,2.52
-4.426e-02,1.74,1.78,2.44,2.36
-4.424e-02,1.74,1.68,2.4,2.52
-4.422e-02,1.72,1.78,2.44,2.36
-4.420e-02,1.72,1.7,2.44,2.48
-4.419e-02,1.76,1.78,2.44,2.32
-4.417e-02,1.74,1.7,2.44,2.48
-4.415e-02,1.72,1.78,2.4,2.32
-4.413e-02,1.74,1.7,2.4,2.48
-4.411e-02,1.76,1.8,2.36,2.32
-4.409e-02,1.74,1.7,2.4,2.48
-4.407e-02,1.74,1.8,2.36,2.28
-4.405e-02,1.76,1.7,2.36,2.44
-4.403e-02,1.74,1.8,2.32,2.24
-4.401e-02,1.74,1.72,2.32,2.44
-4.399e-02,1.78,1.8,2.36,2.24
-4.397e-02,1.76,1.7,2.32,2.4
-4.395e-02,1.76,1.82,2.32,2.24
-4.394e-02,1.78,1.72,2.32,2.4
-4.392e-02,1.78,1.82,2.28,2.24
-4.390e-02,1.78,1.72,2.28,2.36
-4.388e-02,1.78,1.82,2.28,2.2
-4.386e-02,1.76,1.72,2.28,2.36
-4.384e-02,1.78,1.82,2.28,2.2
-4.382e-02,1.78,1.72,2.28,2.36
-4.380e-02,1.8,1.82,2.24,2.2
-4.378e-02,1.78,1.74,2.28,2.32
-4.376e-02,1.78,1.84,2.24,2.16
-4.374e-02,1.78,1.74,2.24,2.32
-4.372e-02,1.78,1.84,2.2,2.16
-4.371e-02,1.8,1.74,2.24,2.32
-4.369e-02,1.82,1.84,2.2,2.16
-4.367e-02,1.8,1.74,2.2,2.28
-4.365e-02,1.8,1.84,2.2,2.12
-4.363e-02,1.82,1.74,2.2,2.28
-4.361e-02,1.8,1.86,2.2,2.12
-4.359e-02,1.8,1.76,2.2,2.28
-4.357e-02,1.82,1.86,2.2,2.12
-4.355e-02,1.82,1.76,2.16,2.24
-4.353e-02,1.8,1.86,2.16,2.08
-4.351e-02,1.82,1.76,2.16,2.24
-4.349e-02,1.84,1.86,2.16,2.04
-4.347e-02,1.82,1.76,2.16,2.2
-4.346e-02,1.84,1.88,2.12,2.04
-4.344e-02,1.84,1.78,2.12,2.16
-4.342e-02,1.84,1.88,2.08,2
-4.340e-02,1.84,1.78,2.08,2.16
-4.338e-02,1.82,1.88,2.04,1.96
-4.336e-02,1.84,1.78,2.08,2.12
-4.334e-02,1.84,1.88,2.04,1.96
-4.332e-02,1.84,1.78,2.04,2.12
-4.330e-02,1.86,1.9,2,1.96
-4.328e-02,1.84,1.78,2,2.08
-4.326e-02,1.82,1.88,2,1.96
-4.324e-02,1.86,1.8,2.04,2.04
-4.323e-02,1.84,1.9,2.04,1.92
-4.321e-02,1.86,1.8,2,2.04
-4.319e-02,1.82,1.9,2,1.92
-4.317e-02,1.86,1.8,2,2.08
-4.315e-02,1.86,1.9,2,1.92
-4.313e-02,1.84,1.8,2,2.04
-4.311e-02,1.84,1.9,1.96,1.92
-4.309e-02,1.86,1.8,1.96,2.04
-4.307e-02,1.86,1.92,1.96,1.88
-4.305e-02,1.88,1.82,1.96,2.04
-4.303e-02,1.86,1.92,1.96,1.88
-4.301e-02,1.86,1.82,1.92,2
-4.299e-02,1.86,1.92,1.92,1.84
-4.298e-02,1.86,1.82,1.92,2
-4.296e-02,1.88,1.92,1.88,1.84
-4.294e-02,1.86,1.84,1.92,1.96
-4.292e-02,1.86,1.92,1.92,1.8
-4.290e-02,1.88,1.82,1.88,1.96
-4.288e-02,1.88,1.92,1.88,1.8
-4.286e-02,1.88,1.84,1.84,1.92
-4.284e-02,1.88,1.94,1.88,1.8
-4.282e-02,1.88,1.84,1.88,1.92
-4.280e-02,1.9,1.94,1.84,1.76
-4.278e-02,1.92,1.84,1.84,1.92
-4.276e-02,1.9,1.94,1.84,1.76
-4.275e-02,1.9,1.84,1.84,1.92
-4.273e-02,1.88,1.94,1.84,1.76
-4.271e-02,1.92,1.84,1.8,1.88
-4.269e-02,1.92,1.96,1.8,1.76
-4.267e-02,1.92,1.86,1.84,1.88
-4.265e-02,1.92,1.96,1.8,1.72
-4.263e-02,1.92,1.86,1.8,1.88
-4.261e-02,1.9,1.96,1.8,1.72
-4.259e-02,1.9,1.86,1.76,1.88
-4.257e-02,1.92,1.96,1.76,1.72
-4.255e-02,1.92,1.88,1.8,1.84
-4.253e-02,1.92,1.96,1.8,1.64
-4.251e-02,1.92,1.88,1.8,1.92
-4.250e-02,1.9,1.96,1.68,1.6
-4.248e-02,1.94,1.88,1.68,1.92
-4.246e-02,1.92,1.98,1.68,1.64
-4.244e-02,1.92,1.88,1.76,1.88
-4.242e-02,1.92,1.98,1.72,1.64
-4.240e-02,1.94,1.88,1.72,1.8
-4.238e-02,1.94,1.98,1.68,1.64
-4.236e-02,1.92,1.88,1.68,1.76
-4.234e-02,1.94,1.98,1.68,1.64
-4.232e-02,1.94,1.88,1.72,1.76
-4.230e-02,1.94,2,1.68,1.6
-4.228e-02,1.94,1.9,1.68,1.76
-4.227e-02,1.94,2,1.68,1.6
-4.225e-02,1.94,1.9,1.64,1.72
-4.223e-02,1.94,2,1.68,1.6
-4.221e-02,1.96,1.9,1.68,1.72
-4.219e-02,1.96,2,1.64,1.56
-4.217e-02,1.98,1.9,1.64,1.68
-4.215e-02,1.96,2,1.64,1.56
-4.213e-02,1.94,1.92,1.6,1.68
-4.211e-02,1.98,2,1.6,1.52
-4.209e-02,1.98,1.92,1.6,1.68
-4.207e-02,1.96,2.02,1.6,1.48
-4.205e-02,1.98,1.92,1.6,1.64
-4.203e-02,1.98,2.02,1.56,1.48
-4.202e-02,1.98,1.92,1.56,1.64
-4.200e-02,1.98,2.02,1.56,1.48
-4.198e-02,1.98,1.92,1.52,1.64
-4.196e-02,2,2.02,1.56,1.44
-4.194e-02,1.98,1.92,1.52,1.6
-4.192e-02,1.98,2.04,1.52,1.44
-4.190e-02,2,1.94,1.48,1.56
-4.188e-02,2,2.04,1.52,1.4
-4.186e-02,2,1.94,1.48,1.56
-4.184e-02,1.98,2.04,1.48,1.4
-4.182e-02,2,1.96,1.48,1.52
-4.180e-02,2,2.04,1.44,1.4
-4.179e-02,1.98,1.96,1.44,1.52
-4.177e-02,2,2.06,1.44,1.36
-4.175e-02,2,1.96,1.44,1.48
-4.173e-02,2,2.06,1.44,1.36
-4.171e-02,2.02,1.96,1.44,1.48
-4.169e-02,2.02,2.06,1.44,1.32
-4.167e-02,2.02,1.96,1.4,1.48
-4.165e-02,2.02,2.06,1.44,1.32
-4.163e-02,2.02,1.96,1.4,1.48
-4.161e-02,2.02,2.08,1.4,1.28
-4.159e-02,2.02,1.98,1.4,1.44
-4.157e-02,2.02,2.08,1.4,1.28
-4.155e-02,2.02,1.98,1.4,1.44
-4.154e-02,2.04,2.08,1.36,1.28
-4.152e-02,2.04,1.98,1.32,1.48
-4.150e-02,2.02,2.08,1.36,1.28
-4.148e-02,2.02,1.98,1.36,1.4
-4.146e-02,2.04,2.08,1.32,1.24
-4.144e-02,2.02,2,1.32,1.4
-4.142e-02,2.06,2.1,1.28,1.2
-4.140e-02,2.04,2,1.28,1.36
-4.138e-02,2.06,2.1,1.28,1.2
-4.136e-02,2.04,2,1.28,1.32
-4.134e-02,2.04,2.1,1.28,1.2
-4.132e-02,2.04,2,1.28,1.32
-4.131e-02,2.06,2.1,1.24,1.16
-4.129e-02,2.06,2,1.24,1.32
-4.127e-02,2.04,2.1,1.24,1.16
-4.125e-02,2.06,2.02,1.2,1.32
-4.123e-02,2.06,2.12,1.24,1.16
-4.121e-02,2.08,2.02,1.24,1.28
-4.119e-02,2.08,2.12,1.2,1.12
-4.117e-02,2.08,2.02,1.2,1.28
-4.115e-02,2.08,2.12,1.2,1.12
-4.113e-02,2.08,2.02,1.2,1.24
-4.111e-02,2.06,2.12,1.16,1.08
-4.109e-02,2.1,2.02,1.16,1.24
-4.107e-02,2.08,2.14,1.16,1.08
-4.106e-02,2.06,2.04,1.2,1.28
-4.104e-02,2.06,2.12,1.16,1.08
-4.102e-02,2.08,2.04,1.16,1.2
-4.100e-02,2.08,2.14,1.16,1.04
-4.098e-02,2.08,2.04,1.12,1.2
-4.096e-02,2.1,2.14,1.12,1.04
-4.094e-02,2.1,2.06,1.08,1.2
-4.092e-02,2.1,2.14,1.08,1.04
-4.090e-02,2.12,2.06,1.08,1.16
-4.088e-02,2.1,2.14,1.08,1
-4.086e-02,2.12,2.06,1.04,1.16
-4.084e-02,2.08,2.16,1.08,1
-4.083e-02,2.1,2.06,1.08,1.12
-4.081e-02,2.12,2.16,1.08,0.96
-4.079e-02,2.12,2.06,1.08,1.12
-4.077e-02,2.1,2.18,1.04,0.96
-4.075e-02,2.14,2.08,1.04,1.12
-4.073e-02,2.1,2.18,1.04,0.96
-4.071e-02,2.12,2.08,1,1.08
-4.069e-02,2.14,2.18,1,0.92
-4.067e-02,2.14,2.08,1.04,1.08
-4.065e-02,2.14,2.18,1,0.88
-4.063e-02,2.12,2.08,1,1.04
-4.061e-02,2.14,2.18,0.96,0.88
-4.059e-02,2.16,2.1,0.96,1.08
-4.058e-02,2.14,2.18,0.96,0.88
-4.056e-02,2.14,2.1,0.96,1
-4.054e-02,2.16,2.2,0.92,0.84
-4.052e-02,2.16,2.1,0.92,1
-4.050e-02,2.14,2.2,0.92,0.84
-4.048e-02,2.16,2.12,0.92,1
-4.046e-02,2.18,2.2,0.92,0.84
-4.044e-02,2.14,2.12,0.88,0.96
-4.042e-02,2.16,2.22,0.96,0.84
-4.040e-02,2.18,2.12,0.88,0.96
-4.038e-02,2.16,2.22,0.92,0.84
-4.036e-02,2.2,2.12,0.88,0.96
-4.034e-02,2.16,2.22,0.88,0.8
-4.033e-02,2.16,2.12,0.88,0.96
-4.031e-02,2.18,2.22,0.88,0.8
-4.029e-02,2.2,2.14,0.88,0.92
-4.027e-02,2.14,2.24,0.84,0.8
-4.025e-02,2.18,2.14,0.84,0.92
-4.023e-02,2.2,2.24,0.84,0.76
-4.021e-02,2.2,2.14,0.84,0.92
-4.019e-02,2.18,2.24,0.8,0.76
-4.017e-02,2.2,2.14,0.84,0.88
-4.015e-02,2.18,2.24,0.8,0.72
-4.013e-02,2.18,2.16,0.84,1
-4.011e-02,2.18,2.26,0.84,0.72
-4.010e-02,2.22,2.16,0.8,0.88
-4.008e-02,2.2,2.26,0.84,0.72
-4.006e-02,2.2,2.16,0.76,0.84
-4.004e-02,2.18,2.26,0.76,0.72
-4.002e-02,2.22,2.16,0.8,0.84
-4.000e-02,2.2,2.26,0.8,0.72
-3.998e-02,2.22,2.16,0.8,0.84
-3.996e-02,2.22,2.26,0.8,0.68
-3.994e-02,2.22,2.16,0.76,0.84
-3.992e-02,2.2,2.26,0.76,0.68
-3.990e-02,2.2,2.18,0.76,0.8
-3.988e-02,2.26,2.28,0.76,0.68
-3.986e-02,2.22,2.18,0.72,0.8
-3.985e-02,2.22,2.28,0.76,0.68
-3.983e-02,2.26,2.18,0.76,0.8
-3.981e-02,2.24,2.28,0.76,0.64
-3.979e-02,2.22,2.18,0.72,0.8
-3.977e-02,2.24,2.28,0.76,0.64
-3.975e-02,2.24,2.2,0.72,0.8
-3.973e-02,2.24,2.3,0.76,0.64
-3.971e-02,2.24,2.18,0.72,0.76
-3.969e-02,2.22,2.3,0.72,0.64
-3.967e-02,2.24,2.2,0.68,0.88
-3.965e-02,2.26,2.3,0.72,0.64
-3.963e-02,2.24,2.2,0.72,0.76
-3.962e-02,2.26,2.3,0.72,0.6
-3.960e-02,2.26,2.2,0.68,0.76
-3.958e-02,2.26,2.32,0.68,0.6
-3.956e-02,2.26,2.22,0.68,0.76
-3.954e-02,2.22,2.32,0.72,0.6
-3.952e-02,2.26,2.22,0.68,0.76
-3.950e-02,2.24,2.32,0.68,0.6
-3.948e-02,2.26,2.22,0.68,0.76
-3.946e-02,2.28,2.32,0.68,0.6
-3.944e-02,2.28,2.22,0.68,0.76
-3.942e-02,2.32,2.32,0.68,0.6
-3.940e-02,2.26,2.22,0.68,0.76
-3.938e-02,2.28,2.32,0.68,0.6
-3.937e-02,2.28,2.22,0.64,0.72
-3.935e-02,2.28,2.32,0.68,0.6
-3.933e-02,2.28,2.24,0.64,0.76
-3.931e-02,2.3,2.34,0.68,0.6
-3.929e-02,2.28,2.24,0.64,0.72
-3.927e-02,2.28,2.34,0.64,0.6
-3.925e-02,2.28,2.24,0.68,0.8
-3.923e-02,2.32,2.34,0.68,0.6
-3.921e-02,2.32,2.24,0.64,0.76
-3.919e-02,2.3,2.36,0.64,0.56
-3.917e-02,2.32,2.26,0.64,0.72
-3.915e-02,2.3,2.38,0.64,0.6
-3.914e-02,2.32,2.26,0.64,0.72
-3.912e-02,2.32,2.36,0.68,0.56
-3.910e-02,2.34,2.26,0.68,0.72
-3.908e-02,2.34,2.38,0.68,0.6
-3.906e-02,2.3,2.28,0.64,0.72
-3.904e-02,2.32,2.38,0.68,0.6
-3.902e-02,2.32,2.28,0.64,0.72
-3.900e-02,2.32,2.38,0.64,0.56
-3.898e-02,2.34,2.28,0.68,0.72
-3.896e-02,2.34,2.4,0.64,0.56
-3.894e-02,2.34,2.28,0.64,0.72
-3.892e-02,2.34,2.4,0.64,0.56
-3.890e-02,2.36,2.3,0.64,0.72
-3.889e-02,2.36,2.4,0.64,0.56
-3.887e-02,2.36,2.3,0.64,0.68
-3.885e-02,2.36,2.42,0.64,0.56
-3.883e-02,2.38,2.32,0.64,0.72
-3.881e-02,2.38,2.42,0.64,0.56
-3.879e-02,2.36,2.32,0.6,0.8
-3.877e-02,2.36,2.44,0.64,0.56
-3.875e-02,2.4,2.34,0.6,0.68
-3.873e-02,2.4,2.44,0.6,0.56
-3.871e-02,2.38,2.34,0.64,0.68
-3.869e-02,2.4,2.46,0.64,0.56
-3.867e-02,2.4,2.34,0.6,0.68
-3.866e-02,2.4,2.46,0.64,0.56
-3.864e-02,2.42,2.36,0.64,0.68
-3.862e-02,2.4,2.46,0.64,0.56
-3.860e-02,2.42,2.36,0.6,0.68
-3.858e-02,2.44,2.48,0.6,0.56
-3.856e-02,2.44,2.36,0.64,0.68
-3.854e-02,2.44,2.48,0.68,0.56
-3.852e-02,2.44,2.38,0.6,0.68
-3.850e-02,2.42,2.48,0.6,0.56
-3.848e-02,2.42,2.38,0.64,0.72
-3.846e-02,2.44,2.5,0.64,0.56
-3.844e-02,2.44,2.4,0.64,0.68
-3.842e-02,2.44,2.5,0.6,0.56
-3.841e-02,2.48,2.4,0.6,0.68
-3.839e-02,2.46,2.52,0.64,0.56
-3.837e-02,2.48,2.42,0.64,0.68
-3.835e-02,2.46,2.52,0.6,0.56
-3.833e-02,2.46,2.42,0.64,0.8
-3.831e-02,2.48,2.52,0.6,0.56
-3.829e-02,2.48,2.42,0.64,0.68
-3.827e-02,2.48,2.52,0.6,0.56
-3.825e-02,2.5,2.42,0.64,0.68
-3.823e-02,2.5,2.54,0.64,0.56
-3.821e-02,2.48,2.44,0.64,0.68
-3.819e-02,2.5,2.54,0.64,0.56
-3.818e-02,2.5,2.44,0.6,0.68
-3.816e-02,2.5,2.54,0.64,0.56
-3.814e-02,2.5,2.44,0.6,0.68
-3.812e-02,2.5,2.56,0.64,0.56
-3.810e-02,2.48,2.46,0.6,0.68
-3.808e-02,2.5,2.56,0.64,0.56
-3.806e-02,2.5,2.46,0.64,0.68
-3.804e-02,2.52,2.56,0.64,0.56
-3.802e-02,2.48,2.46,0.64,0.68
-3.800e-02,2.52,2.58,0.64,0.52
-3.798e-02,2.52,2.46,0.6,0.68
-3.796e-02,2.52,2.56,0.64,0.52
-3.794e-02,2.52,2.48,0.64,0.68
-3.793e-02,2.52,2.58,0.64,0.56
-3.791e-02,2.52,2.48,0.6,0.68
-3.789e-02,2.54,2.58,0.64,0.56
-3.787e-02,2.54,2.48,0.64,0.8
-3.785e-02,2.54,2.58,0.64,0.56
-3.783e-02,2.52,2.48,0.6,0.68
-3.781e-02,2.54,2.58,0.6,0.56
-3.779e-02,2.54,2.48,0.64,0.72
-3.777e-02,2.54,2.58,0.64,0.56
-3.775e-02,2.54,2.5,0.68,0.68
-3.773e-02,2.52,2.58,0.6,0.56
-3.771e-02,2.56,2.5,0.64,0.68
-3.770e-02,2.54,2.6,0.64,0.56
-3.768e-02,2.54,2.5,0.64,0.72
-3.766e-02,2.56,2.6,0.64,0.56
-3.764e-02,2.54,2.5,0.68,0.72
-3.762e-02,2.54,2.58,0.68,0.56
-3.760e-02,2.56,2.5,0.64,0.72
-3.758e-02,2.54,2.58,0.64,0.56
-3.756e-02,2.56,2.5,0.64,0.72
-3.754e-02,2.56,2.6,0.68,0.56
-3.752e-02,2.56,2.5,0.68,0.72
-3.750e-02,2.52,2.58,0.64,0.56
-3.748e-02,2.52,2.48,0.64,0.72
-3.746e-02,2.56,2.6,0.64,0.6
-3.745e-02,2.56,2.48,0.64,0.72
-3.743e-02,2.54,2.58,0.68,0.6
-3.741e-02,2.54,2.48,0.68,0.84
-3.739e-02,2.54,2.58,0.68,0.6
-3.737e-02,2.54,2.48,0.68,0.72
-3.735e-02,2.54,2.58,0.68,0.6
-3.733e-02,2.5,2.48,0.68,0.76
-3.731e-02,2.52,2.58,0.68,0.6
