data/underdamped.CSV

Model,DPO2024B
Firmware Version,1.52

Point Format,Y,,,,,
Horizontal Units,S,,,,,
Horizontal Scale,0.01,,,,,
Sample Interval,1.92012e-05,,,,,
Filter Frequency,2e+08,,,,,
Record Length,5208,,,,,
Gating,0.0% to 100.0%,,0.0% to 100.0%,,0.0% to 100.0%,
Probe Attenuation,10,,10,,10,
Vertical Units,V,,V,,V,
Vertical Offset,0,,0,,0,
Vertical Scale,1,,0.5,,0.2,
Label,,,,,,
TIME,CH1,CH1 Peak Detect,CH2,CH2 Peak Detect,CH3,CH3 Peak Detect
1.8800e-02,0.76,0.52,0.78,0.68,-0.012,-0.036
1.8819e-02,0.72,0.92,0.76,0.94,-0.012,0.02
1.8838e-02,0.72,0.64,0.76,0.7,-0.012,-0.036
1.8858e-02,0.76,0.88,0.78,0.88,-0.012,0.012
1.8877e-02,0.64,0.52,0.92,0.68,-0.012,-0.036
1.8896e-02,0.76,1,0.78,0.96,-0.004,0.02
1.8915e-02,0.76,0.56,0.8,0.68,-0.012,-0.036
1.8934e-02,0.76,1,0.8,0.94,-0.012,0.012
1.8954e-02,0.84,0.6,0.78,0.68,-0.012,-0.036
1.8973e-02,0.84,1,0.78,0.98,-0.004,0.02
1.8992e-02,0.8,0.6,0.8,0.68,-0.004,-0.036
1.9011e-02,0.8,1.04,0.78,0.98,-0.02,0.028
1.9030e-02,0.84,0.76,0.78,0.74,-0.004,-0.036
1.9050e-02,0.84,0.92,0.76,0.84,-0.004,0.012
1.9069e-02,0.76,0.6,0.8,0.68,-0.004,-0.036
1.9088e-02,0.88,1.04,0.78,0.98,-0.004,0.02
1.9107e-02,0.92,0.64,0.78,0.68,-0.012,-0.036
1.9126e-02,0.88,1.08,0.76,0.98,-0.012,0.02
1.9146e-02,0.92,0.64,0.8,0.7,-0.004,-0.036
1.9165e-02,0.88,1.08,0.82,0.98,-0.012,0.02
1.9184e-02,0.92,0.68,0.78,0.68,-0.012,-0.036
1.9203e-02,0.92,1.12,0.78,1,-0.012,0.012
1.9222e-02,0.92,0.88,0.8,0.74,-0.004,-0.036
1.9242e-02,0.96,1.04,0.8,0.84,-0.02,0.012
1.9261e-02,0.92,0.72,0.8,0.72,-0.004,-0.036
1.9280e-02,0.92,1.16,0.78,0.98,-0.012,0.02
1.9299e-02,0.96,0.72,0.82,0.7,-0.012,-0.036
1.9318e-02,0.92,1.16,0.8,0.98,-0.012,0.02
1.9338e-02,0.96,0.76,0.8,0.7,-0.012,-0.036
1.9357e-02,1,1.16,0.8,1,-0.012,0.012
1.9376e-02,1,0.88,0.78,0.74,-0.012,-0.036
1.9395e-02,0.96,1.12,0.8,0.88,-0.004,0.012
1.9414e-02,1.08,0.76,0.98,0.7,-0.02,-0.036
1.9434e-02,1,1.2,0.82,0.98,-0.004,0.02
1.9453e-02,1.04,0.76,0.78,0.72,-0.012,-0.036
1.9472e-02,1.04,1.24,0.8,0.98,-0.012,0.02
1.9491e-02,1.04,0.8,0.8,0.72,-0.012,-0.036
1.9510e-02,1.08,1.24,0.82,1,-0.02,0.02
1.9530e-02,1.04,0.8,0.82,0.72,-0.012,-0.036
1.9549e-02,1.04,1.24,0.82,1,-0.004,0.012
1.9568e-02,1.04,1,0.82,0.76,-0.02,-0.036
1.9587e-02,1.08,1.12,0.82,0.88,-0.012,0.012
1.9606e-02,1.08,0.84,0.84,0.72,-0.012,-0.036
1.9626e-02,1.08,1.28,0.8,0.98,-0.02,0.02
1.9645e-02,1.08,0.84,0.8,0.7,-0.02,-0.036
1.9664e-02,1.08,1.28,0.8,1,-0.004,0.012
1.9683e-02,1.08,0.84,0.82,0.72,-0.012,-0.036
1.9702e-02,1.12,1.28,0.8,1,-0.02,0.012
1.9722e-02,1.12,0.84,0.82,0.72,-0.004,-0.036
1.9741e-02,1.12,1.32,0.84,1,-0.02,0.02
1.9760e-02,1.16,1.04,0.84,0.76,-0.012,-0.028
1.9779e-02,1.12,1.2,0.82,0.88,-0.012,0.02
1.9798e-02,1.16,0.88,0.82,0.72,-0.02,-0.036
1.9818e-02,1.12,1.32,0.8,1,-0.012,0.012
1.9837e-02,1.16,0.88,0.82,0.72,-0.012,-0.036
1.9856e-02,1.2,1.36,0.78,1,-0.004,0.02
1.9875e-02,1.16,0.92,0.82,0.72,-0.02,-0.028
1.9894e-02,1.16,1.36,0.86,1.02,-0.004,0.02
1.9914e-02,1.16,1.08,0.82,0.74,-0.012,-0.036
1.9933e-02,1.2,1.28,0.8,0.9,-0.004,0.012
1.9952e-02,1.2,0.92,0.82,0.72,-0.004,-0.036
1.9971e-02,1.16,1.36,0.82,1,-0.02,0.02
1.9990e-02,1.2,0.96,0.84,0.72,-0.004,-0.036
2.0010e-02,1.16,1.36,0.82,1,-0.012,0.02
2.0029e-02,1.2,1.04,0.84,0.74,-0.012,-0.036
2.0048e-02,1.24,1.36,0.86,1.02,-0.012,0.012
2.0067e-02,1.2,1.04,0.82,0.74,-0.012,-0.036
2.0086e-02,1.2,1.36,0.84,1.04,-0.004,0.02
2.0106e-02,1.24,1.16,0.84,0.78,-0.012,-0.036
2.0125e-02,1.24,1.28,0.84,0.9,-0.012,0.012
2.0144e-02,1.24,1.04,0.84,0.72,-0.012,-0.036
2.0163e-02,1.28,1.36,0.82,1.04,-0.012,0.02
2.0182e-02,1.24,1.04,0.84,0.72,-0.012,-0.028
2.0202e-02,1.28,1.36,0.84,1.04,-0.02,0.012
2.0221e-02,1.24,1.04,0.84,0.7,-0.004,-0.036
2.0240e-02,1.24,1.4,0.84,1.04,-0.012,0.012
2.0259e-02,1.28,1.08,0.84,0.72,-0.012,-0.036
2.0278e-02,1.28,1.36,0.82,1.04,-0.02,0.012
2.0298e-02,1.28,1.24,0.84,0.78,-0.012,-0.036
2.0317e-02,1.28,1.36,0.84,0.9,-0.012,0.02
2.0336e-02,1.28,1.12,0.86,0.7,-0.004,-0.036
2.0355e-02,1.28,1.4,0.86,1.04,-0.004,0.02
2.0375e-02,1.32,1.12,0.86,0.72,-0.028,-0.036
2.0394e-02,1.32,1.4,0.86,1.04,-0.004,0.02
2.0413e-02,1.28,1.12,0.82,0.7,-0.02,-0.036
2.0432e-02,1.28,1.4,0.84,1.06,-0.012,0.012
2.0451e-02,1.32,1.24,0.82,0.8,-0.02,-0.036
2.0471e-02,1.32,1.36,0.82,0.9,-0.02,0.012
2.0490e-02,1.32,1.12,0.82,0.7,-0.012,-0.028
2.0509e-02,1.28,1.4,0.86,1.04,-0.004,0.028
2.0528e-02,1.32,1.16,0.88,0.72,-0.004,-0.036
2.0547e-02,1.32,1.44,0.86,1.04,-0.02,0.02
2.0567e-02,1.32,1.2,0.84,0.72,-0.004,-0.036
2.0586e-02,1.36,1.44,0.84,1.04,-0.012,0.012
2.0605e-02,1.36,1.16,0.86,0.7,-0.004,-0.036
2.0624e-02,1.32,1.44,0.84,1.04,-0.012,0.02
2.0643e-02,1.32,1.28,0.86,0.78,-0.012,-0.028
2.0663e-02,1.36,1.4,0.88,0.9,-0.004,0.012
2.0682e-02,1.36,1.16,0.84,0.68,-0.012,-0.036
2.0701e-02,1.36,1.44,0.86,1.04,-0.004,0.012
2.0720e-02,1.36,1.2,0.86,0.7,-0.012,-0.036
2.0739e-02,1.36,1.44,0.86,1.04,-0.004,0.02
2.0759e-02,1.36,1.2,0.86,0.7,-0.004,-0.036
2.0778e-02,1.36,1.44,0.84,1.06,-0.004,0.02
2.0797e-02,1.36,1.2,0.84,0.72,-0.012,-0.028
2.0816e-02,1.36,1.44,0.86,0.92,-0.004,0.02
2.0835e-02,1.4,1.24,0.8,0.78,-0.004,-0.036
2.0855e-02,1.36,1.44,0.86,1.06,-0.012,0.012
2.0874e-02,1.36,1.24,0.86,0.7,-0.004,-0.036
2.0893e-02,1.4,1.44,0.88,1.04,-0.012,0.02
2.0912e-02,1.36,1.2,0.88,0.72,0.004,-0.036
2.0931e-02,1.36,1.48,0.88,1.04,-0.012,0.02
2.0951e-02,1.4,1.24,0.84,0.72,0.004,-0.036
2.0970e-02,1.4,1.48,0.86,1.06,-0.02,0.02
2.0989e-02,1.4,1.32,0.84,0.78,-0.012,-0.036
2.1008e-02,1.4,1.44,0.86,0.92,-0.02,0.02
2.1027e-02,1.4,1.24,0.86,0.7,-0.02,-0.036
2.1047e-02,1.4,1.48,0.88,1.04,-0.02,0.012
2.1066e-02,1.4,1.24,0.88,0.72,-0.012,-0.036
2.1085e-02,1.4,1.48,0.88,1.04,-0.02,0.02
2.1104e-02,1.4,1.24,0.84,0.7,-0.004,-0.036
2.1123e-02,1.4,1.48,0.86,1.04,-0.004,0.02
2.1143e-02,1.4,1.24,0.84,0.7,-0.004,-0.036
2.1162e-02,1.4,1.48,0.86,1.04,-0.012,0.02
2.1181e-02,1.4,1.32,0.86,0.78,-0.012,-0.036
2.1200e-02,1.4,1.48,0.84,0.94,-0.004,0.012
2.1219e-02,1.44,1.24,0.86,0.72,-0.012,-0.036
2.1239e-02,1.4,1.52,0.86,1.04,-0.004,0.02
2.1258e-02,1.4,1.28,0.86,0.74,-0.012,-0.036
2.1277e-02,1.44,1.52,0.86,1.04,0.004,0.02
2.1296e-02,1.4,1.24,0.84,0.72,-0.012,-0.036
2.1315e-02,1.44,1.48,0.88,1.04,-0.02,0.02
2.1335e-02,1.4,1.36,0.84,0.78,-0.004,-0.036
2.1354e-02,1.4,1.48,0.86,0.92,-0.004,0.012
2.1373e-02,1.4,1.24,1.04,0.72,-0.02,-0.028
2.1392e-02,1.4,1.52,0.84,1.06,-0.004,0.02
2.1411e-02,1.44,1.28,0.86,0.72,-0.02,-0.036
2.1431e-02,1.48,1.52,0.88,1.06,-0.012,0.02
2.1450e-02,1.44,1.28,0.9,0.72,-0.004,-0.036
2.1469e-02,1.44,1.52,0.88,1.06,-0.012,0.028
2.1488e-02,1.44,1.28,0.88,0.74,-0.004,-0.036
2.1507e-02,1.44,1.52,0.84,1.06,-0.02,0.02
2.1527e-02,1.44,1.4,0.88,0.8,-0.012,-0.028
2.1546e-02,1.44,1.48,0.86,0.94,-0.012,0.02
2.1565e-02,1.44,1.28,0.86,0.72,-0.012,-0.036
2.1584e-02,1.44,1.52,0.86,1.06,0.004,0.028
2.1603e-02,1.48,1.32,0.88,0.74,-0.004,-0.036
2.1623e-02,1.44,1.52,0.86,1.06,-0.012,0.02
2.1642e-02,1.48,1.28,0.86,0.74,-0.012,-0.036
2.1661e-02,1.48,1.56,0.86,1.06,-0.012,0.012
2.1680e-02,1.44,1.2,0.86,0.66,-0.004,-0.092
2.1699e-02,1.4,1.52,0.82,1,-0.052,0.004
2.1719e-02,1.4,1.2,0.8,0.7,-0.068,-0.124
2.1738e-02,1.32,1.4,0.78,0.86,-0.092,-0.052
2.1757e-02,1.24,1.04,0.76,0.6,-0.1,-0.148
2.1776e-02,1.16,1.28,0.74,0.92,-0.124,-0.084
2.1795e-02,1.12,0.84,0.76,0.6,-0.124,-0.164
2.1815e-02,1.04,1.12,0.72,0.9,-0.132,-0.108
2.1834e-02,0.92,0.68,0.72,0.56,-0.148,-0.196
2.1853e-02,0.88,1,0.68,0.88,-0.164,-0.124
2.1872e-02,0.8,0.6,0.68,0.58,-0.188,-0.22
2.1891e-02,0.72,0.88,0.66,0.72,-0.18,-0.156
2.1911e-02,0.68,0.48,0.7,0.5,-0.196,-0.236
2.1930e-02,0.6,0.8,0.66,0.86,-0.204,-0.164
2.1949e-02,0.52,0.32,0.66,0.48,-0.22,-0.244
2.1968e-02,0.44,0.6,0.6,0.82,-0.22,-0.188
2.1987e-02,0.44,0.2,0.62,0.52,-0.236,-0.252
2.2007e-02,0.36,0.48,0.62,0.84,-0.228,-0.188
2.2026e-02,0.32,0.16,0.66,0.54,-0.22,-0.252
2.2045e-02,0.28,0.36,0.64,0.84,-0.22,-0.188
2.2064e-02,0.24,0.12,0.66,0.56,-0.228,-0.26
2.2083e-02,0.2,0.28,0.66,0.7,-0.236,-0.204
2.2103e-02,0.16,-1.43051e-08,0.66,0.5,-0.244,-0.276
2.2122e-02,0.12,0.24,0.62,0.8,-0.244,-0.212
2.2141e-02,0.08,-0.04,0.6,0.46,-0.244,-0.284
2.2160e-02,0.08,0.2,0.62,0.84,-0.26,-0.228
2.2179e-02,0.04,-0.12,0.62,0.5,-0.268,-0.276
2.2199e-02,0.04,0.12,0.64,0.82,-0.252,-0.22
2.2218e-02,0.04,-0.08,0.64,0.5,-0.244,-0.276
2.2237e-02,0.04,0.16,0.64,0.82,-0.244,-0.212
2.2256e-02,0.08,-0.04,0.66,0.58,-0.252,-0.292
2.2275e-02,0.04,0.12,0.64,0.72,-0.276,-0.228
2.2295e-02,0.04,-0.12,0.64,0.48,-0.276,-0.292
2.2314e-02,-1.43051e-08,0.08,0.64,0.8,-0.268,-0.244
2.2333e-02,-1.43051e-08,-0.16,0.64,0.48,-0.26,-0.308
2.2352e-02,-1.43051e-08,0.08,0.58,0.82,-0.276,-0.244
2.2371e-02,-0.04,-0.16,0.62,0.48,-0.292,-0.308
2.2391e-02,-0.04,0.12,0.62,0.82,-0.3,-0.252
2.2410e-02,-0.04,-0.08,0.62,0.56,-0.292,-0.3
2.2429e-02,-0.04,0.04,0.64,0.7,-0.268,-0.252
2.2448e-02,-0.04,-0.16,0.62,0.5,-0.276,-0.308
2.2467e-02,-0.04,0.08,0.64,0.82,-0.292,-0.252
2.2487e-02,-0.08,-0.12,0.62,0.5,-0.292,-0.316
2.2506e-02,-0.04,0.08,0.64,0.82,-0.292,-0.26
2.2525e-02,-0.04,-0.12,0.66,0.52,-0.284,-0.316
2.2544e-02,-0.04,0.12,0.64,0.82,-0.292,-0.26
2.2563e-02,-1.43051e-08,-0.12,0.68,0.52,-0.292,-0.324
2.2583e-02,-0.04,0.08,0.62,0.8,-0.3,-0.268
2.2602e-02,-0.04,-0.08,0.62,0.56,-0.308,-0.332
2.2621e-02,-0.08,0.04,0.62,0.68,-0.308,-0.284
2.2640e-02,-0.04,-0.12,0.66,0.5,-0.316,-0.348
2.2659e-02,-0.04,0.08,0.64,0.78,-0.316,-0.284
2.2679e-02,-0.04,-0.12,0.62,0.48,-0.332,-0.364
2.2698e-02,-0.04,0.08,0.62,0.78,-0.34,-0.308
2.2717e-02,-0.04,-0.12,0.6,0.5,-0.332,-0.348
2.2736e-02,-0.04,0.04,0.64,0.78,-0.332,-0.3
2.2755e-02,-0.04,-0.12,0.62,0.52,-0.332,-0.356
2.2775e-02,-0.04,0.04,0.6,0.78,-0.332,-0.3
2.2794e-02,-0.04,-0.08,0.64,0.54,-0.34,-0.364
2.2813e-02,-1.43051e-08,0.12,0.6,0.68,-0.348,-0.308
2.2832e-02,-1.43051e-08,-0.08,0.62,0.5,-0.332,-0.372
2.2851e-02,-1.43051e-08,0.04,0.62,0.76,-0.356,-0.316
2.2871e-02,-1.43051e-08,-0.08,0.62,0.46,-0.364,-0.388
2.2890e-02,-0.04,0.08,0.64,0.76,-0.356,-0.332
2.2909e-02,-1.43051e-08,-0.08,0.6,0.52,-0.364,-0.38
2.2928e-02,-0.04,0.08,0.6,0.78,-0.364,-0.324
2.2947e-02,0.04,-0.08,0.62,0.56,-0.348,-0.372
2.2967e-02,-1.43051e-08,0.04,0.6,0.68,-0.34,-0.316
2.2986e-02,-1.43051e-08,-0.08,0.64,0.5,-0.348,-0.372
2.3005e-02,-1.43051e-08,0.08,0.62,0.8,-0.356,-0.324
2.3024e-02,-1.43051e-08,-0.08,0.62,0.48,-0.356,-0.396
2.3043e-02,-1.43051e-08,0.04,0.62,0.8,-0.372,-0.332
2.3063e-02,-0.04,-0.08,0.6,0.46,-0.38,-0.412
2.3082e-02,-1.43051e-08,0.04,0.6,0.78,-0.38,-0.356
2.3101e-02,-1.43051e-08,-0.08,0.6,0.5,-0.38,-0.412
2.3120e-02,-1.43051e-08,0.04,0.6,0.78,-0.38,-0.348
2.3139e-02,-1.43051e-08,-0.08,0.64,0.58,-0.372,-0.388
2.3159e-02,-1.43051e-08,0.04,0.6,0.68,-0.356,-0.34
2.3178e-02,-0.04,-0.08,0.62,0.5,-0.372,-0.396
2.3197e-02,-1.43051e-08,0.04,0.62,0.8,-0.372,-0.34
2.3216e-02,-1.43051e-08,-0.08,0.62,0.52,-0.372,-0.412
2.3235e-02,0.04,0.04,0.6,0.8,-0.38,-0.356
2.3255e-02,-0.04,-0.08,0.62,0.48,-0.396,-0.428
2.3274e-02,-1.43051e-08,0.04,0.62,0.78,-0.396,-0.372
2.3293e-02,-1.43051e-08,-0.08,0.6,0.48,-0.42,-0.428
2.3312e-02,-1.43051e-08,0.04,0.6,0.8,-0.396,-0.372
2.3331e-02,-0.04,-0.08,0.62,0.58,-0.396,-0.412
2.3351e-02,-1.43051e-08,0.04,0.66,0.7,-0.372,-0.356
2.3370e-02,-0.04,-0.08,0.64,0.52,-0.388,-0.404
2.3389e-02,-1.43051e-08,0.04,0.64,0.82,-0.388,-0.348
2.3408e-02,-1.43051e-08,-0.08,0.66,0.54,-0.396,-0.42
2.3427e-02,-1.43051e-08,0.04,0.58,0.82,-0.38,-0.364
2.3447e-02,-0.04,-0.08,0.62,0.52,-0.404,-0.436
2.3466e-02,-0.04,0.04,0.64,0.82,-0.404,-0.38
2.3485e-02,-1.43051e-08,-0.08,0.6,0.58,-0.42,-0.436
2.3504e-02,-0.04,0.04,0.64,0.68,-0.42,-0.38
2.3524e-02,-0.04,-0.08,0.64,0.52,-0.404,-0.428
2.3543e-02,-1.43051e-08,0.04,0.66,0.82,-0.388,-0.364
2.3562e-02,-0.04,-0.08,0.66,0.54,-0.388,-0.404
2.3581e-02,-0.04,0.04,0.68,0.84,-0.396,-0.356
2.3600e-02,-0.04,-0.08,0.68,0.54,-0.38,-0.412
2.3620e-02,-1.43051e-08,0.04,0.66,0.86,-0.38,-0.364
2.3639e-02,-1.43051e-08,-0.08,0.66,0.54,-0.38,-0.42
2.3658e-02,-1.43051e-08,0.04,0.68,0.84,-0.388,-0.364
2.3677e-02,-1.43051e-08,-0.08,0.66,0.62,-0.404,-0.42
2.3696e-02,-0.04,0.04,0.66,0.72,-0.388,-0.372
2.3716e-02,-1.43051e-08,-0.08,0.68,0.6,-0.396,-0.42
2.3735e-02,-1.43051e-08,0.04,0.68,0.82,-0.388,-0.348
2.3754e-02,-1.43051e-08,-0.2,0.7,0.62,-0.38,-0.396
2.3773e-02,-0.08,0.04,0.72,0.88,-0.38,-0.34
2.3792e-02,-0.12,-0.16,0.7,0.6,-0.372,-0.404
2.3812e-02,-1.43051e-08,0.16,0.72,0.88,-0.364,-0.34
2.3831e-02,0.08,-1.43051e-08,0.7,0.6,-0.38,-0.404
2.3850e-02,0.12,0.36,0.72,0.86,-0.372,-0.356
2.3869e-02,0.2,0.12,0.72,0.66,-0.388,-0.412
2.3888e-02,0.32,0.44,0.72,0.76,-0.38,-0.356
2.3908e-02,0.4,0.2,0.7,0.6,-0.38,-0.412
2.3927e-02,0.48,0.56,0.7,0.86,-0.372,-0.348
2.3946e-02,0.52,0.4,0.76,0.64,-0.356,-0.38
2.3965e-02,0.68,0.76,0.76,0.92,-0.364,-0.324
2.3984e-02,0.68,0.64,0.76,0.64,-0.34,-0.364
2.4004e-02,0.76,0.96,0.78,0.94,-0.348,-0.316
2.4023e-02,0.84,0.8,0.78,0.68,-0.348,-0.372
2.4042e-02,0.92,1,0.78,0.9,-0.34,-0.324
2.4061e-02,0.96,0.76,0.78,0.7,-0.348,-0.364
2.4080e-02,0.96,1.08,0.78,0.94,-0.332,-0.316
2.4100e-02,0.96,0.8,0.78,0.68,-0.348,-0.372
2.4119e-02,1,1.12,0.78,0.92,-0.34,-0.308
2.4138e-02,1.04,0.84,0.8,0.72,-0.332,-0.34
2.4157e-02,1.12,1.2,0.84,0.98,-0.324,-0.284
2.4176e-02,1.12,0.96,0.84,0.76,-0.308,-0.324
2.4196e-02,1.12,1.36,0.84,1,-0.292,-0.268
2.4215e-02,1.2,1.16,0.84,0.78,-0.292,-0.324
2.4234e-02,1.24,1.32,0.84,0.9,-0.3,-0.276
2.4253e-02,1.24,1.08,0.84,0.74,-0.284,-0.332
2.4272e-02,1.28,1.4,0.84,0.98,-0.3,-0.268
2.4292e-02,1.32,1.12,0.84,0.72,-0.308,-0.324
2.4311e-02,1.32,1.44,0.84,0.98,-0.3,-0.276
2.4330e-02,1.36,1.2,0.84,0.74,-0.308,-0.316
2.4349e-02,1.36,1.52,0.88,1.02,-0.284,-0.252
2.4368e-02,1.44,1.32,0.86,0.78,-0.276,-0.292
2.4388e-02,1.48,1.64,0.9,1.06,-0.268,-0.228
2.4407e-02,1.52,1.44,0.88,0.82,-0.252,-0.276
2.4426e-02,1.56,1.64,0.86,0.96,-0.26,-0.228
2.4445e-02,1.6,1.44,0.88,0.8,-0.26,-0.284
2.4464e-02,1.6,1.72,0.9,1.04,-0.268,-0.236
2.4484e-02,1.64,1.48,0.88,0.8,-0.26,-0.284
2.4503e-02,1.68,1.8,1.02,1.06,-0.268,-0.228
2.4522e-02,1.68,1.52,0.9,0.82,-0.26,-0.276
2.4541e-02,1.72,1.88,0.92,1.08,-0.244,-0.212
2.4560e-02,1.76,1.68,0.94,0.86,-0.244,-0.252
2.4580e-02,1.8,1.92,0.94,1.04,-0.22,-0.196
2.4599e-02,1.8,1.64,0.94,0.84,-0.228,-0.244
2.4618e-02,1.88,1.96,0.96,1.08,-0.212,-0.196
2.4637e-02,1.92,1.72,0.92,0.84,-0.228,-0.252
2.4656e-02,1.88,2.08,0.94,1.1,-0.22,-0.196
2.4676e-02,1.92,1.76,0.94,0.82,-0.228,-0.244
2.4695e-02,1.96,2.08,0.94,1.08,-0.228,-0.196
2.4714e-02,1.96,1.8,0.9,0.84,-0.212,-0.244
2.4733e-02,2,2.16,0.92,1.1,-0.212,-0.188
2.4752e-02,2.08,1.96,0.94,0.9,-0.212,-0.228
2.4772e-02,2.04,2.16,0.96,1.02,-0.204,-0.172
2.4791e-02,2.12,1.88,0.96,0.86,-0.204,-0.212
2.4810e-02,2.12,2.24,0.96,1.14,-0.196,-0.164
2.4829e-02,2.16,2,0.96,0.84,-0.188,-0.212
2.4848e-02,2.16,2.32,0.98,1.12,-0.188,-0.164
2.4868e-02,2.24,2.04,0.98,0.86,-0.18,-0.204
2.4887e-02,2.24,2.36,0.98,1.12,-0.188,-0.156
2.4906e-02,2.28,2.08,0.98,0.86,-0.18,-0.204
2.4925e-02,2.24,2.4,0.98,1.12,-0.18,-0.148
2.4944e-02,2.32,2.2,1,0.9,-0.18,-0.196
2.4964e-02,2.32,2.36,0.98,1.04,-0.164,-0.14
2.4983e-02,2.36,2.16,1,0.9,-0.156,-0.18
2.5002e-02,2.36,2.52,1.02,1.16,-0.156,-0.132
2.5021e-02,2.4,2.24,1,0.92,-0.148,-0.18
2.5040e-02,2.4,2.56,1,1.16,-0.156,-0.124
2.5060e-02,2.44,2.24,1,0.88,-0.156,-0.18
2.5079e-02,2.44,2.6,1,1.14,-0.164,-0.124
2.5098e-02,2.48,2.32,1,0.9,-0.164,-0.18
2.5117e-02,2.44,2.56,1.02,1.16,-0.148,-0.124
2.5136e-02,2.48,2.24,1,0.92,-0.156,-0.172
2.5156e-02,2.48,2.6,1,1.14,-0.148,-0.116
2.5175e-02,2.52,2.32,1.02,0.92,-0.14,-0.156
2.5194e-02,2.52,2.64,1,1.18,-0.148,-0.1
2.5213e-02,2.56,2.32,1.04,0.92,-0.124,-0.156
2.5232e-02,2.56,2.68,1.02,1.18,-0.132,-0.1
2.5252e-02,2.56,2.4,1.04,0.92,-0.124,-0.156
2.5271e-02,2.56,2.72,1.02,1.16,-0.124,-0.1
2.5290e-02,2.6,2.52,1.04,0.96,-0.132,-0.148
2.5309e-02,2.6,2.64,1.04,1.06,-0.124,-0.1
2.5328e-02,2.6,2.4,1,0.92,-0.132,-0.148
2.5348e-02,2.56,2.72,1.02,1.16,-0.124,-0.092
2.5367e-02,2.6,2.44,1.02,0.92,-0.116,-0.132
2.5386e-02,2.64,2.76,1.04,1.18,-0.116,-0.084
2.5405e-02,2.68,2.44,1.02,0.94,-0.1,-0.132
2.5424e-02,2.68,2.8,1.04,1.18,-0.108,-0.076
2.5444e-02,2.68,2.44,1.02,0.94,-0.116,-0.132
2.5463e-02,2.68,2.8,1.04,1.18,-0.108,-0.084
2.5482e-02,2.72,2.6,1.04,0.96,-0.116,-0.132
2.5501e-02,2.64,2.76,1.04,1.08,-0.108,-0.084
2.5520e-02,2.68,2.48,1.02,0.94,-0.108,-0.124
2.5540e-02,2.68,2.84,1.04,1.18,-0.092,-0.076
2.5559e-02,2.72,2.48,1.04,0.96,-0.092,-0.116
2.5578e-02,2.68,2.84,1.04,1.18,-0.1,-0.06
2.5597e-02,2.72,2.52,1.02,0.94,-0.076,-0.108
2.5616e-02,2.72,2.88,1.06,1.22,-0.076,-0.052
2.5636e-02,2.76,2.6,1.04,0.94,-0.084,-0.108
2.5655e-02,2.76,2.84,1.04,1.18,-0.084,-0.06
2.5674e-02,2.76,2.56,1.04,0.94,-0.076,-0.108
2.5693e-02,2.76,2.88,1.02,1.2,-0.084,-0.052
2.5712e-02,2.76,2.56,1.04,0.92,-0.084,-0.108
2.5732e-02,2.72,2.88,1.04,1.2,-0.084,-0.052
2.5751e-02,2.76,2.56,1.04,0.94,-0.068,-0.1
2.5770e-02,2.76,2.84,1.06,1.18,-0.076,-0.044
2.5789e-02,2.76,2.6,1.04,0.94,-0.06,-0.092
2.5808e-02,2.76,2.88,1.04,1.2,-0.06,-0.036
2.5828e-02,2.76,2.72,1.04,1,-0.068,-0.092
2.5847e-02,2.8,2.84,1.04,1.1,-0.068,-0.036
2.5866e-02,2.76,2.56,1.04,0.94,-0.068,-0.092
2.5885e-02,2.76,2.88,1.04,1.18,-0.068,-0.044
2.5904e-02,2.76,2.56,1.02,0.94,-0.068,-0.092
2.5924e-02,2.72,2.88,1.04,1.18,-0.076,-0.036
2.5943e-02,2.76,2.56,1.02,0.92,-0.076,-0.084
2.5962e-02,2.76,2.92,1.04,1.2,-0.06,-0.036
2.5981e-02,2.76,2.6,1.08,0.94,-0.06,-0.076
2.6000e-02,2.76,2.92,1.06,1.2,-0.068,-0.02
2.6020e-02,2.8,2.68,1.06,0.98,-0.052,-0.068
2.6039e-02,2.8,2.84,1.06,1.12,-0.044,-0.02
2.6058e-02,2.8,2.56,1.04,0.94,-0.06,-0.068
2.6077e-02,2.8,2.92,1.06,1.2,-0.052,-0.02
2.6096e-02,2.8,2.6,1.04,0.92,-0.044,-0.068
2.6116e-02,2.76,2.92,1.04,1.2,-0.044,-0.02
2.6135e-02,2.76,2.6,1.06,0.94,-0.052,-0.068
2.6154e-02,2.8,2.92,1.06,1.2,-0.036,-0.012
2.6173e-02,2.8,2.68,1.02,0.96,-0.044,-0.06
2.6192e-02,2.8,2.88,1.06,1.18,-0.036,-0.012
2.6212e-02,2.8,2.6,1.04,0.96,-0.02,-0.06
2.6231e-02,2.8,2.92,1.08,1.2,-0.02,-0.004
2.6250e-02,2.84,2.6,1.06,0.94,-0.036,-0.06
2.6269e-02,2.8,2.92,1.06,1.18,-0.036,-0.012
2.6288e-02,2.8,2.6,1.06,0.94,-0.036,-0.052
2.6308e-02,2.76,2.92,1.08,1.18,-0.036,-0.012
2.6327e-02,2.76,2.6,1.04,0.94,-0.028,-0.052
2.6346e-02,2.8,2.92,1.04,1.2,-0.02,0.004
2.6365e-02,2.76,2.64,1.04,1,-0.028,-0.044
2.6384e-02,2.76,2.88,1.04,1.1,-0.02,0.004
2.6404e-02,2.8,2.6,1.04,0.94,-0.02,-0.044
2.6423e-02,2.8,2.92,1.04,1.2,-0.02,0.012
2.6442e-02,2.8,2.6,1.04,0.94,-0.02,-0.036
2.6461e-02,2.8,2.92,1.08,1.22,-0.012,0.012
2.6480e-02,2.8,2.56,1.06,0.94,-0.012,-0.036
2.6500e-02,2.76,2.92,1.04,1.2,-0.012,0.012
2.6519e-02,2.8,2.6,1.06,0.94,-0.012,-0.036
2.6538e-02,2.8,2.92,1.04,1.22,-0.012,0.012
2.6557e-02,2.8,2.72,1.04,0.98,-0.012,-0.028
2.6576e-02,2.8,2.88,1.04,1.12,-0.012,0.02
2.6596e-02,2.8,2.6,1.06,0.94,0.004,-0.028
2.6615e-02,2.8,2.92,1.04,1.2,0.004,0.028
2.6634e-02,2.8,2.64,1.06,0.94,0.004,-0.02
2.6653e-02,2.8,2.92,1.14,1.22,-0.004,0.028
2.6673e-02,2.8,2.6,1.06,0.96,0.004,-0.028
2.6692e-02,2.8,2.92,1.06,1.2,-0.004,0.028
2.6711e-02,2.8,2.72,1.02,1,-0.012,-0.02
2.6730e-02,2.8,2.88,1.02,1.1,0.004,0.028
2.6749e-02,2.84,2.64,1.08,0.94,-0.012,-0.02
2.6769e-02,2.8,2.92,1.04,1.2,-0.004,0.028
2.6788e-02,2.8,2.64,1.08,0.94,0.004,-0.028
2.6807e-02,2.84,2.92,1.02,1.2,0.004,0.028
2.6826e-02,2.8,2.56,1.04,0.94,-0.004,-0.02
2.6845e-02,2.84,2.96,1.04,1.22,-0.004,0.036
2.6865e-02,2.76,2.48,1.04,0.92,-0.004,-0.02
2.6884e-02,2.72,2.92,1,1.2,0.004,0.028
2.6903e-02,2.68,2.6,1.06,0.98,-0.004,-0.02
2.6922e-02,2.68,2.76,1.02,1.08,0.004,0.028
2.6941e-02,2.68,2.44,1.04,0.92,-0.004,-0.02
2.6961e-02,2.64,2.88,1.02,1.2,-0.004,0.028
2.6980e-02,2.64,2.4,1.04,0.92,0.004,-0.02
2.6999e-02,2.64,2.84,1.04,1.2,-0.004,0.028
2.7018e-02,2.64,2.36,1.02,0.92,-0.012,-0.02
2.7037e-02,2.6,2.8,1.02,1.18,0.004,0.028
2.7057e-02,2.6,2.32,1.02,0.92,0.004,-0.02
2.7076e-02,2.6,2.8,1,1.2,-0.004,0.028
2.7095e-02,2.56,2.48,1.04,0.94,0.004,-0.02
2.7114e-02,2.56,2.68,1.02,1.08,0.004,0.028
2.7133e-02,2.56,2.32,1.02,0.9,0.004,-0.02
2.7153e-02,2.6,2.76,1.02,1.2,0.004,0.028
2.7172e-02,2.56,2.28,1.04,0.9,0.004,-0.02
2.7191e-02,2.68,2.76,1.06,1.2,-0.004,0.028
2.7210e-02,2.52,2.24,1,0.9,-0.012,-0.028
2.7229e-02,2.52,2.68,1,1.18,0.004,0.028
2.7249e-02,2.48,2.36,1.02,0.92,-0.004,-0.02
2.7268e-02,2.48,2.6,0.98,1.08,-0.004,0.028
