data/vsense_and_zc.csv

Model,DPO2024B
Firmware Version,1.52

Point Format,Y,,,
Horizontal Units,S,,,
Horizontal Scale,0.01,,,
Sample Interval,1.92012e-05,,,
Filter Frequency,2e+08,,,
Record Length,5208,,,
Gating,0.0% to 100.0%,,0.0% to 100.0%,
Probe Attenuation,10,,10,
Vertical Units,V,,V,
Vertical Offset,0,,0,
Vertical Scale,2,,10,
Label,,,,
TIME,CH1,CH1 Peak Detect,CH2,CH2 Peak Detect
-5.000e-02,1.52,1.44,-0.4,-1.2
-4.998e-02,1.52,1.6,-0.8,0
-4.996e-02,1.52,1.44,-0.4,-0.8
-4.994e-02,1.52,1.6,-0.4,0
-4.992e-02,1.52,1.44,-0.4,-0.8
-4.990e-02,1.52,1.6,-0.4,0
-4.988e-02,1.52,1.44,-0.4,-0.8
-4.987e-02,1.52,1.6,-0.4,0
-4.985e-02,1.52,1.44,-0.8,-0.8
-4.983e-02,1.52,1.6,-0.8,0
-4.981e-02,1.52,1.44,-0.8,-0.8
-4.979e-02,1.52,1.68,-0.4,0
-4.977e-02,1.6,1.52,-0.4,-1.2
-4.975e-02,1.52,1.68,-0.4,0
-4.973e-02,1.6,1.52,-0.4,-0.8
-4.971e-02,1.6,1.68,-0.8,0
-4.969e-02,1.6,1.52,-0.4,-0.8
-4.967e-02,1.6,1.68,-0.4,0
-4.965e-02,1.6,1.52,-0.4,-1.2
-4.964e-02,1.6,1.68,-0.4,0
-4.962e-02,1.6,1.52,-0.4,-0.8
-4.960e-02,1.6,1.68,-0.4,0
-4.958e-02,1.6,1.52,-0.4,-0.8
-4.956e-02,1.68,1.68,-0.4,0
-4.954e-02,1.6,1.52,-0.4,-1.2
-4.952e-02,1.6,1.84,-0.4,0
-4.950e-02,1.68,1.52,-0.4,-0.8
-4.948e-02,1.68,1.76,-0.4,0
-4.946e-02,1.68,1.6,-0.8,-0.8
-4.944e-02,1.68,1.76,-0.4,0
-4.942e-02,1.68,1.6,-0.8,-0.8
-4.940e-02,1.68,1.76,-0.4,0
-4.939e-02,1.68,1.6,-0.4,-0.8
-4.937e-02,1.68,1.76,-0.4,0
-4.935e-02,1.68,1.6,-0.4,-0.8
-4.933e-02,1.68,1.76,-0.4,0
-4.931e-02,1.68,1.6,-0.4,-0.8
-4.929e-02,1.68,1.76,-0.4,0
-4.927e-02,1.68,1.6,-0.4,-0.8
-4.925e-02,1.68,1.76,-0.4,0
-4.923e-02,1.76,1.6,-0.4,-0.8
-4.921e-02,1.76,1.84,0,0
-4.919e-02,1.68,1.68,-0.4,-0.8
-4.917e-02,1.76,1.84,-0.8,0
-4.916e-02,1.76,1.68,-0.4,-0.8
-4.914e-02,1.76,1.84,-0.4,0
-4.912e-02,1.76,1.68,-0.4,-0.8
-4.910e-02,1.84,1.92,-0.4,0
-4.908e-02,1.92,1.76,-0.4,-0.8
-4.906e-02,1.92,2,-0.4,0
-4.904e-02,1.84,1.84,-0.8,-0.8
-4.902e-02,1.92,2,-0.4,0
-4.900e-02,1.92,1.84,-0.4,-0.8
-4.898e-02,1.92,2.08,-0.4,0.4
-4.896e-02,1.92,1.84,-0.4,-0.8
-4.894e-02,1.92,2,0.4,1.2
-4.892e-02,1.92,1.84,0.8,0.4
-4.891e-02,1.92,2,1.2,2
-4.889e-02,1.92,1.84,1.6,1.2
-4.887e-02,1.84,2,2,2.4
-4.885e-02,1.92,1.84,1.6,-0.8
-4.883e-02,1.92,2,0.8,2
-4.881e-02,1.92,1.84,-0.4,-0.8
-4.879e-02,1.92,2,-0.4,0
-4.877e-02,1.92,1.84,-0.4,-0.8
-4.875e-02,1.92,2.08,-0.4,0
-4.873e-02,2,1.92,-0.4,-0.8
-4.871e-02,1.92,2.08,-0.8,0
-4.869e-02,2,1.92,-0.8,-0.8
-4.868e-02,2,2.08,-0.4,0
-4.866e-02,2,1.92,-0.4,-0.8
-4.864e-02,2,2.08,-0.4,0
-4.862e-02,2,2,-0.4,-0.8
-4.860e-02,2,2.16,-0.4,0
-4.858e-02,2,2,-0.4,-0.8
-4.856e-02,2.16,2.16,-0.4,0
-4.854e-02,2.08,2,-0.4,-1.2
-4.852e-02,2.08,2.16,-0.4,0
-4.850e-02,2.08,2,-0.4,-0.8
-4.848e-02,2.08,2.16,-0.4,0
-4.846e-02,2.08,2,-0.4,-0.8
-4.844e-02,2.08,2.16,-0.8,0
-4.843e-02,2.08,2,-0.4,-0.8
-4.841e-02,2.08,2.24,-0.4,0
-4.839e-02,2.08,2,-0.4,-0.8
-4.837e-02,2.08,2.24,-0.4,0
-4.835e-02,2.08,2.08,-0.8,-0.8
-4.833e-02,2.16,2.24,-0.4,0
-4.831e-02,2.16,2.08,-0.4,-0.8
-4.829e-02,2.16,2.24,-0.4,0
-4.827e-02,2.16,2.08,-0.4,-0.8
-4.825e-02,2.16,2.24,-0.4,0
-4.823e-02,2.16,2.08,-0.4,-0.8
-4.821e-02,2.16,2.32,-0.8,0
-4.820e-02,2.16,2.08,-0.4,-0.8
-4.818e-02,2.24,2.32,-0.4,0
-4.816e-02,2.24,2.16,-0.4,-0.8
-4.814e-02,2.24,2.32,-0.4,0
-4.812e-02,2.24,2.16,-0.8,-0.8
-4.810e-02,2.24,2.32,-0.4,0
-4.808e-02,2.24,2.16,-0.4,-0.8
-4.806e-02,2.32,2.4,-0.4,0
-4.804e-02,2.24,2.16,-0.4,-0.8
-4.802e-02,2.24,2.32,-0.4,0
-4.800e-02,2.24,2.16,-0.4,-0.8
-4.798e-02,2.24,2.32,-0.4,0
-4.796e-02,2.24,2.16,-0.4,-0.8
-4.795e-02,2.32,2.4,-0.4,0
-4.793e-02,2.32,2.24,-0.4,-0.8
-4.791e-02,2.24,2.4,-0.4,0
-4.789e-02,2.32,2.16,-0.4,-0.8
-4.787e-02,2.32,2.4,-0.4,0
-4.785e-02,2.32,2.24,-0.4,-0.8
-4.783e-02,2.32,2.4,-0.4,0
-4.781e-02,2.32,2.24,-0.4,-0.8
-4.779e-02,2.32,2.4,-0.8,0
-4.777e-02,2.32,2.24,-0.4,-0.8
-4.775e-02,2.4,2.48,-0.4,0
-4.773e-02,2.4,2.32,-0.4,-0.8
-4.772e-02,2.4,2.48,-0.4,0
-4.770e-02,2.4,2.32,-0.4,-0.8
-4.768e-02,2.4,2.48,-0.4,0
-4.766e-02,2.4,2.4,-0.4,-0.8
-4.764e-02,2.48,2.56,-0.4,0
-4.762e-02,2.48,2.4,-0.4,-0.8
-4.760e-02,2.4,2.56,-0.4,0
-4.758e-02,2.48,2.4,-0.4,-0.8
-4.756e-02,2.48,2.56,-0.4,0
-4.754e-02,2.48,2.4,-0.4,-0.8
-4.752e-02,2.48,2.56,-0.4,0
-4.750e-02,2.48,2.4,-0.4,-0.8
-4.748e-02,2.48,2.64,-0.4,0.4
-4.747e-02,2.48,2.4,0,-0.8
-4.745e-02,2.48,2.56,0,0.4
-4.743e-02,2.48,2.4,-0.4,-0.8
-4.741e-02,2.48,2.56,-0.4,0.4
-4.739e-02,2.48,2.4,-0.4,-0.8
-4.737e-02,2.48,2.56,-0.4,0
-4.735e-02,2.48,2.4,-0.4,-0.8
-4.733e-02,2.48,2.64,-0.4,0
-4.731e-02,2.48,2.4,-0.4,-0.8
-4.729e-02,2.56,2.64,-0.4,0
-4.727e-02,2.48,2.48,-0.4,-0.8
-4.725e-02,2.56,2.64,-0.4,0
-4.724e-02,2.64,2.48,-0.4,-0.8
-4.722e-02,2.56,2.64,-0.8,0
-4.720e-02,2.56,2.48,-0.8,-0.8
-4.718e-02,2.56,2.64,-0.4,0
-4.716e-02,2.56,2.48,0,-0.8
-4.714e-02,2.56,2.64,-0.4,0
-4.712e-02,2.56,2.48,-0.4,-0.8
-4.710e-02,2.56,2.72,-0.4,0
-4.708e-02,2.64,2.48,-0.4,-0.8
-4.706e-02,2.56,2.64,-0.8,0
-4.704e-02,2.56,2.56,-0.4,-0.8
-4.702e-02,2.56,2.72,-0.4,0
-4.700e-02,2.64,2.48,-0.4,-0.8
-4.699e-02,2.56,2.72,-0.4,0
-4.697e-02,2.64,2.56,-0.4,-0.8
-4.695e-02,2.64,2.72,-0.4,0
-4.693e-02,2.64,2.56,-0.4,-0.8
-4.691e-02,2.64,2.72,-0.4,0
-4.689e-02,2.64,2.56,-0.4,-0.8
-4.687e-02,2.64,2.72,-0.4,0
-4.685e-02,2.64,2.56,-0.4,-0.8
-4.683e-02,2.64,2.8,-0.4,0
-4.681e-02,2.64,2.56,-0.4,-0.8
-4.679e-02,2.64,2.72,-0.4,0
-4.677e-02,2.64,2.56,-0.4,-0.8
-4.675e-02,2.64,2.8,-0.4,0
-4.674e-02,2.64,2.56,-0.4,-0.8
-4.672e-02,2.64,2.8,-0.4,0
-4.670e-02,2.64,2.56,-0.4,-0.8
-4.668e-02,2.64,2.72,-0.4,0
-4.666e-02,2.64,2.64,-0.4,-0.8
-4.664e-02,2.64,2.8,-0.4,0
-4.662e-02,2.64,2.64,-0.4,-0.8
-4.660e-02,2.64,2.8,-0.4,0
-4.658e-02,2.72,2.64,-0.8,-0.8
-4.656e-02,2.72,2.8,-0.4,0
-4.654e-02,2.64,2.64,-0.8,-0.8
-4.652e-02,2.64,2.8,-0.4,0
-4.651e-02,2.72,2.64,-0.4,-0.8
-4.649e-02,2.72,2.8,-0.4,0
-4.647e-02,2.64,2.64,-0.4,-0.8
-4.645e-02,2.72,2.8,-0.4,0
-4.643e-02,2.72,2.64,-0.4,-0.8
-4.641e-02,2.64,2.8,-0.4,0
-4.639e-02,2.72,2.64,-0.4,-0.8
-4.637e-02,2.72,2.8,-0.4,0
-4.635e-02,2.72,2.64,-0.4,-0.8
-4.633e-02,2.72,2.8,-0.4,0
-4.631e-02,2.72,2.64,-0.4,-0.8
-4.629e-02,2.72,2.8,-0.4,0
-4.627e-02,2.72,2.64,-0.4,-0.8
-4.626e-02,2.72,2.8,-0.4,0
-4.624e-02,2.72,2.64,-0.4,-0.8
-4.622e-02,2.72,2.8,-0.4,0
-4.620e-02,2.72,2.64,-0.4,-0.8
-4.618e-02,2.72,2.8,-0.4,0
-4.616e-02,2.72,2.64,-0.4,-0.8
-4.614e-02,2.72,2.8,-0.4,0
-4.612e-02,2.72,2.64,-0.4,-0.8
-4.610e-02,2.72,2.8,-0.4,0
-4.608e-02,2.72,2.64,-0.4,-0.8
-4.606e-02,2.72,2.8,-0.4,0
-4.604e-02,2.72,2.64,-0.4,-0.8
-4.603e-02,2.72,2.88,-0.4,0
-4.601e-02,2.8,2.64,-0.4,-0.8
-4.599e-02,2.72,2.8,-0.4,0
-4.597e-02,2.72,2.64,0,-1.2
-4.595e-02,2.72,2.8,-0.4,0
-4.593e-02,2.72,2.64,-0.4,-0.8
-4.591e-02,2.72,2.88,-0.4,0
-4.589e-02,2.72,2.64,-0.4,-0.8
-4.587e-02,2.72,2.8,-0.4,0
-4.585e-02,2.72,2.64,0,-0.8
-4.583e-02,2.8,2.8,-0.4,0
-4.581e-02,2.72,2.64,-0.4,-0.8
-4.579e-02,2.72,2.8,-0.4,0.4
-4.578e-02,2.72,2.64,-0.4,-0.8
-4.576e-02,2.72,2.88,-0.4,0.4
-4.574e-02,2.72,2.64,0,-0.8
-4.572e-02,2.72,2.8,0,0.4
-4.570e-02,2.8,2.64,-0.4,-0.8
-4.568e-02,2.72,2.88,-0.4,0.4
-4.566e-02,2.8,2.64,-0.4,-0.8
-4.564e-02,2.72,2.8,-0.4,0.8
-4.562e-02,2.72,2.64,0,-0.8
-4.560e-02,2.72,2.8,0.4,0.8
-4.558e-02,2.8,2.64,-0.4,-0.8
-4.556e-02,2.8,2.8,-0.4,0.8
-4.555e-02,2.72,2.64,-0.4,-0.8
-4.553e-02,2.72,2.88,-0.4,0.8
-4.551e-02,2.72,2.64,0,-0.8
-4.549e-02,2.72,2.8,0.4,0.4
-4.547e-02,2.8,2.64,0,-0.8
-4.545e-02,2.72,2.88,-0.4,0.8
-4.543e-02,2.8,2.64,-0.4,-0.8
-4.541e-02,2.72,2.88,-0.4,0.8
-4.539e-02,2.8,2.64,0,-0.8
-4.537e-02,2.8,2.8,0.4,0.8
-4.535e-02,2.8,2.64,0.4,-0.8
-4.533e-02,2.72,2.8,0,0.8
-4.531e-02,2.72,2.64,-0.4,-0.8
-4.530e-02,2.8,2.88,-0.4,0.8
-4.528e-02,2.72,2.64,-0.4,-0.8
-4.526e-02,2.8,2.8,0,0.8
-4.524e-02,2.72,2.64,0.4,-0.8
-4.522e-02,2.8,2.88,0,0.8
-4.520e-02,2.8,2.64,0,-0.8
-4.518e-02,2.8,2.88,-0.4,0.8
-4.516e-02,2.72,2.64,-0.4,-0.8
-4.514e-02,2.72,2.88,0.4,0.8
-4.512e-02,2.72,2.64,0.4,-0.8
-4.510e-02,2.8,2.8,0,0.8
-4.508e-02,2.72,2.64,-0.4,-0.8
-4.507e-02,2.72,2.88,-0.4,0.8
-4.505e-02,2.72,2.64,-0.4,-0.8
-4.503e-02,2.72,2.8,0,0.8
-4.501e-02,2.72,2.64,0.8,-0.8
-4.499e-02,2.72,2.88,0.4,0.8
-4.497e-02,2.8,2.64,0,-0.8
-4.495e-02,2.72,2.88,-0.4,1.2
-4.493e-02,2.72,2.64,0,-0.8
-4.491e-02,2.72,2.8,0,1.2
-4.489e-02,2.72,2.64,0.8,-0.8
-4.487e-02,2.8,2.88,0.8,1.2
-4.485e-02,2.8,2.64,0.4,-0.4
-4.483e-02,2.72,2.88,0.4,1.2
-4.482e-02,2.72,2.64,0,-0.4
-4.480e-02,2.72,2.8,0.4,1.2
-4.478e-02,2.72,2.64,0.4,0
-4.476e-02,2.72,2.88,1.2,1.2
-4.474e-02,2.72,2.64,0.8,0.4
-4.472e-02,2.72,2.8,0.8,1.6
-4.470e-02,2.72,2.64,1.2,0.8
-4.468e-02,2.72,2.8,1.6,2
-4.466e-02,2.72,2.64,1.6,0.8
-4.464e-02,2.72,2.8,1.6,2
-4.462e-02,2.72,2.64,1.6,1.2
-4.460e-02,2.72,2.8,1.6,2
-4.459e-02,2.72,2.64,1.6,1.2
-4.457e-02,2.72,2.8,1.6,2.4
-4.455e-02,2.64,2.64,2,1.6
-4.453e-02,2.72,2.8,2,2.8
-4.451e-02,2.72,2.64,2,2
-4.449e-02,2.72,2.8,2.4,3.2
-4.447e-02,2.72,2.64,2.4,2
-4.445e-02,2.64,2.8,2.4,3.2
-4.443e-02,2.72,2.64,2.8,2.4
-4.441e-02,2.72,2.8,3.2,4
-4.439e-02,2.72,2.64,3.6,3.2
-4.437e-02,2.72,2.8,3.6,4.4
-4.435e-02,2.64,2.64,3.6,3.6
-4.434e-02,2.72,2.8,4,4.8
-4.432e-02,2.64,2.64,4.4,4
-4.430e-02,2.64,2.8,4.8,5.6
-4.428e-02,2.64,2.56,5.2,4.4
-4.426e-02,2.64,2.8,5.2,6
-4.424e-02,2.72,2.56,5.6,4.8
-4.422e-02,2.64,2.8,5.6,6.4
-4.420e-02,2.72,2.56,5.6,5.2
-4.418e-02,2.64,2.72,6,6.8
-4.416e-02,2.64,2.56,6.4,5.6
-4.414e-02,2.64,2.72,6.4,6.8
-4.412e-02,2.64,2.56,6.8,6
-4.411e-02,2.64,2.8,6.8,7.2
-4.409e-02,2.64,2.56,6.8,6.4
-4.407e-02,2.64,2.72,7.2,8
-4.405e-02,2.64,2.56,7.6,6.8
-4.403e-02,2.64,2.72,7.6,8.4
-4.401e-02,2.64,2.56,8.4,7.6
-4.399e-02,2.64,2.72,8.4,8.8
-4.397e-02,2.64,2.56,8.4,8
-4.395e-02,2.64,2.8,8.8,9.6
-4.393e-02,2.56,2.56,9.2,8.4
-4.391e-02,2.64,2.72,9.6,10.4
-4.389e-02,2.64,2.56,10,9.2
-4.387e-02,2.64,2.72,10.4,10.8
-4.386e-02,2.64,2.56,10.4,10
-4.384e-02,2.64,2.72,10.4,10.8
-4.382e-02,2.64,2.48,10.4,10
-4.380e-02,2.56,2.72,10.8,11.2
-4.378e-02,2.64,2.48,10.8,10
-4.376e-02,2.56,2.64,10.4,10.8
-4.374e-02,2.56,2.48,10.4,10
-4.372e-02,2.56,2.64,10.4,10.8
-4.370e-02,2.56,2.48,10.4,10
-4.368e-02,2.56,2.64,10.4,11.2
-4.366e-02,2.56,2.4,10.4,10
-4.364e-02,2.48,2.64,10.8,10.8
-4.363e-02,2.56,2.4,10.4,9.6
-4.361e-02,2.56,2.56,10.4,10.8
-4.359e-02,2.48,2.4,10.4,9.6
-4.357e-02,2.56,2.56,10.4,10.8
-4.355e-02,2.48,2.4,10.4,9.6
-4.353e-02,2.48,2.64,10.4,10.8
-4.351e-02,2.48,2.4,10.4,9.6
-4.349e-02,2.48,2.56,10.4,10.8
-4.347e-02,2.48,2.4,10.4,10
-4.345e-02,2.48,2.56,10.4,10.8
-4.343e-02,2.4,2.4,10.4,10
-4.341e-02,2.48,2.56,10.4,10.8
-4.339e-02,2.48,2.32,10.8,10
-4.338e-02,2.48,2.56,10.4,11.2
-4.336e-02,2.4,2.32,10.4,10
-4.334e-02,2.4,2.48,10.8,10.8
-4.332e-02,2.4,2.32,10.4,10
-4.330e-02,2.4,2.48,10.4,10.8
-4.328e-02,2.4,2.32,10.4,10
-4.326e-02,2.32,2.48,10.4,10.8
-4.324e-02,2.32,2.32,10.8,10
-4.322e-02,2.32,2.48,10.4,10.8
-4.320e-02,2.32,2.24,10.4,10
-4.318e-02,2.32,2.4,10.8,11.2
-4.316e-02,2.32,2.24,10.4,10
-4.315e-02,2.32,2.4,10.4,10.8
-4.313e-02,2.32,2.24,10.4,9.6
-4.311e-02,2.32,2.4,10.8,10.8
-4.309e-02,2.32,2.24,10.4,10
-4.307e-02,2.32,2.4,10.4,10.8
-4.305e-02,2.32,2.24,10.8,10
-4.303e-02,2.32,2.4,10.4,10.8
-4.301e-02,2.24,2.16,10.4,10
-4.299e-02,2.32,2.4,10.4,10.8
-4.297e-02,2.24,2.16,10.4,10
-4.295e-02,2.24,2.32,10.4,10.8
-4.293e-02,2.24,2.16,10.4,10
-4.291e-02,2.24,2.32,10.4,10.8
-4.290e-02,2.16,2.16,10.4,10
-4.288e-02,2.24,2.32,10.8,10.8
-4.286e-02,2.24,2.16,10.4,10
-4.284e-02,2.24,2.32,10.4,10.8
-4.282e-02,2.16,2.08,10.4,10
-4.280e-02,2.16,2.32,10.4,10.8
-4.278e-02,2.16,2.08,10.4,10
-4.276e-02,2.16,2.32,10.4,10.8
-4.274e-02,2.16,2.08,10.4,10
-4.272e-02,2.16,2.32,10.4,11.2
-4.270e-02,2.16,2.08,10.4,10
-4.268e-02,2.16,2.24,10.4,10.8
-4.267e-02,2.08,2.08,10.4,10
-4.265e-02,2.16,2.32,10.4,10.8
-4.263e-02,2.08,2,10.4,10
-4.261e-02,2.16,2.24,10.4,10.8
-4.259e-02,2.16,2,10.4,10
-4.257e-02,2.08,2.16,10.4,10.8
-4.255e-02,2.08,2,10.4,10
-4.253e-02,2.08,2.16,10.4,10.8
-4.251e-02,2.08,2,10.8,10
-4.249e-02,2.08,2.16,10.4,10.8
-4.247e-02,2.08,2,10.8,10
-4.245e-02,2.08,2.16,10.4,10.8
-4.243e-02,2.08,2,10.4,10
-4.242e-02,2.08,2.16,10.4,10.8
-4.240e-02,2.08,2,10.4,10
-4.238e-02,2.08,2.16,10.4,11.2
-4.236e-02,2.08,1.92,10.8,10
-4.234e-02,2.08,2.16,10.4,10.8
-4.232e-02,2,1.92,10.4,10
-4.230e-02,2,2.16,10.4,10.8
-4.228e-02,2,1.92,10.4,10
-4.226e-02,2,2.08,10.8,10.8
-4.224e-02,2,1.92,10.8,10
-4.222e-02,1.92,2.08,10.4,10.8
-4.220e-02,1.92,1.84,10.4,10
-4.219e-02,1.92,2.08,10.4,10.8
-4.217e-02,1.92,1.84,10.8,10
-4.215e-02,1.92,2,10.8,10.8
-4.213e-02,1.84,1.84,10.4,10
-4.211e-02,1.84,2,10.4,10.8
-4.209e-02,1.92,1.76,10.4,10
-4.207e-02,1.84,1.92,10.8,11.2
-4.205e-02,1.92,1.76,10.8,9.6
-4.203e-02,1.84,1.92,10.8,10.8
-4.201e-02,1.92,1.76,10.8,10
-4.199e-02,1.92,1.92,10.8,10.8
-4.197e-02,1.84,1.76,10.4,10
-4.195e-02,1.84,1.92,10.8,10.8
-4.194e-02,1.84,1.76,10.4,10
-4.192e-02,1.84,2,10.4,10.8
-4.190e-02,1.84,1.76,10.4,10
-4.188e-02,1.84,1.92,10.4,10.8
-4.186e-02,1.84,1.76,10.4,10
-4.184e-02,1.84,1.92,10.4,10.8
-4.182e-02,1.84,1.76,10.4,10
-4.180e-02,1.84,1.92,10.8,10.8
-4.178e-02,1.76,1.68,10.4,10
-4.176e-02,1.84,1.84,10.4,10.8
-4.174e-02,1.76,1.68,10.4,10
-4.172e-02,1.76,1.84,10.4,10.8
-4.171e-02,1.76,1.68,10.8,10
-4.169e-02,1.76,1.84,10.4,10.8
-4.167e-02,1.76,1.68,10.4,10
-4.165e-02,1.76,1.84,10.4,10.8
-4.163e-02,1.76,1.68,10.4,10
-4.161e-02,1.76,1.84,10.8,10.8
-4.159e-02,1.76,1.68,10.4,10
-4.157e-02,1.76,1.76,10.8,11.2
-4.155e-02,1.76,1.6,10.4,10
-4.153e-02,1.76,1.76,10.4,10.8
-4.151e-02,1.76,1.6,10.8,10
-4.149e-02,1.68,1.76,10.4,10.8
-4.147e-02,1.68,1.6,10.4,10
-4.146e-02,1.68,1.76,10.4,10.8
-4.144e-02,1.6,1.6,10.4,10
-4.142e-02,1.68,1.76,10.4,10.8
-4.140e-02,1.6,1.52,10.4,9.6
-4.138e-02,1.68,1.76,10.4,10.8
-4.136e-02,1.68,1.52,10.4,10
-4.134e-02,1.76,1.84,10.8,10.8
-4.132e-02,1.76,1.44,10.4,10
-4.130e-02,1.76,1.84,10.4,10.8
-4.128e-02,1.52,1.52,10.4,10
-4.126e-02,1.68,1.76,10.4,10.8
-4.124e-02,1.6,1.52,10.4,10
-4.123e-02,1.6,1.68,10.4,10.8
-4.121e-02,1.6,1.52,10.4,10
-4.119e-02,1.6,1.68,10.4,10.8
-4.117e-02,1.6,1.52,10.4,10
-4.115e-02,1.6,1.68,10.8,10.8
-4.113e-02,1.6,1.52,10.8,10
-4.111e-02,1.6,1.68,10.4,11.2
-4.109e-02,1.6,1.44,10.8,10
-4.107e-02,1.6,1.68,10.4,10.8
-4.105e-02,1.52,1.44,10.4,10
-4.103e-02,1.52,1.6,10.4,10.8
-4.101e-02,1.52,1.44,10.8,10
-4.099e-02,1.52,1.6,10.4,10.8
-4.098e-02,1.52,1.44,10.4,10
-4.096e-02,1.52,1.6,10.4,10.8
-4.094e-02,1.52,1.36,10.4,10
-4.092e-02,1.44,1.6,10.8,10.8
-4.090e-02,1.52,1.36,10.4,10
-4.088e-02,1.44,1.6,10.4,10.8
-4.086e-02,1.52,1.36,10.8,10
-4.084e-02,1.44,1.52,10.8,10.8
-4.082e-02,1.44,1.36,10.4,10
-4.080e-02,1.52,1.52,10.4,10.8
-4.078e-02,1.44,1.36,10.4,10
-4.076e-02,1.44,1.52,10.4,10.8
-4.075e-02,1.44,1.36,10.4,9.6
-4.073e-02,1.36,1.52,10.4,10.8
-4.071e-02,1.44,1.28,10.4,10
-4.069e-02,1.36,1.44,10.4,10.8
-4.067e-02,1.36,1.28,10.4,10
-4.065e-02,1.36,1.44,10.4,11.2
-4.063e-02,1.36,1.28,10.4,10
-4.061e-02,1.36,1.44,10.4,10.8
-4.059e-02,1.36,1.2,10.4,10
-4.057e-02,1.36,1.44,10.8,10.8
-4.055e-02,1.28,1.2,10.4,10
-4.053e-02,1.28,1.36,10.4,10.8
-4.051e-02,1.28,1.2,10.4,10
-4.050e-02,1.28,1.36,10.4,10.8
-4.048e-02,1.28,1.2,10.4,10
-4.046e-02,1.28,1.36,10.4,10.8
-4.044e-02,1.28,1.2,10.8,10
-4.042e-02,1.28,1.44,10.8,11.2
-4.040e-02,1.28,1.2,10.4,10
-4.038e-02,1.28,1.36,10.4,10.8
-4.036e-02,1.28,1.12,10.8,10
-4.034e-02,1.2,1.28,10.4,11.2
-4.032e-02,1.2,1.12,10.4,10
-4.030e-02,1.2,1.28,10.8,10.8
-4.028e-02,1.2,1.12,10.4,10
-4.026e-02,1.2,1.28,10.4,10.8
-4.025e-02,1.2,1.12,10.4,10
-4.023e-02,1.2,1.28,10.4,10.8
-4.021e-02,1.2,1.12,10.8,10
-4.019e-02,1.12,1.28,10.8,10.8
-4.017e-02,1.2,1.04,10.4,10
-4.015e-02,1.2,1.28,10.4,10.8
-4.013e-02,1.12,1.04,10.8,10
-4.011e-02,1.12,1.2,10.4,10.8
-4.009e-02,1.12,1.04,10.4,10
-4.007e-02,1.12,1.2,10.4,10.8
-4.005e-02,1.12,1.04,10.8,10
-4.003e-02,1.12,1.2,10.4,10.8
-4.002e-02,1.04,0.96,10.8,10
-4.000e-02,1.04,1.2,10.4,10.8
-3.998e-02,1.04,0.96,10.8,10
-3.996e-02,1.12,1.2,10.4,10.8
-3.994e-02,1.04,0.96,10.8,10
-3.992e-02,1.04,1.12,10.8,10.8
-3.990e-02,1.04,0.96,10.4,10
-3.988e-02,1.04,1.12,10.4,10.8
-3.986e-02,1.04,0.96,10.4,10
-3.984e-02,1.04,1.12,10.8,10.8
-3.982e-02,1.04,0.88,10.8,10
-3.980e-02,0.96,1.12,10.4,10.8
-3.978e-02,1.04,0.88,10.8,10
-3.977e-02,0.96,1.12,10.4,10.8
-3.975e-02,0.96,0.88,10.8,10
-3.973e-02,0.96,1.04,10.4,10.8
-3.971e-02,0.96,0.88,10.4,9.6
-3.969e-02,0.88,1.04,10.4,10.8
-3.967e-02,0.96,0.88,10.8,10
-3.965e-02,0.96,1.04,10.4,10.8
-3.963e-02,0.88,0.88,10.8,9.6
-3.961e-02,0.96,1.04,10.4,10.8
-3.959e-02,0.88,0.88,10.4,9.6
-3.957e-02,0.88,1.04,10.4,11.2
-3.955e-02,0.88,0.8,10.4,10
-3.954e-02,0.88,0.96,10.4,10.8
-3.952e-02,0.88,0.8,10.4,10
-3.950e-02,0.88,1.04,10.4,10.8
-3.948e-02,0.88,0.8,10.4,10
-3.946e-02,0.88,0.96,10.4,10.8
-3.944e-02,0.88,0.8,10.8,10
-3.942e-02,0.88,0.96,10.4,10.8
-3.940e-02,0.8,0.72,10.8,10
-3.938e-02,0.8,0.88,10.8,10.8
-3.936e-02,0.8,0.72,10.4,10
-3.934e-02,0.8,0.88,10.4,10.8
-3.932e-02,0.8,0.72,10.4,10
-3.930e-02,0.8,0.96,10.4,10.8
-3.929e-02,0.8,0.72,10.4,10
-3.927e-02,0.8,0.88,10.4,10.8
-3.925e-02,0.8,0.72,10.4,10
-3.923e-02,0.8,0.88,10.8,10.8
-3.921e-02,0.8,0.64,10.4,10
-3.919e-02,0.72,0.88,10.4,10.8
-3.917e-02,0.72,0.64,10.4,9.6
-3.915e-02,0.8,0.8,10.8,10.8
-3.913e-02,0.72,0.64,10.4,10
-3.911e-02,0.72,0.8,10.4,10.8
-3.909e-02,0.8,0.64,10.4,10
-3.907e-02,0.72,0.96,10.4,10.8
-3.906e-02,0.72,0.64,10,10
-3.904e-02,0.72,0.88,10.4,10.8
-3.902e-02,0.72,0.64,10.8,10
-3.900e-02,0.72,0.8,10.8,10.8
-3.898e-02,0.72,0.64,10.4,10
-3.896e-02,0.72,0.8,10.8,10.8
-3.894e-02,0.72,0.56,10.4,10
-3.892e-02,0.72,0.72,10.4,10.8
-3.890e-02,0.64,0.56,10.4,10
-3.888e-02,0.64,0.72,10.4,10.8
-3.886e-02,0.64,0.56,10.4,10
-3.884e-02,0.64,0.72,10.4,10.8
-3.882e-02,0.64,0.56,10.4,10
-3.881e-02,0.64,0.72,10.4,10.8
-3.879e-02,0.64,0.56,10.4,10
-3.877e-02,0.64,0.72,10.4,10.8
-3.875e-02,0.56,0.56,10.4,10
-3.873e-02,0.64,0.72,10.4,10.8
-3.871e-02,0.64,0.56,10.4,10
-3.869e-02,0.64,0.72,10.4,10.8
-3.867e-02,0.64,0.48,10.4,9.6
-3.865e-02,0.64,0.72,10.4,10.8
-3.863e-02,0.64,0.48,10.8,10
-3.861e-02,0.64,0.8,10.8,10.8
-3.859e-02,0.56,0.48,10.4,10
-3.858e-02,0.56,0.64,10.4,10.8
-3.856e-02,0.56,0.48,10.4,10
-3.854e-02,0.48,0.64,10.4,10.8
-3.852e-02,0.56,0.48,10.4,10
-3.850e-02,0.56,0.64,10.4,10.8
-3.848e-02,0.56,0.48,10.8,10
-3.846e-02,0.56,0.64,10.4,10.8
-3.844e-02,0.56,0.48,10.4,9.6
-3.842e-02,0.56,0.64,10.4,10.8
-3.840e-02,0.56,0.48,10.4,9.6
-3.838e-02,0.56,0.64,10.4,10.8
-3.836e-02,0.56,0.4,10.4,9.6
-3.834e-02,0.56,0.64,10.4,10.8
-3.833e-02,0.56,0.48,10.4,9.6
-3.831e-02,0.48,0.64,10.4,10.8
-3.829e-02,0.56,0.48,10.4,10
-3.827e-02,0.48,0.64,10.4,10.8
-3.825e-02,0.48,0.48,10.4,9.6
-3.823e-02,0.56,0.64,10.8,10.8
-3.821e-02,0.48,0.48,10.4,9.6
-3.819e-02,0.48,0.64,10.4,10.8
-3.817e-02,0.48,0.48,10.4,9.6
-3.815e-02,0.56,0.64,10.4,10.8
-3.813e-02,0.48,0.4,10.4,9.6
-3.811e-02,0.48,0.64,10.4,10.8
-3.810e-02,0.48,0.4,10.4,9.6
-3.808e-02,0.48,0.64,10.4,10.8
-3.806e-02,0.48,0.4,10.4,9.6
-3.804e-02,0.56,0.64,10.4,10.8
-3.802e-02,0.56,0.4,10.4,9.6
-3.800e-02,0.48,0.56,10.4,10.8
-3.798e-02,0.48,0.4,10.4,9.6
-3.796e-02,0.48,0.56,10.4,10.8
-3.794e-02,0.48,0.4,10.4,9.6
-3.792e-02,0.56,0.56,10.8,10.8
-3.790e-02,0.48,0.4,10.4,9.6
-3.788e-02,0.48,0.64,10.4,10.8
-3.786e-02,0.48,0.4,10,9.6
-3.785e-02,0.48,0.56,10.4,10.8
-3.783e-02,0.48,0.4,10.4,9.6
-3.781e-02,0.48,0.56,10.4,10.8
-3.779e-02,0.48,0.4,10.4,9.6
-3.777e-02,0.48,0.56,10.4,10.8
-3.775e-02,0.48,0.4,10.4,9.6
-3.773e-02,0.48,0.56,10.4,10.8
-3.771e-02,0.48,0.4,10.4,9.6
-3.769e-02,0.48,0.64,10.4,10.8
-3.767e-02,0.56,0.4,10.4,9.6
-3.765e-02,0.48,0.56,10.4,10.8
-3.763e-02,0.48,0.4,10.8,9.6
-3.762e-02,0.48,0.56,10.4,10.8
-3.760e-02,0.48,0.4,10.4,9.6
-3.758e-02,0.48,0.56,10.4,10.8
-3.756e-02,0.48,0.4,10.4,9.6
-3.754e-02,0.48,0.56,10.4,10.8
-3.752e-02,0.48,0.4,10.4,9.6
-3.750e-02,0.48,0.56,10.4,10.8
-3.748e-02,0.48,0.4,10.4,9.6
-3.746e-02,0.48,0.56,10.4,10.8
-3.744e-02,0.48,0.4,10.4,9.2
-3.742e-02,0.48,0.56,10.4,10.8
-3.740e-02,0.48,0.4,10,9.2
-3.738e-02,0.48,0.56,10,10.8
-3.737e-02,0.48,0.4,10.4,9.2
-3.735e-02,0.48,0.56,10.4,10.8
-3.733e-02,0.48,0.4,10.4,9.2
-3.731e-02,0.48,0.56,10,10.8
-3.729e-02,0.48,0.4,9.6,9.2
-3.727e-02,0.48,0.56,9.6,10.8
-3.725e-02,0.48,0.4,10.4,9.2
-3.723e-02,0.48,0.64,10.4,10.8
-3.721e-02,0.48,0.4,10.4,8.8
-3.719e-02,0.48,0.56,10,10.8
-3.717e-02,0.48,0.4,9.6,9.2
-3.715e-02,0.48,0.56,9.6,10.8
-3.714e-02,0.48,0.4,10,8.8
-3.712e-02,0.48,0.56,10.4,10.8
